Genome_Pos	chrom	chrLen	meanValue	log2mean	max	median
wholeGenome	all	686562	28.63798	1	4506	0
0	Scer_mito-1	78701	0.4284062	0	73	0
78701	Spar_mito-1	71355	0.3545232	0	86	0
150056	Smik_mito-1	73485	0.4409335	0	104	0
223541	Sjur_mito-1	105732	183.8627	2.682627	4506	0
329273	Skud_mito-1	92142	0.4600833	0	74	0
421415	Sarb_mito-1	72047	0.6575846	0	160	0
493462	Seub_mito_CD-1	64322	0.2231896	0	56	0
557784	Seub_mito_FM-1	63999	0.11758	0	34	0
621783	Suva_mito-1	64779	0.2858642	0	144	0
