ERR1111502 count of reads mapped - Chi Squared P-value 0
Scer
1907.7002849998
Spar
1380.03420197795
Smik
-473.649640027629
Sjur
-471.111045994058
Skud
-475.50039694714
Sarb
-478.123679634393
Seub
-477.846892327234
Suva
-473.356328105117
Unmapped
-438.146503942183
ERR1111502 MQ60 - Chi Squared P-value 0
Scer
1729.41849324712
Spar
1227.56261106244
Smik
-492.218169609539
Sjur
-493.373523605762
Skud
-493.185677588894
Sarb
-493.670441503393
Seub
-493.607826164437
Suva
-490.925465837541
