ERR3010136 count of reads mapped - Chi Squared P-value 0
Scer
3821.12969490249
Spar
-300.888499191528
Smik
-445.210808771562
Sjur
-550.778960701877
Skud
-524.972835907902
Sarb
-573.279756777268
Seub
-574.217217879033
Suva
-500.092064784488
Unmapped
-351.689550888837
ERR3010136 MQ60 - Chi Squared P-value 0
Scer
3680.07776005752
Spar
-339.395995854317
Smik
-477.48250971994
Sjur
-578.802580725426
Skud
-564.032815573826
Sarb
-577.733909231698
Seub
-578.495272929168
Suva
-564.134676023148
