SRR10047389 count of reads mapped - Chi Squared P-value 0
Scer
-862.731991947225
Spar
-932.45309166521
Smik
-910.461977798367
Sjur
-888.703099011785
Skud
-794.16071391551
Sarb
-928.862221246419
Seub
370.713934178796
Suva
5700.60811313507
Unmapped
-753.948951729349
SRR10047389 MQ60 - Chi Squared P-value 0
Scer
-894.793891704607
Spar
-944.644478752439
Smik
-919.403715050406
Sjur
-942.75900640669
Skud
-918.280410256447
Sarb
-947.499982527739
Seub
204.737783508247
Suva
5362.64370119008
