SRR10047241 count of reads mapped - Chi Squared P-value 0
Scer
271.27410797061
Spar
-378.25490195391
Smik
-362.194823617114
Sjur
-351.96384522132
Skud
-330.56319616192
Sarb
-379.336827919265
Seub
2067.21238233434
Suva
-335.269446223985
Unmapped
-200.903449207435
SRR10047241 MQ60 - Chi Squared P-value 0
Scer
250.247620850737
Spar
-383.618363120323
Smik
-368.456278049516
Sjur
-383.569336636942
Skud
-379.536263293567
Sarb
-385.963893298908
Seub
2011.60660722387
Suva
-360.710093675356
