SRR10047163 count of reads mapped - Chi Squared P-value 0
Scer
4443.86664245824
Spar
-1156.2250793736
Smik
-1155.60919109415
Sjur
-1163.93878639407
Skud
-1178.10086048211
Sarb
-1183.59015356683
Seub
3146.53322335224
Suva
-1121.26712637822
Unmapped
-631.668668521487
SRR10047163 MQ60 - Chi Squared P-value 0
Scer
4160.84104247963
Spar
-1178.08749442441
Smik
-1171.1779856509
Sjur
-1189.96171881136
Skud
-1188.75073074619
Sarb
-1190.75590558263
Seub
2914.99010690878
Suva
-1157.09731417291
