SRR10047359 count of reads mapped - Chi Squared P-value 0
Scer
-291.354157432183
Spar
-286.822156932978
Smik
-294.29631380153
Sjur
-308.30259765524
Skud
-300.569315088102
Sarb
-261.141720512822
Seub
223.431433518671
Suva
1164.02262944283
Unmapped
355.032198461355
SRR10047359 MQ60 - Chi Squared P-value 0
Scer
-283.361740610956
Spar
-267.168759277932
Smik
-271.753088463505
Sjur
-290.97413131386
Skud
-298.03744219227
Sarb
-295.935343692578
Seub
287.882714432165
Suva
1419.34779111894
