SRR10047336 count of reads mapped - Chi Squared P-value 0
Scer
1034.83227130099
Spar
-463.26647205511
Smik
-477.018209208099
Sjur
-504.145048214969
Skud
-79.7043585316574
Sarb
-419.767824249272
Seub
949.192318361469
Suva
-414.65140656282
Unmapped
374.528729159467
SRR10047336 MQ60 - Chi Squared P-value 0
Scer
1211.53663483853
Spar
-446.531248012257
Smik
-444.253495361686
Sjur
-481.26439929019
Skud
-54.6794621586992
Sarb
-445.001752567258
Seub
1081.70679507062
Suva
-421.513072519066
