SRR10046952 count of reads mapped - Chi Squared P-value 0
Scer
-452.471133342773
Spar
-607.481255839125
Smik
-589.16187772592
Sjur
-568.983161022165
Skud
-525.530091961267
Sarb
-606.662494459778
Seub
1062.90612794285
Suva
2814.60043109105
Unmapped
-527.21654468287
SRR10046952 MQ60 - Chi Squared P-value 0
Scer
-585.665967984302
Spar
-611.306028142035
Smik
-599.135289259747
Sjur
-608.76113333884
Skud
-600.041846779499
Sarb
-612.026373846918
Seub
968.220990542197
Suva
2648.71564880914
