SRR2968046 count of reads mapped - Chi Squared P-value 0
Scer
3818.62650267206
Spar
-993.532303478086
Smik
-990.65338525888
Sjur
-1004.06875247083
Skud
-1013.73075453508
Sarb
-1018.14313735677
Seub
2762.13695801457
Suva
-940.449555945785
Unmapped
-620.185571641204
SRR2968046 MQ60 - Chi Squared P-value 0
Scer
3566.15307191589
Spar
-1014.19242543126
Smik
-1009.20069567796
Sjur
-1023.42405379119
Skud
-1022.69075026032
Sarb
-1024.60006982605
Seub
2506.30226274292
Suva
-978.34733967203
