SRR3265414 count of reads mapped - Chi Squared P-value 0
Scer
7750.90655357984
Spar
-1434.25908935648
Smik
-1420.71206624435
Sjur
-1481.21542626401
Skud
1903.07420189849
Sarb
-1495.87396282346
Seub
-1495.3415959797
Suva
-1453.17656066603
Unmapped
-873.402054144291
SRR3265414 MQ60 - Chi Squared P-value 0
Scer
7309.78090340861
Spar
-1484.68100655109
Smik
-1466.74325576589
Sjur
-1520.91570804785
Skud
1700.14714780593
Sarb
-1520.79532045868
Seub
-1519.365063557
Suva
-1497.42769683403
