SRR8799652 count of reads mapped - Chi Squared P-value 0
Scer
4176.42776683756
Spar
-1128.98544022309
Smik
-1132.98040511436
Sjur
-1147.00715177124
Skud
-1158.81542155557
Sarb
-1155.33838568801
Seub
2000.15912330582
Suva
-1031.25556116479
Unmapped
577.795475373674
SRR8799652 MQ60 - Chi Squared P-value 0
Scer
4320.89326790454
Spar
-1076.07420407484
Smik
-1074.39746416908
Sjur
-1094.40377187327
Skud
-1094.63746067792
Sarb
-1094.00368209098
Seub
2108.15035293278
Suva
-995.527037951217
