SRR8799631 count of reads mapped - Chi Squared P-value 0
Scer
6385.68814586254
Spar
-1638.02210872222
Smik
-1659.5635485912
Sjur
-1658.2238210523
Skud
-1671.88678331344
Sarb
-1676.85518726093
Seub
4843.57675256895
Suva
-1598.59940741573
Unmapped
-1326.11404207566
SRR8799631 MQ60 - Chi Squared P-value 0
Scer
5854.50898732259
Spar
-1678.58964710675
Smik
-1686.73371475786
Sjur
-1691.62664229597
Skud
-1692.24467147037
Sarb
-1694.45966916027
Seub
4248.41333676067
Suva
-1659.26797929203
