SRR8799691 count of reads mapped - Chi Squared P-value 0
Scer
7366.30511917652
Spar
-1833.26701421653
Smik
-1866.49106086153
Sjur
-1860.07692917169
Skud
-1875.30843799239
Sarb
-1881.10135140767
Seub
5387.53038644232
Suva
-1798.81166206657
Unmapped
-1638.77904990245
SRR8799691 MQ60 - Chi Squared P-value 0
Scer
6713.50377698674
Spar
-1888.79603365825
Smik
-1902.9258767389
Sjur
-1906.29513965517
Skud
-1905.10796040338
Sarb
-1907.94335939309
Seub
4673.27441144915
Suva
-1875.70981858712
