SRR8799692 count of reads mapped - Chi Squared P-value 0
Scer
7291.55292686203
Spar
-1792.46065871233
Smik
-1828.0667335076
Sjur
-1821.54747167396
Skud
-1834.03694211232
Sarb
-1839.5312684515
Seub
5145.48054933019
Suva
-1763.15379085342
Unmapped
-1558.23661088109
SRR8799692 MQ60 - Chi Squared P-value 0
Scer
6658.90404777781
Spar
-1845.22646735609
Smik
-1861.84098390329
Sjur
-1863.53485543387
Skud
-1862.4915248834
Sarb
-1865.19014463285
Seub
4470.97557955135
Suva
-1831.59565111965
