SRR8648841 count of reads mapped - Chi Squared P-value 0
Scer
3558.49621957719
Spar
-998.239795484702
Smik
-1029.35619239376
Sjur
-1055.41374013523
Skud
-1069.62343856018
Sarb
-983.830936678028
Seub
2503.29099831446
Suva
-813.930461252569
Unmapped
-111.392653387174
SRR8648841 MQ60 - Chi Squared P-value 0
Scer
3577.05202079799
Spar
-1023.49645015
Smik
-1036.10287849564
Sjur
-1065.29773205296
Skud
-1073.60947024149
Sarb
-1061.08698021292
Seub
2581.65057859189
Suva
-899.109088236872
