SRR9925225 count of reads mapped - Chi Squared P-value 0
Scer
6366.01905403928
Spar
-1099.30495280775
Smik
-1139.96940138646
Sjur
-1149.7635564997
Skud
959.56496211626
Sarb
-1154.88363706366
Seub
-1157.48091585167
Suva
-1126.68681151346
Unmapped
-497.494741032823
SRR9925225 MQ60 - Chi Squared P-value 0
Scer
6034.86406362322
Spar
-1126.23963751227
Smik
-1152.91308735264
Sjur
-1164.51005319342
Skud
869.543776052188
Sarb
-1160.15915607192
Seub
-1161.26615864793
Suva
-1139.31974689722
