SRR10047094	../../DATA/trim_seq_data/SRR10047094_1_val_1.fq.gz
SRR10047057	../../DATA/trim_seq_data/SRR10047057_1_val_1.fq.gz
SRR10046945	../../DATA/trim_seq_data/SRR10046945_1_val_1.fq.gz
SRR10047365	../../DATA/trim_seq_data/SRR10047365_1_val_1.fq.gz
SRR10046950	../../DATA/trim_seq_data/SRR10046950_1_val_1.fq.gz
SRR10046952	../../DATA/trim_seq_data/SRR10046952_1_val_1.fq.gz
SRR10046972	../../DATA/trim_seq_data/SRR10046972_1_val_1.fq.gz
SRR10046976	../../DATA/trim_seq_data/SRR10046976_1_val_1.fq.gz
SRR5141258	../../DATA/trim_seq_data/SRR5141258_1_val_1.fq.gz
SRR5141260	../../DATA/trim_seq_data/SRR5141260_1_val_1.fq.gz
SRR12703370	../../DATA/trim_seq_data/SRR12703370_1_val_1.fq.gz
SRR12703369	../../DATA/trim_seq_data/SRR12703369_1_val_1.fq.gz
SRR12703368	../../DATA/trim_seq_data/SRR12703368_1_val_1.fq.gz
SRR12703367	../../DATA/trim_seq_data/SRR12703367_1_val_1.fq.gz
SRR12703366	../../DATA/trim_seq_data/SRR12703366_1_val_1.fq.gz
SRR5251559	../../DATA/trim_seq_data/SRR5251559_1_val_1.fq.gz
SRR10208681	../../DATA/trim_seq_data/SRR10208681_1_val_1.fq.gz
SRR9925228	../../DATA/trim_seq_data/SRR9925228_1_val_1.fq.gz
SRR9925227	../../DATA/trim_seq_data/SRR9925227_1_val_1.fq.gz
SRR9925226	../../DATA/trim_seq_data/SRR9925226_1_val_1.fq.gz
SRR9925224	../../DATA/trim_seq_data/SRR9925224_1_val_1.fq.gz
SRR9925223	../../DATA/trim_seq_data/SRR9925223_1_val_1.fq.gz
SRR9925222	../../DATA/trim_seq_data/SRR9925222_1_val_1.fq.gz
SRR9925225	../../DATA/trim_seq_data/SRR9925225_1_val_1.fq.gz
