SRR8799666	../../DATA/trim_seq_data/SRR8799666_1_val_1.fq.gz
SRR8799653	../../DATA/trim_seq_data/SRR8799653_1_val_1.fq.gz
SRR8799631	../../DATA/trim_seq_data/SRR8799631_1_val_1.fq.gz
SRR8799695	../../DATA/trim_seq_data/SRR8799695_1_val_1.fq.gz
SRR8799649	../../DATA/trim_seq_data/SRR8799649_1_val_1.fq.gz
SRR8799645	../../DATA/trim_seq_data/SRR8799645_1_val_1.fq.gz
SRR8799681	../../DATA/trim_seq_data/SRR8799681_1_val_1.fq.gz
SRR8799684	../../DATA/trim_seq_data/SRR8799684_1_val_1.fq.gz
SRR8799676	../../DATA/trim_seq_data/SRR8799676_1_val_1.fq.gz
SRR8799687	../../DATA/trim_seq_data/SRR8799687_1_val_1.fq.gz
SRR8799691	../../DATA/trim_seq_data/SRR8799691_1_val_1.fq.gz
SRR8799693	../../DATA/trim_seq_data/SRR8799693_1_val_1.fq.gz
SRR8799659	../../DATA/trim_seq_data/SRR8799659_1_val_1.fq.gz
SRR8799643	../../DATA/trim_seq_data/SRR8799643_1_val_1.fq.gz
SRR8799644	../../DATA/trim_seq_data/SRR8799644_1_val_1.fq.gz
SRR8799662	../../DATA/trim_seq_data/SRR8799662_1_val_1.fq.gz
SRR8799663	../../DATA/trim_seq_data/SRR8799663_1_val_1.fq.gz
SRR8799634	../../DATA/trim_seq_data/SRR8799634_1_val_1.fq.gz
SRR8799640	../../DATA/trim_seq_data/SRR8799640_1_val_1.fq.gz
SRR8799671	../../DATA/trim_seq_data/SRR8799671_1_val_1.fq.gz
SRR8799667	../../DATA/trim_seq_data/SRR8799667_1_val_1.fq.gz
SRR8799637	../../DATA/trim_seq_data/SRR8799637_1_val_1.fq.gz
SRR8799690	../../DATA/trim_seq_data/SRR8799690_1_val_1.fq.gz
SRR8799673	../../DATA/trim_seq_data/SRR8799673_1_val_1.fq.gz
SRR8799672	../../DATA/trim_seq_data/SRR8799672_1_val_1.fq.gz
