Genome_Pos	chrom	chrLen	meanValue	log2mean	max	median
wholeGenome	all	93017689	16.60151	1	68800	0
0	Scer-1	225679	59.18791	1.833988	16218	45
225679	Scer-2	774262	0.3163025	0	2514	0
999941	Scer-3	301492	0.3904913	0	595	0
1301433	Scer-4	1470431	0.282794	0	2032	0
2771864	Scer-5	589033	32.47526	0.9680266	2544	34
3360897	Scer-6	275148	5.172071	0	935	0
3636045	Scer-7	1040499	24.75668	0.5765034	3502	0
4676544	Scer-8	539841	0.1038917	0	67	0
5216385	Scer-9	449951	45.08007	1.441175	4257	42
5666336	Scer-10	711359	31.19149	0.9098381	3666	35
6377695	Scer-11	674222	36.38824	1.132158	6106	40
7051917	Scer-12	1011671	1.722655	0	2961	0
8063588	Scer-13	911673	5.751598	0	2230	0
8975261	Scer-14	760295	39.86992	1.263986	3638	40
9735556	Scer-15	1049539	0.901129	0	4034	0
10785095	Scer-16	911421	0.9601282	0	5874	0
11696516	Spar-1	224181	0.3223199	0	576	0
11920697	Spar-2	800085	0.8126924	0	13833	0
12720782	Spar-3	312241	0.3116919	0	2434	0
13033023	Spar-4	1466838	0.4060721	0	6365	0
14499861	Spar-5	553973	0.4802256	0	5110	0
15053834	Spar-6	296174	0.1097666	0	79	0
15350008	Spar-7	1082435	0.2482117	0	2539	0
16432443	Spar-8	529296	0.2387303	0	2724	0
16961739	Spar-9	442403	0.3764351	0	4060	0
17404142	Spar-10	729272	0.4769592	0	3096	0
18133414	Spar-11	679893	0.4018294	0	2544	0
18813307	Spar-12	1026045	0.2512999	0	3331	0
19839352	Spar-13	926729	1.159799	0	17176	0
20766081	Spar-14	776644	0.4407322	0	4453	0
21542725	Spar-15	1061158	0.7850179	0	12436	0
22603883	Spar-16	904322	1.207034	0	15276	0
23508205	Smik-1	188471	34.18639	1.042108	17171	0
23696676	Smik-2	788170	0.05627466	0	971	0
24484846	Smik-3	311108	0.3540089	0	1964	0
24795954	Smik-4	1444590	0.2183893	0	4199	0
26240544	Smik-5	567059	0.01346244	0	243	0
26807603	Smik-6	801748	0.05348064	0	508	0
27609351	Smik-7	628517	0.1196117	0	2223	0
28237868	Smik-8	500793	0.1164054	0	1357	0
28738661	Smik-9	418555	0.4490282	0	472	0
29157216	Smik-10	702533	0.1430766	0	1937	0
29859749	Smik-11	654555	0.4609284	0	7906	0
30514304	Smik-12	998246	1.020387	0	15980	0
31512550	Smik-13	899821	0.2861947	0	3219	0
32412371	Smik-14	731595	0.07228043	0	1631	0
33143966	Smik-15	1013536	7.701024	0	6425	0
34157502	Smik-16	800825	0.2471127	0	2328	0
34958327	Sjur-1	809572	0.9810752	0	14858	0
35767899	Sjur-2	809280	0.04304073	0	968	0
36577179	Sjur-3	308350	0.291221	0	606	0
36885529	Sjur-4	1474466	0.09838002	0	2506	0
38359995	Sjur-5	584553	0.08443717	0	1076	0
38944548	Sjur-6	730011	0.168818	0	145	0
39674559	Sjur-7	638210	1.269532	0	16169	0
40312769	Sjur-8	534462	0.1088927	0	1098	0
40847231	Sjur-9	434517	0.3371721	0	2946	0
41281748	Sjur-10	738741	0.2064188	0	1018	0
42020489	Sjur-11	671067	0.3562714	0	3416	0
42691556	Sjur-12	458950	15.8665	0	5739	0
43150506	Sjur-13	568540	0.9043374	0	13727	0
43719046	Sjur-14	334136	0.002418177	0	25	0
44053182	Sjur-15	749072	0.8488129	0	8048	0
44802254	Sjur-16	1068672	0.08112218	0	1823	0
45870926	Sjur-17	920427	0.1736911	0	1396	0
46791353	Skud-1	199426	0.03740234	0	280	0
46990779	Skud-2	784124	0.3247522	0	3425	0
47774903	Skud-3	337911	0.2995937	0	3916	0
48112814	Skud-4	1455859	0.1705914	0	4082	0
49568673	Skud-5	528556	0.03742271	0	724	0
50097229	Skud-6	278641	0.186638	0	2348	0
50375870	Skud-7	1092180	1.35697	0	25653	0
51468050	Skud-8	512600	0.02984198	0	370	0
51980650	Skud-9	438920	0.09979039	0	765	0
52419570	Skud-10	690961	0.03626833	0	673	0
53110531	Skud-11	658697	0.1530005	0	3028	0
53769228	Skud-12	1038862	9.238704	0	12307	0
54808090	Skud-13	898506	0.184917	0	4041	0
55706596	Skud-14	776595	2.989074	0	5065	0
56483191	Skud-15	1030073	0.2429391	0	4293	0
57513264	Skud-16	881309	0.03650819	0	982	0
58394573	Sarb-1	194368	5.598576	0	23058	0
58588941	Sarb-2	782499	0.4799431	0	6010	0
59371440	Sarb-3	298424	0.6735249	0	3962	0
59669864	Sarb-4	1141293	0.5390789	0	7941	0
60811157	Sarb-5	407361	0.3825329	0	3506	0
61218518	Sarb-6	531626	0.216357	0	3982	0
61750144	Sarb-7	272605	0.4327507	0	3052	0
62022749	Sarb-8	1053431	0.1656625	0	3124	0
63076180	Sarb-9	527949	0.1204927	0	2620	0
63604129	Sarb-10	721635	0.3246641	0	3109	0
64325764	Sarb-11	650640	1.763665	0	13467	0
64976404	Sarb-12	984206	1.263223	0	17467	0
65960610	Sarb-13	1246548	0.5715392	0	5875	0
67207158	Sarb-14	771513	0.3067051	0	3663	0
67978671	Sarb-15	1023324	0.06626933	0	1175	0
69001995	Sarb-16	879294	1.753914	0	21946	0
69881289	Seub-1	175444	77.92795	2.230826	475	85
70056733	Seub-2	1274804	119.0303	2.841942	16616	119
71331537	Seub-3	305615	132.9938	3.001973	3423	135
71637152	Seub-4	982538	119.4326	2.84681	3164	120
72619690	Seub-5	588913	94.36156	2.506885	12974	93
73208603	Seub-6	264757	121.3877	2.870236	5092	128
73473360	Seub-7	1051730	97.82975	2.558959	7062	114
74525090	Seub-8	813827	120.995	2.865561	2487	121
75338917	Seub-9	401362	81.72817	2.299519	3974	83
75740279	Seub-10	747934	86.25411	2.377279	841	85
76488213	Seub-11	632881	85.9511	2.372202	2910	83
77121094	Seub-12	1033978	125.5414	2.918776	17597	121
78155072	Seub-13	953685	109.6812	2.72393	8449	118
79108757	Seub-14	768019	78.88316	2.248403	2693	80
79876776	Seub-15	741893	124.8166	2.910424	16329	124
80618669	Seub-16	896107	118.3496	2.833668	2567	120
81514776	Suva-1	189981	5.421905	0	12622	0
81704757	Suva-2	1289935	2.199964	0	17881	0
82994692	Suva-3	295075	2.019971	0	3077	0
83289767	Suva-4	983774	2.925503	0	1781	0
84273541	Suva-5	531350	1.19965	0	8901	0
84804891	Suva-6	523204	59.20755	1.834467	17605	0
85328095	Suva-7	1027508	2.5464	0	17032	0
86355603	Suva-8	806278	1.625954	0	3806	0
87161881	Suva-9	418340	2.261015	0	5873	0
87580221	Suva-10	445542	0.934886	0	5706	0
88025763	Suva-11	635711	0.7594567	0	1096	0
88661474	Suva-12	1016005	1.359287	0	8923	0
89677479	Suva-13	907341	0.7293289	0	11516	0
90584820	Suva-14	750656	3.679077	0	16948	0
91335476	Suva-15	763749	14.49653	0	68800	0
92099225	Suva-16	918464	1.655756	0	4018	0
