Genome_Pos	chrom	chrLen	meanValue	log2mean	max	median
wholeGenome	all	93017689	7.96483	1	20596	0
0	Scer-1	225679	55.33563	2.796493	312	53
225679	Scer-2	774262	59.42716	2.899407	185	61
999941	Scer-3	301492	55.33807	2.796557	441	57
1301433	Scer-4	1470431	53.49687	2.747739	1968	54
2771864	Scer-5	589033	47.05925	2.562763	292	48
3360897	Scer-6	275148	46.55236	2.547139	406	46
3636045	Scer-7	1040499	60.52215	2.925748	2024	60
4676544	Scer-8	539841	55.65495	2.804795	292	56
5216385	Scer-9	449951	53.87932	2.758016	434	55
5666336	Scer-10	711359	55.90391	2.811234	170	58
6377695	Scer-11	674222	56.5939	2.828931	602	57
7051917	Scer-12	1011671	77.0088	3.273308	6727	58
8063588	Scer-13	911673	58.63373	2.880015	252	60
8975261	Scer-14	760295	61.59933	2.951199	270	62
9735556	Scer-15	1049539	57.37696	2.848756	210	58
10785095	Scer-16	911421	55.79605	2.808447	455	57
11696516	Spar-1	224181	2.733019	0	124	0
11920697	Spar-2	800085	2.762753	0	331	0
12720782	Spar-3	312241	1.192752	0	112	0
13033023	Spar-4	1466838	9.488183	0.2524881	1870	0
14499861	Spar-5	553973	7.68577	0	200	0
15053834	Spar-6	296174	9.337538	0.2293986	389	0
15350008	Spar-7	1082435	0.9749953	0	218	0
16432443	Spar-8	529296	1.755392	0	129	0
16961739	Spar-9	442403	3.378042	0	4250	0
17404142	Spar-10	729272	3.875144	0	1028	0
18133414	Spar-11	679893	2.821326	0	147	0
18813307	Spar-12	1026045	1.822662	0	135	0
19839352	Spar-13	926729	1.263934	0	391	0
20766081	Spar-14	776644	1.002461	0	142	0
21542725	Spar-15	1061158	1.211823	0	134	0
22603883	Spar-16	904322	2.097273	0	161	0
23508205	Smik-1	188471	0.1142669	0	61	0
23696676	Smik-2	788170	0.08553104	0	77	0
24484846	Smik-3	311108	1.440898	0	203	0
24795954	Smik-4	1444590	0.00239722	0	38	0
26240544	Smik-5	567059	0.009519292	0	68	0
26807603	Smik-6	801748	0.003345191	0	12	0
27609351	Smik-7	628517	0.003756462	0	18	0
28237868	Smik-8	500793	0.009099568	0	14	0
28738661	Smik-9	418555	0.07715115	0	59	0
29157216	Smik-10	702533	0.00390729	0	8	0
29859749	Smik-11	654555	0.1317384	0	3805	0
30514304	Smik-12	998246	0.1326006	0	6382	0
31512550	Smik-13	899821	0.003364002	0	40	0
32412371	Smik-14	731595	0.004533929	0	15	0
33143966	Smik-15	1013536	13.8545	0.7986386	16005	0
34157502	Smik-16	800825	0.02936097	0	41	0
34958327	Sjur-1	809572	0.0675641	0	238	0
35767899	Sjur-2	809280	0.00210434	0	6	0
36577179	Sjur-3	308350	0.00155343	0	4	0
36885529	Sjur-4	1474466	0.0009047343	0	8	0
38359995	Sjur-5	584553	0.002971501	0	13	0
38944548	Sjur-6	730011	0.04448837	0	166	0
39674559	Sjur-7	638210	0.08863227	0	2814	0
40312769	Sjur-8	534462	0.002490355	0	10	0
40847231	Sjur-9	434517	0.01312492	0	16	0
41281748	Sjur-10	738741	0.03003759	0	66	0
42020489	Sjur-11	671067	0.0747526	0	300	0
42691556	Sjur-12	458950	1.000963	0	514	0
43150506	Sjur-13	568540	0.01280121	0	20	0
43719046	Sjur-14	334136	0.00415699	0	62	0
44053182	Sjur-15	749072	0.2210161	0	7174	0
44802254	Sjur-16	1068672	0.01338484	0	294	0
45870926	Sjur-17	920427	0.001293965	0	14	0
46791353	Skud-1	199426	0.004292319	0	6	0
46990779	Skud-2	784124	0.003911371	0	108	0
47774903	Skud-3	337911	0.1304338	0	236	0
48112814	Skud-4	1455859	0.006148947	0	58	0
49568673	Skud-5	528556	0.002366826	0	11	0
50097229	Skud-6	278641	0.00619435	0	12	0
50375870	Skud-7	1092180	0.08268417	0	243	0
51468050	Skud-8	512600	0.009728833	0	62	0
51980650	Skud-9	438920	0.001118655	0	4	0
52419570	Skud-10	690961	0.01110772	0	20	0
53110531	Skud-11	658697	0.007687905	0	34	0
53769228	Skud-12	1038862	0.01886584	0	80	0
54808090	Skud-13	898506	0.1159714	0	82	0
55706596	Skud-14	776595	5.41983	0	14447	0
56483191	Skud-15	1030073	0.00676554	0	328	0
57513264	Skud-16	881309	0.0009168181	0	9	0
58394573	Sarb-1	194368	0.007408627	0	10	0
58588941	Sarb-2	782499	0.002122686	0	18	0
59371440	Sarb-3	298424	0.02622778	0	58	0
59669864	Sarb-4	1141293	0.01316139	0	55	0
60811157	Sarb-5	407361	0.002236346	0	17	0
61218518	Sarb-6	531626	0.002407708	0	9	0
61750144	Sarb-7	272605	0.0006566277	0	2	0
62022749	Sarb-8	1053431	0.009706378	0	198	0
63076180	Sarb-9	527949	0.004449293	0	18	0
63604129	Sarb-10	721635	0.02906871	0	225	0
64325764	Sarb-11	650640	0.001867392	0	17	0
64976404	Sarb-12	984206	0.002729103	0	17	0
65960610	Sarb-13	1246548	0.001682246	0	16	0
67207158	Sarb-14	771513	0.2779188	0	263	0
67978671	Sarb-15	1023324	0.007631991	0	302	0
69001995	Sarb-16	879294	0.002516792	0	76	0
69881289	Seub-1	175444	0.001704248	0	1	0
70056733	Seub-2	1274804	0.00768981	0	46	0
71331537	Seub-3	305615	0.003347349	0	2	0
71637152	Seub-4	982538	0.0002066078	0	4	0
72619690	Seub-5	588913	0.05975076	0	370	0
73208603	Seub-6	264757	0.004407815	0	26	0
73473360	Seub-7	1051730	0.005082103	0	14	0
74525090	Seub-8	813827	0.001678489	0	9	0
75338917	Seub-9	401362	0.004507153	0	13	0
75740279	Seub-10	747934	0.01382876	0	38	0
76488213	Seub-11	632881	0.003910688	0	25	0
77121094	Seub-12	1033978	0.0508357	0	164	0
78155072	Seub-13	953685	0.005834212	0	30	0
79108757	Seub-14	768019	0.002600196	0	16	0
79876776	Seub-15	741893	0.01652529	0	389	0
80618669	Seub-16	896107	0.002614643	0	8	0
81514776	Suva-1	189981	0.02102315	0	10	0
81704757	Suva-2	1289935	0.01349758	0	6	0
82994692	Suva-3	295075	0.01579937	0	5	0
83289767	Suva-4	983774	0.0153023	0	10	0
84273541	Suva-5	531350	0.01222735	0	7	0
84804891	Suva-6	523204	0.1302437	0	189	0
85328095	Suva-7	1027508	0.01272691	0	30	0
86355603	Suva-8	806278	0.01564845	0	22	0
87161881	Suva-9	418340	3.088423	0	9661	0
87580221	Suva-10	445542	0.140126	0	282	0
88025763	Suva-11	635711	0.01474884	0	5	0
88661474	Suva-12	1016005	0.02026171	0	122	0
89677479	Suva-13	907341	0.4459867	0	20596	0
90584820	Suva-14	750656	0.009602268	0	16	0
91335476	Suva-15	763749	0.03154701	0	302	0
92099225	Suva-16	918464	0.01261998	0	6	0
