Genome_Pos	chrom	chrLen	meanValue	log2mean	max	median
wholeGenome	all	93017689	6.023703	1	32403	0
0	Scer-1	225679	54.66205	3.181817	10488	52
225679	Scer-2	774262	20.59539	1.773599	1116	20
999941	Scer-3	301492	32.38869	2.426767	464	19
1301433	Scer-4	1470431	17.40317	1.530628	1061	16
2771864	Scer-5	589033	44.52053	2.885748	1661	48
3360897	Scer-6	275148	24.32784	2.013886	1449	20
3636045	Scer-7	1040499	23.75269	1.979369	2065	18
4676544	Scer-8	539841	24.43633	2.020305	89	25
5216385	Scer-9	449951	34.12043	2.501913	2319	32
5666336	Scer-10	711359	15.85564	1.396274	1707	16
6377695	Scer-11	674222	26.48858	2.136648	3019	25
7051917	Scer-12	1011671	14.57952	1.27522	1822	8
8063588	Scer-13	911673	21.10152	1.808624	1646	19
8975261	Scer-14	760295	21.71859	1.850208	1189	20
9735556	Scer-15	1049539	18.40378	1.61128	2216	18
10785095	Scer-16	911421	19.18748	1.671443	2014	17
11696516	Spar-1	224181	0.4306074	0	286	0
11920697	Spar-2	800085	0.5701594	0	8922	0
12720782	Spar-3	312241	0.350822	0	1519	0
13033023	Spar-4	1466838	0.2385062	0	2946	0
14499861	Spar-5	553973	0.313694	0	2248	0
15053834	Spar-6	296174	0.07584055	0	51	0
15350008	Spar-7	1082435	0.1739144	0	1446	0
16432443	Spar-8	529296	0.16248	0	1523	0
16961739	Spar-9	442403	0.269745	0	2140	0
17404142	Spar-10	729272	0.2247927	0	1785	0
18133414	Spar-11	679893	0.09773008	0	614	0
18813307	Spar-12	1026045	0.08927094	0	969	0
19839352	Spar-13	926729	0.9936389	0	9110	0
20766081	Spar-14	776644	0.2237898	0	2129	0
21542725	Spar-15	1061158	0.4976987	0	7492	0
22603883	Spar-16	904322	0.9392816	0	8453	0
23508205	Smik-1	188471	21.32884	1.824083	10849	0
23696676	Smik-2	788170	0.03383153	0	694	0
24484846	Smik-3	311108	0.1748814	0	1230	0
24795954	Smik-4	1444590	0.1265847	0	2144	0
26240544	Smik-5	567059	0.01114875	0	202	0
26807603	Smik-6	801748	0.08528989	0	350	0
27609351	Smik-7	628517	0.061416	0	1267	0
28237868	Smik-8	500793	0.06328563	0	727	0
28738661	Smik-9	418555	0.4988233	0	559	0
29157216	Smik-10	702533	0.06891776	0	946	0
29859749	Smik-11	654555	0.1672327	0	2643	0
30514304	Smik-12	998246	0.4499021	0	7810	0
31512550	Smik-13	899821	0.1588238	0	1960	0
32412371	Smik-14	731595	0.09501022	0	742	0
33143966	Smik-15	1013536	0.7502851	0	1230	0
34157502	Smik-16	800825	0.08361627	0	1070	0
34958327	Sjur-1	809572	0.5388292	0	8270	0
35767899	Sjur-2	809280	0.01503064	0	294	0
36577179	Sjur-3	308350	0.3243684	0	405	0
36885529	Sjur-4	1474466	0.04097823	0	1262	0
38359995	Sjur-5	584553	0.03725924	0	424	0
38944548	Sjur-6	730011	0.04681436	0	411	0
39674559	Sjur-7	638210	0.6425628	0	8454	0
40312769	Sjur-8	534462	0.06741171	0	948	0
40847231	Sjur-9	434517	0.1434374	0	1312	0
41281748	Sjur-10	738741	0.05386326	0	602	0
42020489	Sjur-11	671067	0.1294357	0	1832	0
42691556	Sjur-12	458950	0.7244733	0	1917	0
43150506	Sjur-13	568540	0.4577936	0	6732	0
43719046	Sjur-14	334136	0.001741806	0	6	0
44053182	Sjur-15	749072	0.420248	0	4807	0
44802254	Sjur-16	1068672	0.04058495	0	1044	0
45870926	Sjur-17	920427	0.06753387	0	788	0
46791353	Skud-1	199426	0.07575742	0	676	0
46990779	Skud-2	784124	0.1771837	0	2022	0
47774903	Skud-3	337911	0.1732261	0	2363	0
48112814	Skud-4	1455859	0.08504807	0	1545	0
49568673	Skud-5	528556	0.01923164	0	358	0
50097229	Skud-6	278641	0.0870439	0	1078	0
50375870	Skud-7	1092180	0.4326512	0	8373	0
51468050	Skud-8	512600	0.01459813	0	93	0
51980650	Skud-9	438920	0.1067962	0	952	0
52419570	Skud-10	690961	0.01875938	0	374	0
53110531	Skud-11	658697	0.05924879	0	1083	0
53769228	Skud-12	1038862	0.385234	0	8457	0
54808090	Skud-13	898506	0.2455821	0	1435	0
55706596	Skud-14	776595	0.2860745	0	702	0
56483191	Skud-15	1030073	0.1070206	0	1742	0
57513264	Skud-16	881309	0.02407215	0	694	0
58394573	Sarb-1	194368	2.266711	0	9233	0
58588941	Sarb-2	782499	0.1931951	0	2311	0
59371440	Sarb-3	298424	0.3114595	0	1928	0
59669864	Sarb-4	1141293	0.2183865	0	3742	0
60811157	Sarb-5	407361	0.1567504	0	1655	0
61218518	Sarb-6	531626	0.08132409	0	1488	0
61750144	Sarb-7	272605	0.2555823	0	1957	0
62022749	Sarb-8	1053431	0.09725934	0	2078	0
63076180	Sarb-9	527949	0.09488795	0	1840	0
63604129	Sarb-10	721635	0.183263	0	1992	0
64325764	Sarb-11	650640	0.8693517	0	8050	0
64976404	Sarb-12	984206	0.6849562	0	9570	0
65960610	Sarb-13	1246548	0.2985332	0	3858	0
67207158	Sarb-14	771513	0.1544329	0	1454	0
67978671	Sarb-15	1023324	0.03425504	0	688	0
69001995	Sarb-16	879294	0.6964622	0	7278	0
69881289	Seub-1	175444	17.90599	1.571719	84	18
70056733	Seub-2	1274804	19.35445	1.683943	10034	17
71331537	Seub-3	305615	29.11977	2.273276	798	37
71637152	Seub-4	982538	20.77676	1.786248	1297	20
72619690	Seub-5	588913	26.5373	2.139299	9544	24
73208603	Seub-6	264757	40.9717	2.765905	1621	42
73473360	Seub-7	1051730	14.35037	1.252365	4072	15
74525090	Seub-8	813827	11.96083	0.9895947	1093	11
75338917	Seub-9	401362	35.58204	2.562426	1473	35
75740279	Seub-10	747934	27.98292	2.215824	232	26
76488213	Seub-11	632881	30.9751	2.362386	1576	20
77121094	Seub-12	1033978	19.2793	1.67833	8951	17
78155072	Seub-13	953685	17.90051	1.571278	3282	18
79108757	Seub-14	768019	22.85829	1.923995	1123	22
79876776	Seub-15	741893	12.48725	1.051733	8208	11
80618669	Seub-16	896107	18.87673	1.647886	1437	18
81514776	Suva-1	189981	3.122328	0	7510	0
81704757	Suva-2	1289935	0.6188769	0	5829	0
82994692	Suva-3	295075	0.5988579	0	1460	0
83289767	Suva-4	983774	0.7215753	0	934	0
84273541	Suva-5	531350	0.3551576	0	3056	0
84804891	Suva-6	523204	37.64405	2.643699	11555	0
85328095	Suva-7	1027508	1.362152	0	9674	0
86355603	Suva-8	806278	0.3553377	0	1621	0
87161881	Suva-9	418340	0.5433786	0	2088	0
87580221	Suva-10	445542	0.3963016	0	2640	0
88025763	Suva-11	635711	0.1613013	0	280	0
88661474	Suva-12	1016005	0.2893381	0	2726	0
89677479	Suva-13	907341	0.3132637	0	5239	0
90584820	Suva-14	750656	1.444529	0	7317	0
91335476	Suva-15	763749	6.581743	0.1278191	32403	0
92099225	Suva-16	918464	0.3625836	0	1408	0
