Genome_Pos	chrom	chrLen	meanValue	log2mean	max	median
wholeGenome	all	93017689	4.999673	1	24590	0
0	Scer-1	225679	3.727387	0	7703	0
225679	Scer-2	774262	0.114584	0	834	0
999941	Scer-3	301492	0.0264551	0	352	0
1301433	Scer-4	1470431	0.07898296	0	1154	0
2771864	Scer-5	589033	0.1638193	0	1414	0
3360897	Scer-6	275148	0.401344	0	106	0
3636045	Scer-7	1040499	1.176877	0	1983	0
4676544	Scer-8	539841	0.004473539	0	16	0
5216385	Scer-9	449951	1.539148	0	1489	0
5666336	Scer-10	711359	0.09425621	0	1636	0
6377695	Scer-11	674222	0.1773867	0	2849	0
7051917	Scer-12	1011671	0.3685052	0	1405	0
8063588	Scer-13	911673	0.05844201	0	1836	0
8975261	Scer-14	760295	0.1918203	0	882	0
9735556	Scer-15	1049539	0.1291891	0	1904	0
10785095	Scer-16	911421	0.1177677	0	1901	0
11696516	Spar-1	224181	0.01170483	0	35	0
11920697	Spar-2	800085	0.3753926	0	6534	0
12720782	Spar-3	312241	0.1663811	0	1512	0
13033023	Spar-4	1466838	0.1688639	0	2409	0
14499861	Spar-5	553973	0.1395285	0	1994	0
15053834	Spar-6	296174	0.04317057	0	29	0
15350008	Spar-7	1082435	0.07177613	0	1366	0
16432443	Spar-8	529296	0.07426468	0	1412	0
16961739	Spar-9	442403	0.08430323	0	1548	0
17404142	Spar-10	729272	0.05458869	0	378	0
18133414	Spar-11	679893	0.04577632	0	586	0
18813307	Spar-12	1026045	0.06241929	0	1121	0
19839352	Spar-13	926729	0.4621934	0	6526	0
20766081	Spar-14	776644	0.1524624	0	1973	0
21542725	Spar-15	1061158	0.3474233	0	5906	0
22603883	Spar-16	904322	0.4129447	0	6104	0
23508205	Smik-1	188471	15.4739	1.629931	7855	0
23696676	Smik-2	788170	0.02404304	0	607	0
24484846	Smik-3	311108	0.1227227	0	1130	0
24795954	Smik-4	1444590	0.1050935	0	2298	0
26240544	Smik-5	567059	0.005782467	0	106	0
26807603	Smik-6	801748	0.01702655	0	254	0
27609351	Smik-7	628517	0.04819599	0	1108	0
28237868	Smik-8	500793	0.05008057	0	662	0
28738661	Smik-9	418555	0.05204095	0	69	0
29157216	Smik-10	702533	0.05344233	0	964	0
29859749	Smik-11	654555	0.1551359	0	2520	0
30514304	Smik-12	998246	0.3241786	0	5419	0
31512550	Smik-13	899821	0.153605	0	1866	0
32412371	Smik-14	731595	0.04791449	0	1175	0
33143966	Smik-15	1013536	0.04520116	0	1555	0
34157502	Smik-16	800825	0.03623763	0	1059	0
34958327	Sjur-1	809572	0.3870675	0	5912	0
35767899	Sjur-2	809280	0.01318827	0	266	0
36577179	Sjur-3	308350	0.03722069	0	432	0
36885529	Sjur-4	1474466	0.03649389	0	1044	0
38359995	Sjur-5	584553	0.03282679	0	381	0
38944548	Sjur-6	730011	0.01835726	0	337	0
39674559	Sjur-7	638210	0.460748	0	6035	0
40312769	Sjur-8	534462	0.07222029	0	1162	0
40847231	Sjur-9	434517	0.1256959	0	1613	0
41281748	Sjur-10	738741	0.02132547	0	437	0
42020489	Sjur-11	671067	0.09047234	0	1583	0
42691556	Sjur-12	458950	2.941131	0	1622	0
43150506	Sjur-13	568540	0.3227073	0	4765	0
43719046	Sjur-14	334136	0.0005117677	0	2	0
44053182	Sjur-15	749072	0.3924643	0	6329	0
44802254	Sjur-16	1068672	0.01776972	0	561	0
45870926	Sjur-17	920427	0.05752982	0	632	0
46791353	Skud-1	199426	0.07395224	0	694	0
46990779	Skud-2	784124	0.1640531	0	1626	0
47774903	Skud-3	337911	0.1828026	0	2704	0
48112814	Skud-4	1455859	0.08194956	0	1537	0
49568673	Skud-5	528556	0.03284042	0	324	0
50097229	Skud-6	278641	0.08168934	0	1066	0
50375870	Skud-7	1092180	0.3519887	0	6383	0
51468050	Skud-8	512600	0.003460788	0	61	0
51980650	Skud-9	438920	0.08932835	0	854	0
52419570	Skud-10	690961	0.005292629	0	117	0
53110531	Skud-11	658697	0.0598773	0	1106	0
53769228	Skud-12	1038862	2.418598	0	6276	0
54808090	Skud-13	898506	0.06785486	0	1372	0
55706596	Skud-14	776595	0.02823093	0	545	0
56483191	Skud-15	1030073	0.08233785	0	1948	0
57513264	Skud-16	881309	0.01951642	0	586	0
58394573	Sarb-1	194368	1.720391	0	6910	0
58588941	Sarb-2	782499	0.1590379	0	1838	0
59371440	Sarb-3	298424	0.303739	0	1940	0
59669864	Sarb-4	1141293	0.1709605	0	2620	0
60811157	Sarb-5	407361	0.1394169	0	1506	0
61218518	Sarb-6	531626	0.08480774	0	1602	0
61750144	Sarb-7	272605	0.2347206	0	1950	0
62022749	Sarb-8	1053431	0.08373496	0	1919	0
63076180	Sarb-9	527949	0.08246062	0	2008	0
63604129	Sarb-10	721635	0.1758936	0	2088	0
64325764	Sarb-11	650640	0.6480143	0	5631	0
64976404	Sarb-12	984206	0.5040632	0	7221	0
65960610	Sarb-13	1246548	0.2583487	0	3984	0
67207158	Sarb-14	771513	0.1180097	0	1367	0
67978671	Sarb-15	1023324	0.04104663	0	757	0
69001995	Sarb-16	879294	0.5359049	0	5299	0
69881289	Seub-1	175444	47.0175	3.233292	111	48
70056733	Seub-2	1274804	15.26072	1.609918	6736	13
71331537	Seub-3	305615	28.4278	2.507397	1030	26
71637152	Seub-4	982538	12.88134	1.365377	1242	13
72619690	Seub-5	588913	23.17636	2.212749	6638	20
73208603	Seub-6	264757	37.39846	2.903073	1646	35
73473360	Seub-7	1051730	14.85137	1.57069	2322	13
74525090	Seub-8	813827	19.04703	1.92966	1036	17
75338917	Seub-9	401362	27.2802	2.447948	1418	25
75740279	Seub-10	747934	15.1944	1.603634	265	15
76488213	Seub-11	632881	18.82821	1.91299	1442	19
77121094	Seub-12	1033978	8.1293	0.7012973	8297	0
78155072	Seub-13	953685	15.02329	1.587295	3113	15
79108757	Seub-14	768019	24.58134	2.297658	1215	18
79876776	Seub-15	741893	14.38396	1.524555	6708	14
80618669	Seub-16	896107	18.44187	1.883079	1887	16
81514776	Suva-1	189981	46.5366	3.21846	5328	44
81704757	Suva-2	1289935	15.17799	1.602075	4952	13
82994692	Suva-3	295075	27.56563	2.462965	1416	26
83289767	Suva-4	983774	20.55835	2.039819	1662	17
84273541	Suva-5	531350	18.54842	1.89139	2301	19
84804891	Suva-6	523204	55.03009	3.460315	9466	23
85328095	Suva-7	1027508	14.06855	1.492568	6996	13
86355603	Suva-8	806278	15.40574	1.623562	1593	15
87161881	Suva-9	418340	22.73257	2.184855	1638	23
87580221	Suva-10	445542	23.43532	2.228779	2572	23
88025763	Suva-11	635711	20.67159	2.047744	477	19
88661474	Suva-12	1016005	24.8689	2.314437	1797	23
89677479	Suva-13	907341	16.31794	1.706554	1855	15
90584820	Suva-14	750656	14.14207	1.500087	5538	14
91335476	Suva-15	763749	26.3818	2.399637	24590	23
92099225	Suva-16	918464	13.45234	1.427952	1324	13
