Genome_Pos	chrom	chrLen	meanValue	log2mean	max	median
wholeGenome	all	93017689	6.883911	1	15871	0
0	Scer-1	225679	11.06148	0.6842442	4062	9
225679	Scer-2	774262	16.05958	1.222134	827	14
999941	Scer-3	301492	33.39683	2.278411	288	18
1301433	Scer-4	1470431	24.10237	1.807874	430	24
2771864	Scer-5	589033	35.07339	2.349076	1318	37
3360897	Scer-6	275148	30.86462	2.164654	1027	29
3636045	Scer-7	1040499	29.15323	2.082355	1070	25
4676544	Scer-8	539841	12.73244	0.8872089	73	13
5216385	Scer-9	449951	66.12842	3.26397	1058	68
5666336	Scer-10	711359	19.5524	1.506046	1009	20
6377695	Scer-11	674222	29.90219	2.118951	1563	32
7051917	Scer-12	1011671	29.9074	2.119202	1917	24
8063588	Scer-13	911673	37.09729	2.430013	967	37
8975261	Scer-14	760295	25.3294	1.879513	802	25
9735556	Scer-15	1049539	34.1663	2.311274	1064	35
10785095	Scer-16	911421	35.57087	2.369396	1177	36
11696516	Spar-1	224181	0.2482057	0	178	0
11920697	Spar-2	800085	0.2353075	0	3142	0
12720782	Spar-3	312241	0.2551555	0	626	0
13033023	Spar-4	1466838	0.2166804	0	1495	0
14499861	Spar-5	553973	0.2010694	0	1272	0
15053834	Spar-6	296174	0.05022723	0	28	0
15350008	Spar-7	1082435	0.1592872	0	788	0
16432443	Spar-8	529296	0.1014442	0	1122	0
16961739	Spar-9	442403	0.3340597	0	1037	0
17404142	Spar-10	729272	0.2241057	0	1164	0
18133414	Spar-11	679893	0.1190526	0	307	0
18813307	Spar-12	1026045	0.08621844	0	671	0
19839352	Spar-13	926729	0.6079382	0	2991	0
20766081	Spar-14	776644	0.1491571	0	1044	0
21542725	Spar-15	1061158	0.297803	0	3222	0
22603883	Spar-16	904322	0.628514	0	3557	0
23508205	Smik-1	188471	8.303288	0.2704542	4306	0
23696676	Smik-2	788170	0.01633658	0	356	0
24484846	Smik-3	311108	0.09618525	0	716	0
24795954	Smik-4	1444590	0.07508774	0	1344	0
26240544	Smik-5	567059	0.005482675	0	40	0
26807603	Smik-6	801748	0.06939961	0	160	0
27609351	Smik-7	628517	0.02844155	0	607	0
28237868	Smik-8	500793	0.03350686	0	394	0
28738661	Smik-9	418555	0.4690041	0	527	0
29157216	Smik-10	702533	0.04517937	0	602	0
29859749	Smik-11	654555	0.09297614	0	1497	0
30514304	Smik-12	998246	0.1737367	0	2998	0
31512550	Smik-13	899821	0.0933319	0	1186	0
32412371	Smik-14	731595	0.08663537	0	508	0
33143966	Smik-15	1013536	0.01601818	0	225	0
34157502	Smik-16	800825	0.04683046	0	276	0
34958327	Sjur-1	809572	0.2347043	0	3503	0
35767899	Sjur-2	809280	0.01052417	0	158	0
36577179	Sjur-3	308350	0.2006778	0	170	0
36885529	Sjur-4	1474466	0.01929173	0	600	0
38359995	Sjur-5	584553	0.02198603	0	214	0
38944548	Sjur-6	730011	0.03600905	0	165	0
39674559	Sjur-7	638210	0.2515786	0	3249	0
40312769	Sjur-8	534462	0.02971025	0	420	0
40847231	Sjur-9	434517	0.1278178	0	548	0
41281748	Sjur-10	738741	0.03827187	0	231	0
42020489	Sjur-11	671067	0.05986288	0	962	0
42691556	Sjur-12	458950	0.7284497	0	931	0
43150506	Sjur-13	568540	0.1835702	0	2346	0
43719046	Sjur-14	334136	0.004453277	0	15	0
44053182	Sjur-15	749072	0.3126669	0	2188	0
44802254	Sjur-16	1068672	0.02238853	0	704	0
45870926	Sjur-17	920427	0.05895307	0	490	0
46791353	Skud-1	199426	0.04676923	0	406	0
46990779	Skud-2	784124	0.08807153	0	991	0
47774903	Skud-3	337911	0.08064254	0	1139	0
48112814	Skud-4	1455859	0.05010444	0	1273	0
49568673	Skud-5	528556	0.005032579	0	17	0
50097229	Skud-6	278641	0.04369422	0	507	0
50375870	Skud-7	1092180	0.2074328	0	3078	0
51468050	Skud-8	512600	0.01475615	0	28	0
51980650	Skud-9	438920	0.04398296	0	500	0
52419570	Skud-10	690961	0.008258064	0	144	0
53110531	Skud-11	658697	0.03059221	0	432	0
53769228	Skud-12	1038862	0.1953715	0	3052	0
54808090	Skud-13	898506	0.2487908	0	729	0
55706596	Skud-14	776595	0.02038386	0	368	0
56483191	Skud-15	1030073	0.04747139	0	1106	0
57513264	Skud-16	881309	0.01091104	0	348	0
58394573	Sarb-1	194368	1.031734	0	4145	0
58588941	Sarb-2	782499	0.1341344	0	1669	0
59371440	Sarb-3	298424	0.1455681	0	870	0
59669864	Sarb-4	1141293	0.1213238	0	1419	0
60811157	Sarb-5	407361	0.07081925	0	865	0
61218518	Sarb-6	531626	0.04074105	0	728	0
61750144	Sarb-7	272605	0.138288	0	1116	0
62022749	Sarb-8	1053431	0.04795568	0	978	0
63076180	Sarb-9	527949	0.06009482	0	1244	0
63604129	Sarb-10	721635	0.1019421	0	1204	0
64325764	Sarb-11	650640	0.310648	0	2589	0
64976404	Sarb-12	984206	0.2520153	0	3319	0
65960610	Sarb-13	1246548	0.1455556	0	1536	0
67207158	Sarb-14	771513	0.08444446	0	867	0
67978671	Sarb-15	1023324	0.01746954	0	400	0
69001995	Sarb-16	879294	0.2621035	0	2111	0
69881289	Seub-1	175444	57.34837	3.058452	138	63
70056733	Seub-2	1274804	23.10915	1.747164	3289	23
71331537	Seub-3	305615	35.92671	2.383756	660	47
71637152	Seub-4	982538	24.58948	1.836741	659	24
72619690	Seub-5	588913	23.42552	1.766781	3357	22
73208603	Seub-6	264757	15.78772	1.197502	1206	15
73473360	Seub-7	1051730	18.28536	1.409388	1695	20
74525090	Seub-8	813827	25.08618	1.865593	616	25
75338917	Seub-9	401362	29.16672	2.083023	968	29
75740279	Seub-10	747934	20.84911	1.598686	258	17
76488213	Seub-11	632881	27.1385	1.97904	774	27
77121094	Seub-12	1033978	24.74086	1.845596	3416	24
78155072	Seub-13	953685	11.33836	0.7199111	1199	12
79108757	Seub-14	768019	12.99592	0.9167579	688	12
79876776	Seub-15	741893	39.00146	2.502228	3668	38
80618669	Seub-16	896107	25.08436	1.865488	956	24
81514776	Suva-1	189981	2.218864	0	2377	0
81704757	Suva-2	1289935	0.3310554	0	1522	0
82994692	Suva-3	295075	0.5213048	0	1188	0
83289767	Suva-4	983774	0.6892437	0	744	0
84273541	Suva-5	531350	0.241148	0	1674	0
84804891	Suva-6	523204	14.48135	1.072895	4494	0
85328095	Suva-7	1027508	0.5772568	0	3780	0
86355603	Suva-8	806278	0.351571	0	1068	0
87161881	Suva-9	418340	0.2486853	0	1020	0
87580221	Suva-10	445542	0.258263	0	1358	0
88025763	Suva-11	635711	0.1279434	0	209	0
88661474	Suva-12	1016005	0.2417144	0	1112	0
89677479	Suva-13	907341	0.1370323	0	1854	0
90584820	Suva-14	750656	0.5919649	0	2693	0
91335476	Suva-15	763749	3.140706	0	15871	0
92099225	Suva-16	918464	0.2423601	0	744	0
