Genome_Pos	chrom	chrLen	meanValue	log2mean	max	median
wholeGenome	all	93017689	16.23746	1	9276	0
0	Scer-1	225679	98.2806	2.597581	7995	92
225679	Scer-2	774262	90.74773	2.482535	495	88
999941	Scer-3	301492	47.3676	1.544575	704	0
1301433	Scer-4	1470431	85.69732	2.399924	577	85
2771864	Scer-5	589033	83.43486	2.361324	2761	86
3360897	Scer-6	275148	31.219	0.9430983	3744	28
3636045	Scer-7	1040499	48.81178	1.587903	1692	32
4676544	Scer-8	539841	142.1804	3.130324	601	145
5216385	Scer-9	449951	93.42677	2.52451	1217	89
5666336	Scer-10	711359	46.5045	1.518044	646	45
6377695	Scer-11	674222	59.88639	1.882902	1803	58
7051917	Scer-12	1011671	83.08861	2.355325	9276	57
8063588	Scer-13	911673	63.60199	1.969746	1559	60
8975261	Scer-14	760295	71.16372	2.131816	6718	65
9735556	Scer-15	1049539	82.99649	2.353724	396	85
10785095	Scer-16	911421	58.60207	1.851625	1741	57
11696516	Spar-1	224181	0.8625976	0	429	0
11920697	Spar-2	800085	0.4609023	0	1165	0
12720782	Spar-3	312241	0.7065664	0	895	0
13033023	Spar-4	1466838	0.560657	0	296	0
14499861	Spar-5	553973	0.3719477	0	325	0
15053834	Spar-6	296174	0.1356635	0	211	0
15350008	Spar-7	1082435	0.169977	0	360	0
16432443	Spar-8	529296	0.307584	0	435	0
16961739	Spar-9	442403	0.4575082	0	351	0
17404142	Spar-10	729272	0.4386484	0	1188	0
18133414	Spar-11	679893	0.3657237	0	798	0
18813307	Spar-12	1026045	0.2527384	0	785	0
19839352	Spar-13	926729	0.7709643	0	1171	0
20766081	Spar-14	776644	0.3613934	0	906	0
21542725	Spar-15	1061158	0.3008214	0	438	0
22603883	Spar-16	904322	0.5508503	0	306	0
23508205	Smik-1	188471	1.608651	0	1341	0
23696676	Smik-2	788170	0.01486101	0	48	0
24484846	Smik-3	311108	0.05741093	0	80	0
24795954	Smik-4	1444590	0.08407437	0	109	0
26240544	Smik-5	567059	0.02553526	0	33	0
26807603	Smik-6	801748	0.09171585	0	152	0
27609351	Smik-7	628517	0.01223515	0	29	0
28237868	Smik-8	500793	0.02039366	0	55	0
28738661	Smik-9	418555	0.2811841	0	520	0
29157216	Smik-10	702533	0.04949376	0	144	0
29859749	Smik-11	654555	0.06756193	0	377	0
30514304	Smik-12	998246	0.06836892	0	475	0
31512550	Smik-13	899821	0.02094194	0	75	0
32412371	Smik-14	731595	0.08182806	0	235	0
33143966	Smik-15	1013536	0.3520437	0	1157	0
34157502	Smik-16	800825	0.02335716	0	62	0
34958327	Sjur-1	809572	0.07568197	0	313	0
35767899	Sjur-2	809280	0.07822509	0	831	0
36577179	Sjur-3	308350	0.3596562	0	412	0
36885529	Sjur-4	1474466	0.03864179	0	139	0
38359995	Sjur-5	584553	0.1651159	0	573	0
38944548	Sjur-6	730011	0.07116331	0	175	0
39674559	Sjur-7	638210	0.1685386	0	1186	0
40312769	Sjur-8	534462	0.01673646	0	88	0
40847231	Sjur-9	434517	0.06453833	0	107	0
41281748	Sjur-10	738741	0.02137556	0	56	0
42020489	Sjur-11	671067	0.01676286	0	36	0
42691556	Sjur-12	458950	3.277603	0	5815	0
43150506	Sjur-13	568540	0.6714004	0	1483	0
43719046	Sjur-14	334136	0.008206239	0	8	0
44053182	Sjur-15	749072	0.1548516	0	606	0
44802254	Sjur-16	1068672	0.04926769	0	264	0
45870926	Sjur-17	920427	0.04621985	0	115	0
46791353	Skud-1	199426	0.1605408	0	170	0
46990779	Skud-2	784124	0.01495937	0	78	0
47774903	Skud-3	337911	0.01536203	0	42	0
48112814	Skud-4	1455859	0.02080078	0	183	0
49568673	Skud-5	528556	0.01145574	0	20	0
50097229	Skud-6	278641	0.01353354	0	22	0
50375870	Skud-7	1092180	0.06227728	0	585	0
51468050	Skud-8	512600	0.02470152	0	128	0
51980650	Skud-9	438920	0.03929418	0	326	0
52419570	Skud-10	690961	0.01578526	0	37	0
53110531	Skud-11	658697	0.02447711	0	84	0
53769228	Skud-12	1038862	0.2793201	0	666	0
54808090	Skud-13	898506	0.2019219	0	245	0
55706596	Skud-14	776595	0.02451728	0	86	0
56483191	Skud-15	1030073	0.0331326	0	122	0
57513264	Skud-16	881309	0.009071733	0	56	0
58394573	Sarb-1	194368	0.07393707	0	177	0
58588941	Sarb-2	782499	0.01421216	0	86	0
59371440	Sarb-3	298424	0.0186044	0	52	0
59669864	Sarb-4	1141293	0.04911797	0	201	0
60811157	Sarb-5	407361	0.02430522	0	85	0
61218518	Sarb-6	531626	0.02128752	0	29	0
61750144	Sarb-7	272605	0.0266943	0	40	0
62022749	Sarb-8	1053431	0.04172176	0	183	0
63076180	Sarb-9	527949	0.1845993	0	548	0
63604129	Sarb-10	721635	0.03231135	0	79	0
64325764	Sarb-11	650640	0.02150344	0	164	0
64976404	Sarb-12	984206	0.06161007	0	886	0
65960610	Sarb-13	1246548	0.02398303	0	92	0
67207158	Sarb-14	771513	0.2455681	0	695	0
67978671	Sarb-15	1023324	0.01457603	0	40	0
69001995	Sarb-16	879294	0.01997625	0	146	0
69881289	Seub-1	175444	69.32803	2.094113	383	67
70056733	Seub-2	1274804	30.85193	0.9260344	1606	30
71331537	Seub-3	305615	84.14783	2.3736	332	98
71637152	Seub-4	982538	31.85588	0.9722337	547	31
72619690	Seub-5	588913	63.84695	1.975292	729	62
73208603	Seub-6	264757	90.27861	2.475058	1357	93
73473360	Seub-7	1051730	76.21835	2.230812	671	84
74525090	Seub-8	813827	32.837	1.015996	842	31
75338917	Seub-9	401362	64.81689	1.997044	1027	63
75740279	Seub-10	747934	48.10351	1.566816	618	40
76488213	Seub-11	632881	63.82256	1.97474	281	62
77121094	Seub-12	1033978	63.4882	1.967162	1265	62
78155072	Seub-13	953685	56.95931	1.810606	676	59
79108757	Seub-14	768019	63.4509	1.966314	902	62
79876776	Seub-15	741893	29.0502	0.8392218	414	27
80618669	Seub-16	896107	60.3545	1.894135	472	59
81514776	Suva-1	189981	1.935336	0	456	0
81704757	Suva-2	1289935	0.3384217	0	281	0
82994692	Suva-3	295075	0.6279251	0	1830	0
83289767	Suva-4	983774	0.779799	0	760	0
84273541	Suva-5	531350	0.3299915	0	423	0
84804891	Suva-6	523204	2.823165	0	1219	0
85328095	Suva-7	1027508	0.3122127	0	674	0
86355603	Suva-8	806278	0.287773	0	134	0
87161881	Suva-9	418340	0.4346847	0	164	0
87580221	Suva-10	445542	0.3375305	0	124	0
88025763	Suva-11	635711	0.3481425	0	730	0
88661474	Suva-12	1016005	0.4162352	0	115	0
89677479	Suva-13	907341	0.1529491	0	178	0
90584820	Suva-14	750656	0.4893267	0	455	0
91335476	Suva-15	763749	0.4602324	0	1495	0
92099225	Suva-16	918464	0.4303696	0	488	0
