Genome_Pos	chrom	chrLen	meanValue	log2mean	max	median
wholeGenome	all	93017689	2.829927	1	2044	0
0	Scer-1	225679	6.488854	1.197199	499	6
225679	Scer-2	774262	6.304688	1.15566	48	6
999941	Scer-3	301492	20.40344	2.849976	81	15
1301433	Scer-4	1470431	4.381464	0.6306485	80	4
2771864	Scer-5	589033	6.2008	1.13169	291	6
3360897	Scer-6	275148	0.8949474	0	228	0
3636045	Scer-7	1040499	4.419574	0.6431426	131	0
4676544	Scer-8	539841	11.24433	1.990361	48	12
5216385	Scer-9	449951	7.004754	1.30757	102	6
5666336	Scer-10	711359	5.899251	1.059767	100	6
6377695	Scer-11	674222	0.1177594	0	154	0
7051917	Scer-12	1011671	0.4222984	0	751	0
8063588	Scer-13	911673	4.940927	0.8040172	40	5
8975261	Scer-14	760295	2.348367	0	80	0
9735556	Scer-15	1049539	1.790461	0	63	0
10785095	Scer-16	911421	4.216015	0.5751155	81	2
11696516	Spar-1	224181	0.0852124	0	18	0
11920697	Spar-2	800085	0.02432867	0	203	0
12720782	Spar-3	312241	0.07687972	0	42	0
13033023	Spar-4	1466838	0.03793261	0	47	0
14499861	Spar-5	553973	0.05037249	0	70	0
15053834	Spar-6	296174	0.0361713	0	31	0
15350008	Spar-7	1082435	0.04509832	0	36	0
16432443	Spar-8	529296	0.02155883	0	92	0
16961739	Spar-9	442403	0.02550842	0	166	0
17404142	Spar-10	729272	0.06672682	0	112	0
18133414	Spar-11	679893	0.02856332	0	38	0
18813307	Spar-12	1026045	0.005196653	0	19	0
19839352	Spar-13	926729	0.02597307	0	258	0
20766081	Spar-14	776644	0.01496439	0	148	0
21542725	Spar-15	1061158	0.01961159	0	147	0
22603883	Spar-16	904322	0.02650936	0	139	0
23508205	Smik-1	188471	0.9061606	0	476	0
23696676	Smik-2	788170	0.001517439	0	20	0
24484846	Smik-3	311108	0.01375407	0	22	0
24795954	Smik-4	1444590	0.002941319	0	51	0
26240544	Smik-5	567059	0.001964522	0	8	0
26807603	Smik-6	801748	0.02258565	0	27	0
27609351	Smik-7	628517	0.001926758	0	6	0
28237868	Smik-8	500793	0.001996833	0	10	0
28738661	Smik-9	418555	0.07298682	0	85	0
29157216	Smik-10	702533	0.01324635	0	22	0
29859749	Smik-11	654555	0.01994026	0	104	0
30514304	Smik-12	998246	0.02608375	0	304	0
31512550	Smik-13	899821	0.005576665	0	98	0
32412371	Smik-14	731595	0.001122206	0	26	0
33143966	Smik-15	1013536	1.323692	0	1198	0
34157502	Smik-16	800825	0.01750445	0	25	0
34958327	Sjur-1	809572	0.01360595	0	151	0
35767899	Sjur-2	809280	0.00223532	0	14	0
36577179	Sjur-3	308350	0.0190887	0	14	0
36885529	Sjur-4	1474466	0.002505992	0	120	0
38359995	Sjur-5	584553	0.005320305	0	16	0
38944548	Sjur-6	730011	0.02215309	0	27	0
39674559	Sjur-7	638210	0.03126087	0	358	0
40312769	Sjur-8	534462	0.002402416	0	14	0
40847231	Sjur-9	434517	0.01191208	0	47	0
41281748	Sjur-10	738741	0.004954375	0	15	0
42020489	Sjur-11	671067	0.02031839	0	106	0
42691556	Sjur-12	458950	4.89615	0.7908831	1950	0
43150506	Sjur-13	568540	0.03083688	0	333	0
43719046	Sjur-14	334136	0.0006913353	0	3	0
44053182	Sjur-15	749072	0.08215899	0	258	0
44802254	Sjur-16	1068672	0.00250685	0	20	0
45870926	Sjur-17	920427	0.03632879	0	69	0
46791353	Skud-1	199426	0.00279803	0	3	0
46990779	Skud-2	784124	0.01940892	0	137	0
47774903	Skud-3	337911	0.006495793	0	105	0
48112814	Skud-4	1455859	0.004489446	0	52	0
49568673	Skud-5	528556	0.007136425	0	12	0
50097229	Skud-6	278641	0.01384218	0	18	0
50375870	Skud-7	1092180	0.04288213	0	222	0
51468050	Skud-8	512600	0.001492392	0	6	0
51980650	Skud-9	438920	0.01322109	0	16	0
52419570	Skud-10	690961	0.002706376	0	8	0
53110531	Skud-11	658697	0.003561577	0	12	0
53769228	Skud-12	1038862	3.035884	0.1013522	2044	0
54808090	Skud-13	898506	0.004957118	0	56	0
55706596	Skud-14	776595	0.4995152	0	1010	0
56483191	Skud-15	1030073	0.001511543	0	22	0
57513264	Skud-16	881309	0.0006796708	0	18	0
58394573	Sarb-1	194368	0.06550461	0	284	0
58588941	Sarb-2	782499	0.004659431	0	44	0
59371440	Sarb-3	298424	0.008444361	0	45	0
59669864	Sarb-4	1141293	0.02970841	0	112	0
60811157	Sarb-5	407361	0.007008526	0	58	0
61218518	Sarb-6	531626	0.001660942	0	27	0
61750144	Sarb-7	272605	0.00586563	0	38	0
62022749	Sarb-8	1053431	0.005039723	0	88	0
63076180	Sarb-9	527949	0.004519376	0	50	0
63604129	Sarb-10	721635	0.007839143	0	113	0
64325764	Sarb-11	650640	0.0610107	0	552	0
64976404	Sarb-12	984206	0.01755628	0	144	0
65960610	Sarb-13	1246548	0.01293412	0	119	0
67207158	Sarb-14	771513	0.0123355	0	247	0
67978671	Sarb-15	1023324	0.0006879542	0	12	0
69001995	Sarb-16	879294	0.01265561	0	187	0
69881289	Seub-1	175444	15.85301	2.48592	64	15
70056733	Seub-2	1274804	15.9468	2.49443	472	15
71331537	Seub-3	305615	4.771768	0.7537594	252	5
71637152	Seub-4	982538	13.18506	2.220068	61	13
72619690	Seub-5	588913	16.74266	2.564692	1642	16
73208603	Seub-6	264757	21.83591	2.947866	488	22
73473360	Seub-7	1051730	17.17028	2.601077	586	17
74525090	Seub-8	813827	19.11496	2.755865	121	19
75338917	Seub-9	401362	14.58961	2.366105	72	14
75740279	Seub-10	747934	14.42438	2.349673	302	14
76488213	Seub-11	632881	21.65713	2.936005	169	21
77121094	Seub-12	1033978	23.72526	3.067587	1929	22
78155072	Seub-13	953685	15.3084	2.435487	288	15
79108757	Seub-14	768019	20.15419	2.832243	238	21
79876776	Seub-15	741893	16.80983	2.570468	143	16
80618669	Seub-16	896107	16.32927	2.528623	278	16
81514776	Suva-1	189981	0.4482659	0	233	0
81704757	Suva-2	1289935	0.1762903	0	119	0
82994692	Suva-3	295075	0.2326968	0	451	0
83289767	Suva-4	983774	0.5818084	0	278	0
84273541	Suva-5	531350	0.1385659	0	140	0
84804891	Suva-6	523204	0.8343094	0	297	0
85328095	Suva-7	1027508	0.07782032	0	428	0
86355603	Suva-8	806278	0.1881559	0	93	0
87161881	Suva-9	418340	0.365246	0	832	0
87580221	Suva-10	445542	0.04351778	0	114	0
88025763	Suva-11	635711	0.1202905	0	158	0
88661474	Suva-12	1016005	0.1314452	0	108	0
89677479	Suva-13	907341	0.02789249	0	370	0
90584820	Suva-14	750656	0.2118947	0	231	0
91335476	Suva-15	763749	0.3514859	0	1418	0
92099225	Suva-16	918464	0.2272544	0	105	0
