Genome_Pos	chrom	chrLen	meanValue	log2mean	max	median
wholeGenome	all	93017689	3.909594	1	6593	0
0	Scer-1	225679	20.89377	2.417982	1957	20
225679	Scer-2	774262	23.6799	2.598572	223	23
999941	Scer-3	301492	18.21411	2.219965	130	15
1301433	Scer-4	1470431	16.81255	2.104448	229	17
2771864	Scer-5	589033	13.15137	1.750123	766	12
3360897	Scer-6	275148	15.54296	1.991171	637	14
3636045	Scer-7	1040499	18.61853	2.251648	392	16
4676544	Scer-8	539841	17.34524	2.149449	73	18
5216385	Scer-9	449951	26.5203	2.762007	433	26
5666336	Scer-10	711359	9.501541	1.281143	239	7
6377695	Scer-11	674222	20.19457	2.368877	586	20
7051917	Scer-12	1011671	24.32808	2.637532	2602	16
8063588	Scer-13	911673	17.36528	2.151115	297	17
8975261	Scer-14	760295	0.5617938	0	256	0
9735556	Scer-15	1049539	16.46485	2.074299	500	17
10785095	Scer-16	911421	16.52059	2.079174	465	17
11696516	Spar-1	224181	0.2324639	0	56	0
11920697	Spar-2	800085	0.1619578	0	1695	0
12720782	Spar-3	312241	0.1321063	0	219	0
13033023	Spar-4	1466838	0.1179987	0	564	0
14499861	Spar-5	553973	0.08737429	0	408	0
15053834	Spar-6	296174	0.02762903	0	14	0
15350008	Spar-7	1082435	0.1145842	0	214	0
16432443	Spar-8	529296	0.05360517	0	303	0
16961739	Spar-9	442403	0.1376053	0	423	0
17404142	Spar-10	729272	0.08907925	0	373	0
18133414	Spar-11	679893	0.06744444	0	102	0
18813307	Spar-12	1026045	0.06270875	0	240	0
19839352	Spar-13	926729	0.3569037	0	1589	0
20766081	Spar-14	776644	0.05384578	0	412	0
21542725	Spar-15	1061158	0.1434838	0	1584	0
22603883	Spar-16	904322	0.2841875	0	1503	0
23508205	Smik-1	188471	4.102801	0.06959037	2092	0
23696676	Smik-2	788170	0.007456513	0	69	0
24484846	Smik-3	311108	0.03231032	0	222	0
24795954	Smik-4	1444590	0.03474619	0	356	0
26240544	Smik-5	567059	0.004297613	0	42	0
26807603	Smik-6	801748	0.03937023	0	54	0
27609351	Smik-7	628517	0.01202036	0	254	0
28237868	Smik-8	500793	0.01400778	0	104	0
28738661	Smik-9	418555	0.2835063	0	322	0
29157216	Smik-10	702533	0.02147088	0	263	0
29859749	Smik-11	654555	0.0470182	0	506	0
30514304	Smik-12	998246	0.1002058	0	1525	0
31512550	Smik-13	899821	0.03027713	0	344	0
32412371	Smik-14	731595	0.04357466	0	183	0
33143966	Smik-15	1013536	1.134348	0	955	0
34157502	Smik-16	800825	0.02644023	0	247	0
34958327	Sjur-1	809572	0.09897946	0	1464	0
35767899	Sjur-2	809280	0.006493426	0	58	0
36577179	Sjur-3	308350	0.07876439	0	64	0
36885529	Sjur-4	1474466	0.009073115	0	236	0
38359995	Sjur-5	584553	0.0129552	0	76	0
38944548	Sjur-6	730011	0.0196271	0	70	0
39674559	Sjur-7	638210	0.1224362	0	1546	0
40312769	Sjur-8	534462	0.01480554	0	142	0
40847231	Sjur-9	434517	0.04918795	0	253	0
41281748	Sjur-10	738741	0.02250586	0	148	0
42020489	Sjur-11	671067	0.02411682	0	316	0
42691556	Sjur-12	458950	0.8028086	0	372	0
43150506	Sjur-13	568540	0.101393	0	1192	0
43719046	Sjur-14	334136	0.0009217804	0	4	0
44053182	Sjur-15	749072	0.1552441	0	753	0
44802254	Sjur-16	1068672	0.01070675	0	232	0
45870926	Sjur-17	920427	0.03877983	0	181	0
46791353	Skud-1	199426	0.01381465	0	102	0
46990779	Skud-2	784124	0.03755018	0	363	0
47774903	Skud-3	337911	0.03542649	0	413	0
48112814	Skud-4	1455859	0.01920928	0	276	0
49568673	Skud-5	528556	0.004587972	0	78	0
50097229	Skud-6	278641	0.02179507	0	196	0
50375870	Skud-7	1092180	0.1068826	0	1677	0
51468050	Skud-8	512600	0.009114319	0	46	0
51980650	Skud-9	438920	0.02158708	0	210	0
52419570	Skud-10	690961	0.00883552	0	100	0
53110531	Skud-11	658697	0.01591475	0	270	0
53769228	Skud-12	1038862	0.1097855	0	1536	0
54808090	Skud-13	898506	0.1209742	0	263	0
55706596	Skud-14	776595	0.3725674	0	717	0
56483191	Skud-15	1030073	0.02088978	0	348	0
57513264	Skud-16	881309	0.003914632	0	76	0
58394573	Sarb-1	194368	0.4836084	0	1967	0
58588941	Sarb-2	782499	0.03906586	0	416	0
59371440	Sarb-3	298424	0.06356727	0	348	0
59669864	Sarb-4	1141293	0.0563878	0	754	0
60811157	Sarb-5	407361	0.03607856	0	336	0
61218518	Sarb-6	531626	0.01821769	0	329	0
61750144	Sarb-7	272605	0.04990738	0	340	0
62022749	Sarb-8	1053431	0.02086515	0	341	0
63076180	Sarb-9	527949	0.02403641	0	340	0
63604129	Sarb-10	721635	0.03572582	0	330	0
64325764	Sarb-11	650640	0.1567841	0	1380	0
64976404	Sarb-12	984206	0.1452755	0	2012	0
65960610	Sarb-13	1246548	0.0583355	0	792	0
67207158	Sarb-14	771513	0.02829635	0	309	0
67978671	Sarb-15	1023324	0.008191931	0	168	0
69001995	Sarb-16	879294	0.1417478	0	1508	0
69881289	Seub-1	175444	6.730239	0.7836389	44	7
70056733	Seub-2	1274804	11.32572	1.534512	1678	11
71331537	Seub-3	305615	12.6936	1.699011	420	15
71637152	Seub-4	982538	5.681532	0.5392612	299	5
72619690	Seub-5	588913	12.76268	1.70684	1558	12
73208603	Seub-6	264757	19.82907	2.342526	538	20
73473360	Seub-7	1051730	9.26591	1.244914	725	10
74525090	Seub-8	813827	17.74501	2.182323	214	17
75338917	Seub-9	401362	12.96016	1.728993	314	13
75740279	Seub-10	747934	18.7552	2.2622	84	18
76488213	Seub-11	632881	14.93903	1.933996	289	14
77121094	Seub-12	1033978	11.72743	1.584797	1963	11
78155072	Seub-13	953685	15.4218	1.97988	629	16
79108757	Seub-14	768019	17.57297	2.168267	290	17
79876776	Seub-15	741893	11.94227	1.610986	1846	12
80618669	Seub-16	896107	11.46951	1.552713	305	11
81514776	Suva-1	189981	0.7791779	0	1330	0
81704757	Suva-2	1289935	0.2326474	0	1613	0
82994692	Suva-3	295075	0.2730221	0	460	0
83289767	Suva-4	983774	0.4417519	0	202	0
84273541	Suva-5	531350	0.1393225	0	681	0
84804891	Suva-6	523204	7.817276	0.9996472	2413	0
85328095	Suva-7	1027508	0.2658227	0	1832	0
86355603	Suva-8	806278	0.2152297	0	312	0
87161881	Suva-9	418340	0.3654229	0	673	0
87580221	Suva-10	445542	0.1213107	0	490	0
88025763	Suva-11	635711	0.07328959	0	107	0
88661474	Suva-12	1016005	0.106964	0	592	0
89677479	Suva-13	907341	0.08165067	0	1205	0
90584820	Suva-14	750656	0.3884642	0	1600	0
91335476	Suva-15	763749	1.389607	0	6593	0
92099225	Suva-16	918464	0.1643777	0	280	0
