Genome_Pos	chrom	chrLen	meanValue	log2mean	max	median
wholeGenome	all	93017689	6.075945	1	7538	0
0	Scer-1	225679	14.2083	1.225553	2034	13
225679	Scer-2	774262	14.07291	1.21174	271	14
999941	Scer-3	301492	11.93834	0.974422	471	13
1301433	Scer-4	1470431	14.36431	1.241308	307	14
2771864	Scer-5	589033	37.39301	2.621588	466	41
3360897	Scer-6	275148	13.63686	1.166331	170	14
3636045	Scer-7	1040499	19.89937	1.711542	322	18
4676544	Scer-8	539841	17.3816	1.51638	255	21
5216385	Scer-9	449951	4.355972	0	593	0
5666336	Scer-10	711359	13.36257	1.137017	488	13
6377695	Scer-11	674222	13.39605	1.140627	166	14
7051917	Scer-12	1011671	14.86741	1.290973	3095	13
8063588	Scer-13	911673	13.74132	1.17734	198	14
8975261	Scer-14	760295	27.33487	2.169562	300	28
9735556	Scer-15	1049539	13.2547	1.125324	460	13
10785095	Scer-16	911421	26.25659	2.111499	371	27
11696516	Spar-1	224181	0.2787123	0	63	0
11920697	Spar-2	800085	0.1723229	0	1247	0
12720782	Spar-3	312241	0.1029205	0	349	0
13033023	Spar-4	1466838	0.1208859	0	529	0
14499861	Spar-5	553973	0.1675407	0	160	0
15053834	Spar-6	296174	0.1096889	0	121	0
15350008	Spar-7	1082435	0.07201541	0	213	0
16432443	Spar-8	529296	0.08076199	0	778	0
16961739	Spar-9	442403	0.04514436	0	283	0
17404142	Spar-10	729272	0.127279	0	478	0
18133414	Spar-11	679893	0.07053757	0	242	0
18813307	Spar-12	1026045	0.1027275	0	481	0
19839352	Spar-13	926729	0.4017194	0	2442	0
20766081	Spar-14	776644	0.1038211	0	296	0
21542725	Spar-15	1061158	0.06222636	0	292	0
22603883	Spar-16	904322	0.3084178	0	1260	0
23508205	Smik-1	188471	4.414005	0	2019	0
23696676	Smik-2	788170	0.01370643	0	174	0
24484846	Smik-3	311108	0.2447832	0	178	0
24795954	Smik-4	1444590	0.03940841	0	493	0
26240544	Smik-5	567059	0.01743734	0	247	0
26807603	Smik-6	801748	0.007232946	0	182	0
27609351	Smik-7	628517	0.03061174	0	256	0
28237868	Smik-8	500793	0.02132218	0	258	0
28738661	Smik-9	418555	0.2764917	0	197	0
29157216	Smik-10	702533	0.02893957	0	318	0
29859749	Smik-11	654555	0.01644476	0	246	0
30514304	Smik-12	998246	0.06301653	0	987	0
31512550	Smik-13	899821	0.0146618	0	376	0
32412371	Smik-14	731595	0.01311655	0	138	0
33143966	Smik-15	1013536	1.48296	0	1323	0
34157502	Smik-16	800825	0.01349733	0	56	0
34958327	Sjur-1	809572	0.08605658	0	1192	0
35767899	Sjur-2	809280	0.04680951	0	676	0
36577179	Sjur-3	308350	0.244109	0	91	0
36885529	Sjur-4	1474466	0.01975902	0	308	0
38359995	Sjur-5	584553	0.01599684	0	25	0
38944548	Sjur-6	730011	0.03603644	0	229	0
39674559	Sjur-7	638210	0.1287946	0	1591	0
40312769	Sjur-8	534462	0.01337233	0	164	0
40847231	Sjur-9	434517	0.0311058	0	302	0
41281748	Sjur-10	738741	0.01625604	0	365	0
42020489	Sjur-11	671067	0.01731273	0	214	0
42691556	Sjur-12	458950	14.4307	1.24796	6588	0
43150506	Sjur-13	568540	0.1226598	0	795	0
43719046	Sjur-14	334136	0.001774726	0	4	0
44053182	Sjur-15	749072	0.08193071	0	547	0
44802254	Sjur-16	1068672	0.01105671	0	273	0
45870926	Sjur-17	920427	0.01507887	0	238	0
46791353	Skud-1	199426	15.12668	1.315915	1421	14
46990779	Skud-2	784124	13.61988	1.164534	279	13
47774903	Skud-3	337911	1.81161	0	417	0
48112814	Skud-4	1455859	13.03784	1.101525	531	13
49568673	Skud-5	528556	0.05810737	0	46	0
50097229	Skud-6	278641	14.72731	1.277313	84	14
50375870	Skud-7	1092180	9.97641	0.7154119	635	8
51468050	Skud-8	512600	25.28881	2.057319	82	18
51980650	Skud-9	438920	14.21922	1.226662	126	14
52419570	Skud-10	690961	0.06561875	0	45	0
53110531	Skud-11	658697	14.69734	1.274374	437	14
53769228	Skud-12	1038862	41.27666	2.764146	7538	31
54808090	Skud-13	898506	13.70263	1.173272	517	13
55706596	Skud-14	776595	0.8537861	0	1138	0
56483191	Skud-15	1030073	13.35989	1.136727	418	13
57513264	Skud-16	881309	0.005522467	0	41	0
58394573	Sarb-1	194368	0.4596281	0	96	0
58588941	Sarb-2	782499	0.03606906	0	397	0
59371440	Sarb-3	298424	0.08049956	0	569	0
59669864	Sarb-4	1141293	0.03769234	0	568	0
60811157	Sarb-5	407361	0.02497539	0	304	0
61218518	Sarb-6	531626	0.01549398	0	305	0
61750144	Sarb-7	272605	0.08249665	0	448	0
62022749	Sarb-8	1053431	0.01987221	0	370	0
63076180	Sarb-9	527949	0.02531305	0	217	0
63604129	Sarb-10	721635	0.01348327	0	230	0
64325764	Sarb-11	650640	0.1513141	0	1467	0
64976404	Sarb-12	984206	0.1215416	0	1563	0
65960610	Sarb-13	1246548	0.05195388	0	595	0
67207158	Sarb-14	771513	0.02964046	0	281	0
67978671	Sarb-15	1023324	0.03764595	0	626	0
69001995	Sarb-16	879294	0.105496	0	1147	0
69881289	Seub-1	175444	0.2797873	0	115	0
70056733	Seub-2	1274804	1.707538	0	1882	0
71331537	Seub-3	305615	0.9940481	0	444	0
71637152	Seub-4	982538	0.2946654	0	302	0
72619690	Seub-5	588913	0.9520863	0	1468	0
73208603	Seub-6	264757	1.425874	0	296	0
73473360	Seub-7	1051730	0.9116827	0	395	0
74525090	Seub-8	813827	0.2705378	0	92	0
75338917	Seub-9	401362	0.2772186	0	456	0
75740279	Seub-10	747934	4.268129	0	435	0
76488213	Seub-11	632881	0.1914088	0	69	0
77121094	Seub-12	1033978	3.227961	0	6902	0
78155072	Seub-13	953685	0.2314873	0	303	0
79108757	Seub-14	768019	2.262923	0	454	0
79876776	Seub-15	741893	0.3960908	0	1743	0
80618669	Seub-16	896107	0.7449613	0	479	0
81514776	Suva-1	189981	13.94396	1.19846	1343	13
81704757	Suva-2	1289935	12.67858	1.061212	1519	13
82994692	Suva-3	295075	28.69587	2.239663	1282	29
83289767	Suva-4	983774	13.74788	1.178029	232	13
84273541	Suva-5	531350	13.5001	1.151789	1309	13
84804891	Suva-6	523204	33.6511	2.469473	2075	27
85328095	Suva-7	1027508	13.91765	1.195735	2986	13
86355603	Suva-8	806278	13.70918	1.173961	401	13
87161881	Suva-9	418340	25.53015	2.071021	924	27
87580221	Suva-10	445542	19.41405	1.67592	325	24
88025763	Suva-11	635711	13.98889	1.203101	256	14
88661474	Suva-12	1016005	11.98452	0.9799918	809	0
89677479	Suva-13	907341	14.2643	1.231228	787	14
90584820	Suva-14	750656	14.14066	1.218668	1508	14
91335476	Suva-15	763749	28.87971	2.248876	6117	27
92099225	Suva-16	918464	13.94307	1.198367	472	13
