Genome_Pos	chrom	chrLen	meanValue	log2mean	max	median
wholeGenome	all	93017689	2.823051	1	10343	0
0	Scer-1	225679	24.0516	3.090806	2163	24
225679	Scer-2	774262	6.450394	1.192132	337	6
999941	Scer-3	301492	9.832321	1.800277	62	10
1301433	Scer-4	1470431	5.532121	0.9705777	695	5
2771864	Scer-5	589033	7.222083	1.35516	433	7
3360897	Scer-6	275148	13.1632	2.221183	193	14
3636045	Scer-7	1040499	6.500807	1.203364	220	5
4676544	Scer-8	539841	7.239554	1.358646	149	7
5216385	Scer-9	449951	9.320339	1.723128	373	9
5666336	Scer-10	711359	6.386888	1.177858	549	6
6377695	Scer-11	674222	7.999914	1.50273	4961	7
7051917	Scer-12	1011671	8.79574	1.63955	458	8
8063588	Scer-13	911673	6.46808	1.196083	312	6
8975261	Scer-14	760295	7.674905	1.442894	294	6
9735556	Scer-15	1049539	5.060898	0.8421385	268	5
10785095	Scer-16	911421	5.902498	1.064071	405	5
11696516	Spar-1	224181	0.4018093	0	384	0
11920697	Spar-2	800085	0.2167357	0	1511	0
12720782	Spar-3	312241	0.05734353	0	29	0
13033023	Spar-4	1466838	0.05494949	0	232	0
14499861	Spar-5	553973	0.0636114	0	607	0
15053834	Spar-6	296174	0.08005767	0	142	0
15350008	Spar-7	1082435	0.06785257	0	440	0
16432443	Spar-8	529296	0.06401522	0	360	0
16961739	Spar-9	442403	0.1745287	0	74	0
17404142	Spar-10	729272	0.1002671	0	764	0
18133414	Spar-11	679893	0.03159174	0	52	0
18813307	Spar-12	1026045	0.1475647	0	1817	0
19839352	Spar-13	926729	0.1763407	0	1742	0
20766081	Spar-14	776644	0.06244045	0	625	0
21542725	Spar-15	1061158	0.167598	0	1789	0
22603883	Spar-16	904322	0.1435031	0	1132	0
23508205	Smik-1	188471	4.313995	0.6117696	1973	0
23696676	Smik-2	788170	0.02841773	0	323	0
24484846	Smik-3	311108	0.2248544	0	100	0
24795954	Smik-4	1444590	0.04084688	0	568	0
26240544	Smik-5	567059	0.00938174	0	164	0
26807603	Smik-6	801748	0.02245843	0	321	0
27609351	Smik-7	628517	0.09627584	0	1421	0
28237868	Smik-8	500793	0.01190712	0	147	0
28738661	Smik-9	418555	0.4988568	0	399	0
29157216	Smik-10	702533	0.02038196	0	177	0
29859749	Smik-11	654555	0.0451849	0	341	0
30514304	Smik-12	998246	0.06146982	0	1286	0
31512550	Smik-13	899821	0.02804113	0	621	0
32412371	Smik-14	731595	0.01762861	0	245	0
33143966	Smik-15	1013536	0.4917191	0	442	0
34157502	Smik-16	800825	0.01718478	0	220	0
34958327	Sjur-1	809572	0.01702134	0	222	0
35767899	Sjur-2	809280	0.01792952	0	311	0
36577179	Sjur-3	308350	0.09605967	0	266	0
36885529	Sjur-4	1474466	0.0111715	0	318	0
38359995	Sjur-5	584553	0.0147771	0	100	0
38944548	Sjur-6	730011	0.02933243	0	250	0
39674559	Sjur-7	638210	0.1343664	0	1533	0
40312769	Sjur-8	534462	0.04134251	0	472	0
40847231	Sjur-9	434517	0.1019109	0	425	0
41281748	Sjur-10	738741	0.008307377	0	134	0
42020489	Sjur-11	671067	0.001555731	0	10	0
42691556	Sjur-12	458950	2.0103	0	920	0
43150506	Sjur-13	568540	0.07919583	0	224	0
43719046	Sjur-14	334136	0.005464841	0	64	0
44053182	Sjur-15	749072	0.06911752	0	485	0
44802254	Sjur-16	1068672	0.05474364	0	600	0
45870926	Sjur-17	920427	0.021364	0	318	0
46791353	Skud-1	199426	1.782792	0	2197	0
46990779	Skud-2	784124	6.628718	1.231475	1751	6
47774903	Skud-3	337911	10.33228	1.871831	352	11
48112814	Skud-4	1455859	5.829312	1.046071	989	5
49568673	Skud-5	528556	8.329348	1.560949	1480	8
50097229	Skud-6	278641	13.47438	2.254893	256	13
50375870	Skud-7	1092180	8.321181	1.559533	2666	5
51468050	Skud-8	512600	8.075357	1.516271	139	8
51980650	Skud-9	438920	9.766705	1.790617	72	9
52419570	Skud-10	690961	7.262364	1.363184	291	7
53110531	Skud-11	658697	8.230677	1.543756	995	7
53769228	Skud-12	1038862	4.936339	0.8061865	1486	0
54808090	Skud-13	898506	6.962302	1.302309	559	6
55706596	Skud-14	776595	5.896451	1.062592	361	5
56483191	Skud-15	1030073	6.335914	1.166298	421	6
57513264	Skud-16	881309	6.60937	1.227258	220	6
58394573	Sarb-1	194368	1.170784	0	1898	0
58588941	Sarb-2	782499	1.231724	0	10343	0
59371440	Sarb-3	298424	0.04436305	0	452	0
59669864	Sarb-4	1141293	0.03884016	0	896	0
60811157	Sarb-5	407361	0.05217731	0	464	0
61218518	Sarb-6	531626	0.0205558	0	262	0
61750144	Sarb-7	272605	0.5492746	0	1373	0
62022749	Sarb-8	1053431	0.02680384	0	266	0
63076180	Sarb-9	527949	0.04628856	0	365	0
63604129	Sarb-10	721635	0.04202401	0	416	0
64325764	Sarb-11	650640	0.08506394	0	601	0
64976404	Sarb-12	984206	0.1164929	0	1140	0
65960610	Sarb-13	1246548	0.06984328	0	1357	0
67207158	Sarb-14	771513	0.02229515	0	271	0
67978671	Sarb-15	1023324	0.04470627	0	587	0
69001995	Sarb-16	879294	0.06069301	0	1181	0
69881289	Seub-1	175444	0.1400504	0	364	0
70056733	Seub-2	1274804	0.3267083	0	1728	0
71331537	Seub-3	305615	0.3942084	0	207	0
71637152	Seub-4	982538	0.08631117	0	376	0
72619690	Seub-5	588913	0.5096882	0	1577	0
73208603	Seub-6	264757	0.6520545	0	269	0
73473360	Seub-7	1051730	1.395562	0	352	0
74525090	Seub-8	813827	1.300169	0	359	0
75338917	Seub-9	401362	0.04761039	0	144	0
75740279	Seub-10	747934	0.1655748	0	465	0
76488213	Seub-11	632881	2.249448	0	508	0
77121094	Seub-12	1033978	0.7599349	0	1973	0
78155072	Seub-13	953685	0.2875195	0	567	0
79108757	Seub-14	768019	1.130804	0	720	0
79876776	Seub-15	741893	2.005118	0	1351	0
80618669	Seub-16	896107	1.609071	0	258	0
81514776	Suva-1	189981	16.03608	2.505994	1384	15
81704757	Suva-2	1289935	6.093947	1.110122	363	5
82994692	Suva-3	295075	11.01984	1.964777	229	11
83289767	Suva-4	983774	6.312806	1.161026	481	6
84273541	Suva-5	531350	7.762868	1.459335	1517	7
84804891	Suva-6	523204	13.37432	2.244139	1962	8
85328095	Suva-7	1027508	4.514361	0.6772668	1766	4
86355603	Suva-8	806278	5.781026	1.034071	289	6
87161881	Suva-9	418340	10.35011	1.87432	798	10
87580221	Suva-10	445542	9.619704	1.768737	429	9
88025763	Suva-11	635711	4.225552	0.5818849	112	4
88661474	Suva-12	1016005	5.597436	0.9875112	177	5
89677479	Suva-13	907341	6.364619	1.172819	211	6
90584820	Suva-14	750656	7.059625	1.322337	373	7
91335476	Suva-15	763749	6.058628	1.101736	696	6
92099225	Suva-16	918464	5.469679	0.9542011	339	5
