Genome_Pos	chrom	chrLen	meanValue	log2mean	max	median
wholeGenome	all	93017689	4.925443	1	3062	0
0	Scer-1	225679	24.26302	2.300434	244	24
225679	Scer-2	774262	24.2176	2.297731	65	24
999941	Scer-3	301492	23.92812	2.280382	167	24
1301433	Scer-4	1470431	24.70328	2.326377	213	25
2771864	Scer-5	589033	22.2035	2.172462	385	23
3360897	Scer-6	275148	24.98656	2.342827	554	24
3636045	Scer-7	1040499	25.13859	2.351578	155	25
4676544	Scer-8	539841	23.62089	2.261738	63	24
5216385	Scer-9	449951	23.15242	2.232838	149	24
5666336	Scer-10	711359	24.30237	2.302771	165	25
6377695	Scer-11	674222	25.52752	2.373728	238	26
7051917	Scer-12	1011671	36.27386	2.880605	3062	25
8063588	Scer-13	911673	24.55939	2.317949	116	25
8975261	Scer-14	760295	26.76311	2.44192	169	27
9735556	Scer-15	1049539	24.49255	2.314018	65	25
10785095	Scer-16	911421	24.10449	2.290977	163	24
11696516	Spar-1	224181	0.2102498	0	38	0
11920697	Spar-2	800085	0.2391008	0	60	0
12720782	Spar-3	312241	0.1088486	0	57	0
13033023	Spar-4	1466838	0.2102666	0	97	0
14499861	Spar-5	553973	0.2751289	0	96	0
15053834	Spar-6	296174	0.05589957	0	17	0
15350008	Spar-7	1082435	0.08500279	0	35	0
16432443	Spar-8	529296	0.04901416	0	46	0
16961739	Spar-9	442403	0.145094	0	508	0
17404142	Spar-10	729272	0.2308988	0	50	0
18133414	Spar-11	679893	0.1623623	0	35	0
18813307	Spar-12	1026045	0.0522287	0	90	0
19839352	Spar-13	926729	0.07077042	0	107	0
20766081	Spar-14	776644	0.06630966	0	34	0
21542725	Spar-15	1061158	0.09696954	0	39	0
22603883	Spar-16	904322	0.1467254	0	38	0
23508205	Smik-1	188471	14.746	1.581998	285	13
23696676	Smik-2	788170	13.79269	1.485579	66	13
24484846	Smik-3	311108	11.72566	1.251344	138	9
24795954	Smik-4	1444590	12.7306	1.369975	236	12
26240544	Smik-5	567059	12.99027	1.399106	89	12
26807603	Smik-6	801748	12.79957	1.377769	96	12
27609351	Smik-7	628517	13.12128	1.413583	193	13
28237868	Smik-8	500793	13.01825	1.40221	193	13
28738661	Smik-9	418555	15.38698	1.643384	334	13
29157216	Smik-10	702533	13.05785	1.406592	74	13
29859749	Smik-11	654555	11.95445	1.279223	188	12
30514304	Smik-12	998246	12.77519	1.375019	628	12
31512550	Smik-13	899821	12.593	1.354296	65	12
32412371	Smik-14	731595	11.96868	1.280939	95	11
33143966	Smik-15	1013536	14.34595	1.542318	1765	12
34157502	Smik-16	800825	12.93742	1.393224	232	12
34958327	Sjur-1	809572	0.05721295	0	82	0
35767899	Sjur-2	809280	0.02996367	0	28	0
36577179	Sjur-3	308350	0.08919734	0	27	0
36885529	Sjur-4	1474466	0.02236132	0	44	0
38359995	Sjur-5	584553	0.1383844	0	29	0
38944548	Sjur-6	730011	0.09314243	0	66	0
39674559	Sjur-7	638210	0.04076715	0	306	0
40312769	Sjur-8	534462	0.2968462	0	73	0
40847231	Sjur-9	434517	0.09632765	0	60	0
41281748	Sjur-10	738741	0.0369859	0	19	0
42020489	Sjur-11	671067	0.03199979	0	37	0
42691556	Sjur-12	458950	11.01279	1.160854	1556	0
43150506	Sjur-13	568540	0.03040243	0	79	0
43719046	Sjur-14	334136	0.06878337	0	18	0
44053182	Sjur-15	749072	0.3446037	0	424	0
44802254	Sjur-16	1068672	0.2043873	0	33	0
45870926	Sjur-17	920427	0.09000822	0	104	0
46791353	Skud-1	199426	0.0174551	0	62	0
46990779	Skud-2	784124	0.01400926	0	32	0
47774903	Skud-3	337911	0.03892149	0	44	0
48112814	Skud-4	1455859	0.01118721	0	30	0
49568673	Skud-5	528556	0.00616964	0	6	0
50097229	Skud-6	278641	0.0187589	0	11	0
50375870	Skud-7	1092180	0.01204197	0	22	0
51468050	Skud-8	512600	0.009518143	0	20	0
51980650	Skud-9	438920	0.002918527	0	2	0
52419570	Skud-10	690961	0.01348701	0	18	0
53110531	Skud-11	658697	0.07763812	0	109	0
53769228	Skud-12	1038862	0.2223356	0	420	0
54808090	Skud-13	898506	0.09521138	0	75	0
55706596	Skud-14	776595	0.6726994	0	1448	0
56483191	Skud-15	1030073	0.008190682	0	56	0
57513264	Skud-16	881309	0.009441637	0	20	0
58394573	Sarb-1	194368	0.09508767	0	68	0
58588941	Sarb-2	782499	0.001883708	0	22	0
59371440	Sarb-3	298424	0.0009851755	0	6	0
59669864	Sarb-4	1141293	0.4145745	0	68	0
60811157	Sarb-5	407361	0.005390796	0	33	0
61218518	Sarb-6	531626	0.0007317174	0	3	0
61750144	Sarb-7	272605	0.01194035	0	32	0
62022749	Sarb-8	1053431	0.01522644	0	198	0
63076180	Sarb-9	527949	0.005349002	0	9	0
63604129	Sarb-10	721635	0.005481996	0	104	0
64325764	Sarb-11	650640	0.00695008	0	63	0
64976404	Sarb-12	984206	0.006656127	0	55	0
65960610	Sarb-13	1246548	0.01395373	0	257	0
67207158	Sarb-14	771513	0.03566239	0	43	0
67978671	Sarb-15	1023324	0.3214681	0	112	0
69001995	Sarb-16	879294	0.006142428	0	61	0
69881289	Seub-1	175444	0.002775815	0	22	0
70056733	Seub-2	1274804	0.01543845	0	142	0
71331537	Seub-3	305615	0.002297008	0	32	0
71637152	Seub-4	982538	0.002446725	0	27	0
72619690	Seub-5	588913	0.04087531	0	319	0
73208603	Seub-6	264757	0.002168026	0	25	0
73473360	Seub-7	1051730	0.001328288	0	8	0
74525090	Seub-8	813827	0.002213001	0	34	0
75338917	Seub-9	401362	0.00279299	0	8	0
75740279	Seub-10	747934	0.002214099	0	16	0
76488213	Seub-11	632881	0.0113323	0	78	0
77121094	Seub-12	1033978	0.01804971	0	103	0
78155072	Seub-13	953685	0.001616886	0	17	0
79108757	Seub-14	768019	0.0008945091	0	10	0
79876776	Seub-15	741893	0.006149135	0	52	0
80618669	Seub-16	896107	0.001639313	0	24	0
81514776	Suva-1	189981	0.02362341	0	74	0
81704757	Suva-2	1289935	0.003314896	0	28	0
82994692	Suva-3	295075	0.002551894	0	8	0
83289767	Suva-4	983774	0.02820567	0	86	0
84273541	Suva-5	531350	0.005721276	0	22	0
84804891	Suva-6	523204	0.2666493	0	296	0
85328095	Suva-7	1027508	0.01322715	0	155	0
86355603	Suva-8	806278	0.006058704	0	20	0
87161881	Suva-9	418340	0.3682722	0	1253	0
87580221	Suva-10	445542	0.002282613	0	8	0
88025763	Suva-11	635711	0.003819346	0	4	0
88661474	Suva-12	1016005	0.003850375	0	16	0
89677479	Suva-13	907341	0.05043859	0	1524	0
90584820	Suva-14	750656	0.003495609	0	31	0
91335476	Suva-15	763749	0.01263504	0	164	0
92099225	Suva-16	918464	0.004617492	0	42	0
