Genome_Pos	chrom	chrLen	meanValue	log2mean	max	median
wholeGenome	all	93017689	26.30512	1	75565	0
0	Scer-1	225679	98.66783	1.907236	3741	95
225679	Scer-2	774262	94.1749	1.839999	773	93
999941	Scer-3	301492	89.28471	1.76307	556	93
1301433	Scer-4	1470431	93.48054	1.829323	2730	92
2771864	Scer-5	589033	84.64394	1.686063	4096	90
3360897	Scer-6	275148	110.7105	2.073377	6472	90
3636045	Scer-7	1040499	92.36434	1.811993	1334	92
4676544	Scer-8	539841	89.34838	1.764098	1038	91
5216385	Scer-9	449951	88.40587	1.748799	2352	92
5666336	Scer-10	711359	91.20928	1.793837	1142	93
6377695	Scer-11	674222	96.21327	1.870892	75565	91
7051917	Scer-12	1011671	159.5808	2.600871	34027	92
8063588	Scer-13	911673	92.1197	1.808166	883	93
8975261	Scer-14	760295	94.08932	1.838688	954	94
9735556	Scer-15	1049539	93.2402	1.825609	1252	93
10785095	Scer-16	911421	89.6149	1.768395	1604	91
11696516	Spar-1	224181	3.025225	0	1379	0
11920697	Spar-2	800085	0.8788291	0	2970	0
12720782	Spar-3	312241	0.2809016	0	154	0
13033023	Spar-4	1466838	1.456346	0	2188	0
14499861	Spar-5	553973	1.067978	0	2599	0
15053834	Spar-6	296174	0.1795938	0	445	0
15350008	Spar-7	1082435	0.3322805	0	534	0
16432443	Spar-8	529296	0.2538258	0	564	0
16961739	Spar-9	442403	0.9982934	0	12674	0
17404142	Spar-10	729272	0.8495129	0	9118	0
18133414	Spar-11	679893	0.3541101	0	271	0
18813307	Spar-12	1026045	0.4449873	0	2817	0
19839352	Spar-13	926729	0.2871001	0	1794	0
20766081	Spar-14	776644	0.273232	0	384	0
21542725	Spar-15	1061158	0.4964322	0	1739	0
22603883	Spar-16	904322	0.8390518	0	2013	0
23508205	Smik-1	188471	6.237023	0	2893	0
23696676	Smik-2	788170	0.04724869	0	382	0
24484846	Smik-3	311108	2.327369	0	646	0
24795954	Smik-4	1444590	0.1285237	0	1114	0
26240544	Smik-5	567059	0.0694284	0	304	0
26807603	Smik-6	801748	0.05369642	0	486	0
27609351	Smik-7	628517	0.09502368	0	812	0
28237868	Smik-8	500793	0.1146462	0	528	0
28738661	Smik-9	418555	0.8585013	0	1572	0
29157216	Smik-10	702533	0.09926366	0	500	0
29859749	Smik-11	654555	0.3284002	0	6253	0
30514304	Smik-12	998246	0.4972562	0	11216	0
31512550	Smik-13	899821	0.09972094	0	1326	0
32412371	Smik-14	731595	0.2001996	0	601	0
33143966	Smik-15	1013536	18.95027	0	22723	0
34157502	Smik-16	800825	0.07800331	0	800	0
34958327	Sjur-1	809572	0.1834216	0	1653	0
35767899	Sjur-2	809280	0.04052491	0	278	0
36577179	Sjur-3	308350	0.5013199	0	371	0
36885529	Sjur-4	1474466	0.2015855	0	10038	0
38359995	Sjur-5	584553	0.06749773	0	332	0
38944548	Sjur-6	730011	0.0907	0	216	0
39674559	Sjur-7	638210	0.4383259	0	8240	0
40312769	Sjur-8	534462	0.0499231	0	470	0
40847231	Sjur-9	434517	0.5094645	0	1088	0
41281748	Sjur-10	738741	0.07933227	0	672	0
42020489	Sjur-11	671067	0.3022738	0	3001	0
42691556	Sjur-12	458950	24.12508	0	20381	0
43150506	Sjur-13	568540	1.018321	0	2619	0
43719046	Sjur-14	334136	0.04610099	0	415	0
44053182	Sjur-15	749072	0.8244908	0	8609	0
44802254	Sjur-16	1068672	0.09707843	0	1433	0
45870926	Sjur-17	920427	0.1545641	0	1020	0
46791353	Skud-1	199426	0.09531856	0	203	0
46990779	Skud-2	784124	0.05269065	0	1330	0
47774903	Skud-3	337911	0.1254709	0	628	0
48112814	Skud-4	1455859	0.1984121	0	1625	0
49568673	Skud-5	528556	0.07496651	0	1428	0
50097229	Skud-6	278641	0.03479746	0	135	0
50375870	Skud-7	1092180	0.1847159	0	1608	0
51468050	Skud-8	512600	0.06203082	0	382	0
51980650	Skud-9	438920	0.06373827	0	626	0
52419570	Skud-10	690961	0.08493099	0	1130	0
53110531	Skud-11	658697	0.1082835	0	1892	0
53769228	Skud-12	1038862	18.06959	0	19199	0
54808090	Skud-13	898506	0.3473566	0	1326	0
55706596	Skud-14	776595	3.900169	0	17287	0
56483191	Skud-15	1030073	0.09524082	0	548	0
57513264	Skud-16	881309	0.03879457	0	968	0
58394573	Sarb-1	194368	2.001832	0	3793	0
58588941	Sarb-2	782499	0.1267375	0	969	0
59371440	Sarb-3	298424	0.2614602	0	834	0
59669864	Sarb-4	1141293	0.2009405	0	1028	0
60811157	Sarb-5	407361	0.1702986	0	1508	0
61218518	Sarb-6	531626	0.1318333	0	1539	0
61750144	Sarb-7	272605	0.4725078	0	1594	0
62022749	Sarb-8	1053431	0.1287507	0	1542	0
63076180	Sarb-9	527949	0.239383	0	1238	0
63604129	Sarb-10	721635	0.1898536	0	2406	0
64325764	Sarb-11	650640	0.2108877	0	1299	0
64976404	Sarb-12	984206	0.1711126	0	1456	0
65960610	Sarb-13	1246548	0.08946386	0	1161	0
67207158	Sarb-14	771513	0.3355018	0	5704	0
67978671	Sarb-15	1023324	0.1219281	0	1391	0
69001995	Sarb-16	879294	0.1227451	0	923	0
69881289	Seub-1	175444	0.4847644	0	162	0
70056733	Seub-2	1274804	1.672132	0	1912	0
71331537	Seub-3	305615	6.355755	0	4607	0
71637152	Seub-4	982538	0.8901182	0	858	0
72619690	Seub-5	588913	5.137336	0	7302	0
73208603	Seub-6	264757	6.653509	0	3478	0
73473360	Seub-7	1051730	1.996979	0	3067	0
74525090	Seub-8	813827	0.7329494	0	1721	0
75338917	Seub-9	401362	0.5646823	0	605	0
75740279	Seub-10	747934	1.096531	0	564	0
76488213	Seub-11	632881	0.3320482	0	1876	0
77121094	Seub-12	1033978	6.281308	0	15048	0
78155072	Seub-13	953685	0.6464042	0	2548	0
79108757	Seub-14	768019	4.621347	0	5788	0
79876776	Seub-15	741893	1.362697	0	2338	0
80618669	Seub-16	896107	2.922881	0	5340	0
81514776	Suva-1	189981	114.9915	2.128112	1740	112
81704757	Suva-2	1289935	101.8057	1.952403	2283	99
82994692	Suva-3	295075	105.9429	2.009872	1742	104
83289767	Suva-4	983774	103.8503	1.98109	1938	101
84273541	Suva-5	531350	105.7091	2.006684	774	104
84804891	Suva-6	523204	107.187	2.026715	3325	101
85328095	Suva-7	1027508	102.065	1.956073	1480	101
86355603	Suva-8	806278	102.498	1.962181	1692	101
87161881	Suva-9	418340	113.2524	2.106126	35837	103
87580221	Suva-10	445542	104.7452	1.993469	1427	102
88025763	Suva-11	635711	102.9554	1.968605	1184	100
88661474	Suva-12	1016005	102.9103	1.967972	10232	101
89677479	Suva-13	907341	102.3782	1.960494	27697	100
90584820	Suva-14	750656	104.2373	1.986456	670	103
91335476	Suva-15	763749	104.7323	1.993291	6505	101
92099225	Suva-16	918464	104.7933	1.994132	3947	101
