Genome_Pos	chrom	chrLen	meanValue	log2mean	max	median
wholeGenome	all	93017689	8.842285	1	8158	0
0	Scer-1	225679	37.79931	2.095869	1433	39
225679	Scer-2	774262	43.16001	2.287204	245	43
999941	Scer-3	301492	32.13711	1.861749	335	17
1301433	Scer-4	1470431	42.00323	2.248009	332	43
2771864	Scer-5	589033	39.36869	2.154557	1858	43
3360897	Scer-6	275148	29.10386	1.71872	1523	27
3636045	Scer-7	1040499	23.28446	1.396876	615	16
4676544	Scer-8	539841	50.22139	2.505811	192	54
5216385	Scer-9	449951	42.4914	2.26468	555	42
5666336	Scer-10	711359	35.01013	1.985281	79	37
6377695	Scer-11	674222	43.26423	2.290684	717	42
7051917	Scer-12	1011671	53.80877	2.60535	8158	36
8063588	Scer-13	911673	44.21465	2.322033	235	44
8975261	Scer-14	760295	42.11329	2.251784	335	43
9735556	Scer-15	1049539	40.68334	2.201947	185	43
10785095	Scer-16	911421	41.08949	2.216278	597	43
11696516	Spar-1	224181	0.3048162	0	56	0
11920697	Spar-2	800085	0.1701544	0	746	0
12720782	Spar-3	312241	0.1224407	0	104	0
13033023	Spar-4	1466838	0.2446501	0	180	0
14499861	Spar-5	553973	0.1959446	0	70	0
15053834	Spar-6	296174	0.03841661	0	23	0
15350008	Spar-7	1082435	0.08561715	0	39	0
16432443	Spar-8	529296	0.07352975	0	73	0
16961739	Spar-9	442403	0.1469158	0	106	0
17404142	Spar-10	729272	0.2654661	0	657	0
18133414	Spar-11	679893	0.1067639	0	58	0
18813307	Spar-12	1026045	0.0802382	0	57	0
19839352	Spar-13	926729	0.4554104	0	813	0
20766081	Spar-14	776644	0.09750671	0	66	0
21542725	Spar-15	1061158	0.1591233	0	816	0
22603883	Spar-16	904322	0.4081522	0	813	0
23508205	Smik-1	188471	2.849314	0	1574	0
23696676	Smik-2	788170	0.00298159	0	14	0
24484846	Smik-3	311108	0.03018244	0	63	0
24795954	Smik-4	1444590	0.03307236	0	56	0
26240544	Smik-5	567059	0.0138557	0	57	0
26807603	Smik-6	801748	0.06543577	0	74	0
27609351	Smik-7	628517	0.003770781	0	22	0
28237868	Smik-8	500793	0.004468912	0	22	0
28738661	Smik-9	418555	0.4417771	0	623	0
29157216	Smik-10	702533	0.0395896	0	56	0
29859749	Smik-11	654555	0.01676559	0	57	0
30514304	Smik-12	998246	0.05736362	0	817	0
31512550	Smik-13	899821	0.003586269	0	22	0
32412371	Smik-14	731595	0.07975724	0	110	0
33143966	Smik-15	1013536	0.7291384	0	836	0
34157502	Smik-16	800825	0.02340586	0	29	0
34958327	Sjur-1	809572	0.05466345	0	771	0
35767899	Sjur-2	809280	0.001277679	0	16	0
36577179	Sjur-3	308350	0.1661456	0	59	0
36885529	Sjur-4	1474466	0.001256048	0	12	0
38359995	Sjur-5	584553	0.006408315	0	16	0
38944548	Sjur-6	730011	0.04214046	0	46	0
39674559	Sjur-7	638210	0.06654549	0	743	0
40312769	Sjur-8	534462	0.003996542	0	15	0
40847231	Sjur-9	434517	0.07205242	0	69	0
41281748	Sjur-10	738741	0.01307359	0	25	0
42020489	Sjur-11	671067	0.004330417	0	21	0
42691556	Sjur-12	458950	2.255527	0	1784	0
43150506	Sjur-13	568540	0.1816337	0	229	0
43719046	Sjur-14	334136	0.001855532	0	5	0
44053182	Sjur-15	749072	0.1933472	0	340	0
44802254	Sjur-16	1068672	0.004512142	0	19	0
45870926	Sjur-17	920427	0.02453209	0	54	0
46791353	Skud-1	199426	0.008053112	0	15	0
46990779	Skud-2	784124	0.01305788	0	49	0
47774903	Skud-3	337911	0.004004013	0	16	0
48112814	Skud-4	1455859	0.003920709	0	23	0
49568673	Skud-5	528556	0.00249737	0	8	0
50097229	Skud-6	278641	0.01447023	0	12	0
50375870	Skud-7	1092180	0.04637697	0	50	0
51468050	Skud-8	512600	0.01228638	0	47	0
51980650	Skud-9	438920	0.007655154	0	16	0
52419570	Skud-10	690961	0.004735434	0	19	0
53110531	Skud-11	658697	0.005208768	0	18	0
53769228	Skud-12	1038862	0.1448614	0	687	0
54808090	Skud-13	898506	0.1935658	0	97	0
55706596	Skud-14	776595	0.1426754	0	532	0
56483191	Skud-15	1030073	0.00295416	0	10	0
57513264	Skud-16	881309	0.001472809	0	4	0
58394573	Sarb-1	194368	0.209659	0	878	0
58588941	Sarb-2	782499	0.003824925	0	18	0
59371440	Sarb-3	298424	0.003002439	0	18	0
59669864	Sarb-4	1141293	0.03198916	0	65	0
60811157	Sarb-5	407361	0.006092876	0	21	0
61218518	Sarb-6	531626	0.002347515	0	16	0
61750144	Sarb-7	272605	0.02068928	0	53	0
62022749	Sarb-8	1053431	0.0163257	0	36	0
63076180	Sarb-9	527949	0.08965828	0	93	0
63604129	Sarb-10	721635	0.004319358	0	22	0
64325764	Sarb-11	650640	0.05675335	0	555	0
64976404	Sarb-12	984206	0.08444675	0	1239	0
65960610	Sarb-13	1246548	0.00741969	0	22	0
67207158	Sarb-14	771513	0.02309618	0	27	0
67978671	Sarb-15	1023324	0.005496793	0	24	0
69001995	Sarb-16	879294	0.01864905	0	222	0
69881289	Seub-1	175444	13.81497	0.6437415	120	13
70056733	Seub-2	1274804	26.95278	1.607943	1164	27
71331537	Seub-3	305615	35.91065	2.021921	717	49
71637152	Seub-4	982538	27.92617	1.659127	161	28
72619690	Seub-5	588913	28.36714	1.68173	698	28
73208603	Seub-6	264757	38.03018	2.104654	516	41
73473360	Seub-7	1051730	34.77247	1.975454	941	41
74525090	Seub-8	813827	28.51914	1.68944	209	28
75338917	Seub-9	401362	27.75905	1.650467	223	28
75740279	Seub-10	747934	33.80277	1.93465	138	33
76488213	Seub-11	632881	27.56522	1.640358	99	21
77121094	Seub-12	1033978	34.70104	1.972488	2511	33
78155072	Seub-13	953685	25.67537	1.537894	428	28
79108757	Seub-14	768019	13.95551	0.658344	498	14
79876776	Seub-15	741893	29.75444	1.750614	1287	29
80618669	Seub-16	896107	28.0577	1.665906	581	28
81514776	Suva-1	189981	0.9048536	0	576	0
81704757	Suva-2	1289935	0.2883114	0	511	0
82994692	Suva-3	295075	0.5476845	0	1695	0
83289767	Suva-4	983774	0.8501536	0	428	0
84273541	Suva-5	531350	0.2007359	0	261	0
84804891	Suva-6	523204	5.173951	0	1536	0
85328095	Suva-7	1027508	0.1228973	0	1225	0
86355603	Suva-8	806278	0.2565827	0	84	0
87161881	Suva-9	418340	0.3333031	0	403	0
87580221	Suva-10	445542	0.1707448	0	106	0
88025763	Suva-11	635711	0.1151939	0	235	0
88661474	Suva-12	1016005	0.2328168	0	64	0
89677479	Suva-13	907341	0.02646414	0	27	0
90584820	Suva-14	750656	0.1804515	0	601	0
91335476	Suva-15	763749	0.6633436	0	2341	0
92099225	Suva-16	918464	0.2052176	0	181	0
