Genome_Pos	chrom	chrLen	meanValue	log2mean	max	median
wholeGenome	all	93017689	10.17106	1	4440	0
0	Scer-1	225679	59.32079	2.544067	1571	65
225679	Scer-2	774262	54.35604	2.41797	284	55
999941	Scer-3	301492	40.06374	1.977827	490	21
1301433	Scer-4	1470431	53.48941	2.394783	368	55
2771864	Scer-5	589033	53.13429	2.385173	1969	56
3360897	Scer-6	275148	35.47101	1.80217	1907	34
3636045	Scer-7	1040499	43.58378	2.099321	712	39
4676544	Scer-8	539841	29.17503	1.520264	160	32
5216385	Scer-9	449951	52.10715	2.357011	754	52
5666336	Scer-10	711359	35.64065	1.809053	90	37
6377695	Scer-11	674222	50.99219	2.325806	858	48
7051917	Scer-12	1011671	60.88922	2.581716	4440	53
8063588	Scer-13	911673	54.51058	2.422066	359	55
8975261	Scer-14	760295	32.71444	1.685457	380	34
9735556	Scer-15	1049539	51.89098	2.351013	218	54
10785095	Scer-16	911421	71.80256	2.819565	704	78
11696516	Spar-1	224181	0.4774133	0	98	0
11920697	Spar-2	800085	0.2119812	0	1038	0
12720782	Spar-3	312241	0.141695	0	116	0
13033023	Spar-4	1466838	0.305952	0	166	0
14499861	Spar-5	553973	0.2337388	0	65	0
15053834	Spar-6	296174	0.05098017	0	35	0
15350008	Spar-7	1082435	0.1714837	0	73	0
16432443	Spar-8	529296	0.040125	0	42	0
16961739	Spar-9	442403	0.1884978	0	150	0
17404142	Spar-10	729272	0.2797475	0	784	0
18133414	Spar-11	679893	0.1335798	0	51	0
18813307	Spar-12	1026045	0.1114074	0	71	0
19839352	Spar-13	926729	0.45183	0	1003	0
20766081	Spar-14	776644	0.0815689	0	68	0
21542725	Spar-15	1061158	0.1928101	0	960	0
22603883	Spar-16	904322	0.5415925	0	1105	0
23508205	Smik-1	188471	3.305416	0	1902	0
23696676	Smik-2	788170	0.002442366	0	7	0
24484846	Smik-3	311108	0.04095362	0	84	0
24795954	Smik-4	1444590	0.03986391	0	54	0
26240544	Smik-5	567059	0.01904211	0	59	0
26807603	Smik-6	801748	0.0814882	0	111	0
27609351	Smik-7	628517	0.004224229	0	12	0
28237868	Smik-8	500793	0.003704125	0	10	0
28738661	Smik-9	418555	0.4895605	0	661	0
29157216	Smik-10	702533	0.03024342	0	35	0
29859749	Smik-11	654555	0.01346716	0	63	0
30514304	Smik-12	998246	0.06717182	0	1025	0
31512550	Smik-13	899821	0.004365313	0	21	0
32412371	Smik-14	731595	0.0850949	0	119	0
33143966	Smik-15	1013536	0.6000438	0	688	0
34157502	Smik-16	800825	0.03537976	0	51	0
34958327	Sjur-1	809572	0.07016053	0	1010	0
35767899	Sjur-2	809280	0.001833729	0	7	0
36577179	Sjur-3	308350	0.278813	0	102	0
36885529	Sjur-4	1474466	0.0008091065	0	5	0
38359995	Sjur-5	584553	0.007260248	0	44	0
38944548	Sjur-6	730011	0.04654039	0	46	0
39674559	Sjur-7	638210	0.07419658	0	806	0
40312769	Sjur-8	534462	0.003712144	0	12	0
40847231	Sjur-9	434517	0.0726853	0	63	0
41281748	Sjur-10	738741	0.01751223	0	31	0
42020489	Sjur-11	671067	0.003190441	0	25	0
42691556	Sjur-12	458950	1.286789	0	872	0
43150506	Sjur-13	568540	0.2301685	0	285	0
43719046	Sjur-14	334136	0.001529317	0	5	0
44053182	Sjur-15	749072	0.2070161	0	397	0
44802254	Sjur-16	1068672	0.004702098	0	24	0
45870926	Sjur-17	920427	0.02791639	0	70	0
46791353	Skud-1	199426	0.007366141	0	6	0
46990779	Skud-2	784124	0.01235264	0	39	0
47774903	Skud-3	337911	0.004187493	0	12	0
48112814	Skud-4	1455859	0.003732504	0	29	0
49568673	Skud-5	528556	0.004016604	0	13	0
50097229	Skud-6	278641	0.007328426	0	7	0
50375870	Skud-7	1092180	0.05259939	0	58	0
51468050	Skud-8	512600	0.0116387	0	43	0
51980650	Skud-9	438920	0.00656156	0	16	0
52419570	Skud-10	690961	0.00426218	0	18	0
53110531	Skud-11	658697	0.006395961	0	14	0
53769228	Skud-12	1038862	0.1610406	0	930	0
54808090	Skud-13	898506	0.2389711	0	118	0
55706596	Skud-14	776595	0.1221126	0	430	0
56483191	Skud-15	1030073	0.001330974	0	6	0
57513264	Skud-16	881309	0.002254601	0	12	0
58394573	Sarb-1	194368	0.2542034	0	1060	0
58588941	Sarb-2	782499	0.006209593	0	34	0
59371440	Sarb-3	298424	0.007335201	0	102	0
59669864	Sarb-4	1141293	0.03356193	0	69	0
60811157	Sarb-5	407361	0.00953945	0	36	0
61218518	Sarb-6	531626	0.003043493	0	16	0
61750144	Sarb-7	272605	0.01998129	0	60	0
62022749	Sarb-8	1053431	0.02154389	0	40	0
63076180	Sarb-9	527949	0.08272201	0	100	0
63604129	Sarb-10	721635	0.002699426	0	11	0
64325764	Sarb-11	650640	0.05660734	0	566	0
64976404	Sarb-12	984206	0.09854644	0	1518	0
65960610	Sarb-13	1246548	0.009880887	0	41	0
67207158	Sarb-14	771513	0.03262421	0	37	0
67978671	Sarb-15	1023324	0.004204924	0	33	0
69001995	Sarb-16	879294	0.02770859	0	521	0
69881289	Seub-1	175444	1.755871	0	111	0
70056733	Seub-2	1274804	34.81791	1.775359	1327	35
71331537	Seub-3	305615	43.90931	2.110056	793	60
71637152	Seub-4	982538	17.43712	0.7776916	204	17
72619690	Seub-5	588913	31.36377	1.624629	895	33
73208603	Seub-6	264757	37.48131	1.881701	561	38
73473360	Seub-7	1051730	28.76735	1.499962	898	33
74525090	Seub-8	813827	34.90916	1.779135	246	35
75338917	Seub-9	401362	33.75556	1.730655	262	34
75740279	Seub-10	747934	40.95859	2.009696	128	40
76488213	Seub-11	632881	34.03485	1.742543	140	25
77121094	Seub-12	1033978	35.12894	1.78819	2560	35
78155072	Seub-13	953685	15.98613	0.6523503	447	17
79108757	Seub-14	768019	33.71331	1.728848	544	34
79876776	Seub-15	741893	34.79116	1.774251	1419	35
80618669	Seub-16	896107	15.09848	0.5699331	656	13
81514776	Suva-1	189981	0.8833515	0	873	0
81704757	Suva-2	1289935	0.379999	0	610	0
82994692	Suva-3	295075	0.5598204	0	1818	0
83289767	Suva-4	983774	0.9235637	0	482	0
84273541	Suva-5	531350	0.2137819	0	322	0
84804891	Suva-6	523204	6.128552	0	1848	0
85328095	Suva-7	1027508	0.1231484	0	1309	0
86355603	Suva-8	806278	0.2785714	0	79	0
87161881	Suva-9	418340	0.3118349	0	391	0
87580221	Suva-10	445542	0.1500083	0	93	0
88025763	Suva-11	635711	0.1326247	0	221	0
88661474	Suva-12	1016005	0.2040433	0	51	0
89677479	Suva-13	907341	0.02018095	0	127	0
90584820	Suva-14	750656	0.3412615	0	841	0
91335476	Suva-15	763749	0.7519827	0	2679	0
92099225	Suva-16	918464	0.2153737	0	157	0
