Genome_Pos	chrom	chrLen	meanValue	log2mean	max	median
wholeGenome	all	93017689	12.04282	1	9694	0
0	Scer-1	225679	50.19716	2.059433	978	49
225679	Scer-2	774262	67.39339	2.484434	395	65
999941	Scer-3	301492	76.32907	2.66406	654	62
1301433	Scer-4	1470431	33.62965	1.481561	828	31
2771864	Scer-5	589033	74.56862	2.630396	3637	71
3360897	Scer-6	275148	31.6537	1.394201	3563	24
3636045	Scer-7	1040499	52.05024	2.111732	1074	40
4676544	Scer-8	539841	59.04241	2.293578	244	59
5216385	Scer-9	449951	105.2141	3.127083	1966	101
5666336	Scer-10	711359	47.23442	1.971665	209	45
6377695	Scer-11	674222	58.9395	2.291062	1537	55
7051917	Scer-12	1011671	59.22413	2.298012	9694	41
8063588	Scer-13	911673	44.22439	1.876669	1054	40
8975261	Scer-14	760295	46.5088	1.949331	788	45
9735556	Scer-15	1049539	59.83517	2.312821	362	58
10785095	Scer-16	911421	40.83243	1.761542	2184	36
11696516	Spar-1	224181	0.3799475	0	107	0
11920697	Spar-2	800085	0.2328228	0	297	0
12720782	Spar-3	312241	0.273433	0	207	0
13033023	Spar-4	1466838	0.139314	0	181	0
14499861	Spar-5	553973	0.30506	0	100	0
15053834	Spar-6	296174	0.05698002	0	53	0
15350008	Spar-7	1082435	0.169649	0	94	0
16432443	Spar-8	529296	0.06376772	0	71	0
16961739	Spar-9	442403	0.2965599	0	206	0
17404142	Spar-10	729272	0.3188906	0	404	0
18133414	Spar-11	679893	0.1651348	0	81	0
18813307	Spar-12	1026045	0.07957253	0	58	0
19839352	Spar-13	926729	0.5124152	0	254	0
20766081	Spar-14	776644	0.1189799	0	138	0
21542725	Spar-15	1061158	0.2032817	0	261	0
22603883	Spar-16	904322	0.5964745	0	224	0
23508205	Smik-1	188471	1.704374	0	1150	0
23696676	Smik-2	788170	0.004707106	0	24	0
24484846	Smik-3	311108	0.04918549	0	100	0
24795954	Smik-4	1444590	0.05752705	0	79	0
26240544	Smik-5	567059	0.02265549	0	90	0
26807603	Smik-6	801748	0.09813058	0	154	0
27609351	Smik-7	628517	0.004419928	0	13	0
28237868	Smik-8	500793	0.004710529	0	13	0
28738661	Smik-9	418555	0.7525558	0	969	0
29157216	Smik-10	702533	0.04509681	0	57	0
29859749	Smik-11	654555	0.03068039	0	182	0
30514304	Smik-12	998246	0.06508516	0	586	0
31512550	Smik-13	899821	0.00332066	0	30	0
32412371	Smik-14	731595	0.1334837	0	246	0
33143966	Smik-15	1013536	0.1797233	0	248	0
34157502	Smik-16	800825	0.02354322	0	44	0
34958327	Sjur-1	809572	0.03857347	0	374	0
35767899	Sjur-2	809280	0.00896723	0	75	0
36577179	Sjur-3	308350	0.3963451	0	147	0
36885529	Sjur-4	1474466	0.002659946	0	11	0
38359995	Sjur-5	584553	0.01711906	0	31	0
38944548	Sjur-6	730011	0.0566649	0	60	0
39674559	Sjur-7	638210	0.1015167	0	899	0
40312769	Sjur-8	534462	0.003730855	0	25	0
40847231	Sjur-9	434517	0.1526361	0	104	0
41281748	Sjur-10	738741	0.02394073	0	42	0
42020489	Sjur-11	671067	0.006470293	0	19	0
42691556	Sjur-12	458950	2.042955	0	1920	0
43150506	Sjur-13	568540	0.6005716	0	972	0
43719046	Sjur-14	334136	0.003426748	0	9	0
44053182	Sjur-15	749072	0.3122343	0	405	0
44802254	Sjur-16	1068672	0.008842751	0	36	0
45870926	Sjur-17	920427	0.0387016	0	90	0
46791353	Skud-1	199426	0.03161072	0	22	0
46990779	Skud-2	784124	0.01908754	0	107	0
47774903	Skud-3	337911	0.003637052	0	8	0
48112814	Skud-4	1455859	0.004139824	0	24	0
49568673	Skud-5	528556	0.002873868	0	8	0
50097229	Skud-6	278641	0.01811291	0	21	0
50375870	Skud-7	1092180	0.08017543	0	101	0
51468050	Skud-8	512600	0.01713227	0	73	0
51980650	Skud-9	438920	0.01097011	0	40	0
52419570	Skud-10	690961	0.002777291	0	6	0
53110531	Skud-11	658697	0.01002282	0	20	0
53769228	Skud-12	1038862	0.1881126	0	465	0
54808090	Skud-13	898506	0.3110185	0	298	0
55706596	Skud-14	776595	0.02931258	0	79	0
56483191	Skud-15	1030073	0.01220205	0	43	0
57513264	Skud-16	881309	0.0003165745	0	4	0
58394573	Sarb-1	194368	0.06302478	0	244	0
58588941	Sarb-2	782499	0.005660071	0	36	0
59371440	Sarb-3	298424	0.001404043	0	6	0
59669864	Sarb-4	1141293	0.05691527	0	111	0
60811157	Sarb-5	407361	0.005314696	0	23	0
61218518	Sarb-6	531626	0.002791436	0	10	0
61750144	Sarb-7	272605	0.005803268	0	8	0
62022749	Sarb-8	1053431	0.03946723	0	99	0
63076180	Sarb-9	527949	0.1392521	0	313	0
63604129	Sarb-10	721635	0.007284846	0	34	0
64325764	Sarb-11	650640	0.02109154	0	221	0
64976404	Sarb-12	984206	0.04042751	0	508	0
65960610	Sarb-13	1246548	0.008931064	0	40	0
67207158	Sarb-14	771513	0.05191487	0	52	0
67978671	Sarb-15	1023324	0.003331301	0	8	0
69001995	Sarb-16	879294	0.0019038	0	20	0
69881289	Seub-1	175444	52.60961	2.127153	246	52
70056733	Seub-2	1274804	38.23355	1.666666	1457	36
71331537	Seub-3	305615	65.76198	2.449081	1265	78
71637152	Seub-4	982538	40.70314	1.756967	319	39
72619690	Seub-5	588913	49.64631	2.043513	349	48
73208603	Seub-6	264757	72.88847	2.597518	2487	73
73473360	Seub-7	1051730	33.13665	1.460255	4866	34
74525090	Seub-8	813827	45.27324	1.910485	1045	43
75338917	Seub-9	401362	24.84135	1.04457	199	24
75740279	Seub-10	747934	44.85016	1.89694	459	30
76488213	Seub-11	632881	44.08032	1.871962	218	33
77121094	Seub-12	1033978	41.98573	1.801726	3134	40
78155072	Seub-13	953685	35.27488	1.550468	759	36
79108757	Seub-14	768019	43.24769	1.84445	2486	41
79876776	Seub-15	741893	29.3725	1.286293	429	24
80618669	Seub-16	896107	38.60639	1.680667	2630	36
81514776	Suva-1	189981	2.257573	0	373	0
81704757	Suva-2	1289935	0.4902495	0	476	0
82994692	Suva-3	295075	0.5792765	0	2338	0
83289767	Suva-4	983774	1.343809	0	882	0
84273541	Suva-5	531350	0.2562586	0	440	0
84804891	Suva-6	523204	1.930608	0	1026	0
85328095	Suva-7	1027508	0.09106206	0	623	0
86355603	Suva-8	806278	0.497801	0	184	0
87161881	Suva-9	418340	0.3444901	0	146	0
87580221	Suva-10	445542	0.241149	0	202	0
88025763	Suva-11	635711	0.2600647	0	703	0
88661474	Suva-12	1016005	0.2361081	0	82	0
89677479	Suva-13	907341	0.05699511	0	60	0
90584820	Suva-14	750656	0.4037935	0	94	0
91335476	Suva-15	763749	0.365755	0	669	0
92099225	Suva-16	918464	0.4616643	0	645	0
