Genome_Pos	chrom	chrLen	meanValue	log2mean	max	median
wholeGenome	all	93017689	7.656745	1	8779	0
0	Scer-1	225679	0.754749	0	1204	0
225679	Scer-2	774262	0.03200338	0	214	0
999941	Scer-3	301492	0.06841309	0	722	0
1301433	Scer-4	1470431	0.03657023	0	302	0
2771864	Scer-5	589033	0.08860454	0	408	0
3360897	Scer-6	275148	0.1826581	0	53	0
3636045	Scer-7	1040499	0.2666346	0	369	0
4676544	Scer-8	539841	0.004997768	0	4	0
5216385	Scer-9	449951	1.409736	0	424	0
5666336	Scer-10	711359	0.04648145	0	824	0
6377695	Scer-11	674222	0.02597661	0	165	0
7051917	Scer-12	1011671	0.9177578	0	4853	0
8063588	Scer-13	911673	0.008339613	0	124	0
8975261	Scer-14	760295	0.04290703	0	154	0
9735556	Scer-15	1049539	0.0322332	0	494	0
10785095	Scer-16	911421	0.01921834	0	414	0
11696516	Spar-1	224181	0.05199816	0	19	0
11920697	Spar-2	800085	0.0508496	0	814	0
12720782	Spar-3	312241	0.03649425	0	503	0
13033023	Spar-4	1466838	0.04684771	0	642	0
14499861	Spar-5	553973	0.09393057	0	162	0
15053834	Spar-6	296174	0.02217278	0	22	0
15350008	Spar-7	1082435	0.0133329	0	232	0
16432443	Spar-8	529296	0.04984923	0	993	0
16961739	Spar-9	442403	0.0311978	0	475	0
17404142	Spar-10	729272	0.03050714	0	782	0
18133414	Spar-11	679893	0.01280054	0	242	0
18813307	Spar-12	1026045	0.04960309	0	894	0
19839352	Spar-13	926729	0.1633174	0	1324	0
20766081	Spar-14	776644	0.02294874	0	179	0
21542725	Spar-15	1061158	0.04104573	0	726	0
22603883	Spar-16	904322	0.03949146	0	541	0
23508205	Smik-1	188471	2.586186	0	1232	0
23696676	Smik-2	788170	0.01064745	0	168	0
24484846	Smik-3	311108	0.005120408	0	52	0
24795954	Smik-4	1444590	0.03061491	0	828	0
26240544	Smik-5	567059	0.01861006	0	360	0
26807603	Smik-6	801748	0.001471784	0	28	0
27609351	Smik-7	628517	0.01990877	0	222	0
28237868	Smik-8	500793	0.003190939	0	44	0
28738661	Smik-9	418555	0.01673615	0	20	0
29157216	Smik-10	702533	0.02381383	0	242	0
29859749	Smik-11	654555	0.009381947	0	152	0
30514304	Smik-12	998246	0.07538122	0	715	0
31512550	Smik-13	899821	0.0291269	0	870	0
32412371	Smik-14	731595	0.005127154	0	85	0
33143966	Smik-15	1013536	1.07	0	985	0
34157502	Smik-16	800825	0.002448725	0	32	0
34958327	Sjur-1	809572	0.04474463	0	499	0
35767899	Sjur-2	809280	0.02652605	0	339	0
36577179	Sjur-3	308350	0.01531052	0	27	0
36885529	Sjur-4	1474466	0.02201272	0	705	0
38359995	Sjur-5	584553	0.02186457	0	442	0
38944548	Sjur-6	730011	0.01694632	0	236	0
39674559	Sjur-7	638210	0.09030413	0	930	0
40312769	Sjur-8	534462	0.005328723	0	65	0
40847231	Sjur-9	434517	0.03369488	0	330	0
41281748	Sjur-10	738741	0.01357851	0	456	0
42020489	Sjur-11	671067	0.0212706	0	420	0
42691556	Sjur-12	458950	14.26513	0.8976901	8075	0
43150506	Sjur-13	568540	0.04467232	0	496	0
43719046	Sjur-14	334136	0.0002274523	0	4	0
44053182	Sjur-15	749072	0.09034779	0	1026	0
44802254	Sjur-16	1068672	0.0152769	0	392	0
45870926	Sjur-17	920427	0.02799679	0	331	0
46791353	Skud-1	199426	0.2476006	0	717	0
46990779	Skud-2	784124	0.04857523	0	400	0
47774903	Skud-3	337911	0.1082593	0	474	0
48112814	Skud-4	1455859	0.04796344	0	504	0
49568673	Skud-5	528556	0.005988013	0	24	0
50097229	Skud-6	278641	0.07766983	0	55	0
50375870	Skud-7	1092180	0.07342746	0	665	0
51468050	Skud-8	512600	0.006170503	0	22	0
51980650	Skud-9	438920	0.01063064	0	22	0
52419570	Skud-10	690961	0.003111608	0	36	0
53110531	Skud-11	658697	0.06492211	0	403	0
53769228	Skud-12	1038862	13.76169	0.8458541	8779	0
54808090	Skud-13	898506	0.9888259	0	150	0
55706596	Skud-14	776595	0.4374056	0	852	0
56483191	Skud-15	1030073	0.01132638	0	238	0
57513264	Skud-16	881309	0.002040147	0	16	0
58394573	Sarb-1	194368	0.01399407	0	26	0
58588941	Sarb-2	782499	0.04112849	0	568	0
59371440	Sarb-3	298424	0.08143112	0	572	0
59669864	Sarb-4	1141293	0.03796571	0	752	0
60811157	Sarb-5	407361	0.02594505	0	148	0
61218518	Sarb-6	531626	0.0004458021	0	4	0
61750144	Sarb-7	272605	0.07034354	0	482	0
62022749	Sarb-8	1053431	0.01688103	0	542	0
63076180	Sarb-9	527949	0.009076634	0	71	0
63604129	Sarb-10	721635	0.009270615	0	151	0
64325764	Sarb-11	650640	0.1045524	0	922	0
64976404	Sarb-12	984206	0.07809849	0	806	0
65960610	Sarb-13	1246548	0.04320812	0	418	0
67207158	Sarb-14	771513	0.02316228	0	365	0
67978671	Sarb-15	1023324	0.02690643	0	439	0
69001995	Sarb-16	879294	0.08927617	0	760	0
69881289	Seub-1	175444	0.4611443	0	175	0
70056733	Seub-2	1274804	2.27204	0	1052	0
71331537	Seub-3	305615	4.514608	0	881	0
71637152	Seub-4	982538	1.62214	0	810	0
72619690	Seub-5	588913	1.80265	0	1771	0
73208603	Seub-6	264757	6.766575	0	737	0
73473360	Seub-7	1051730	3.111278	0	970	0
74525090	Seub-8	813827	9.443377	0.3025716	191	0
75338917	Seub-9	401362	15.82222	1.047148	400	17
75740279	Seub-10	747934	1.188514	0	96	0
76488213	Seub-11	632881	7.139252	0	99	0
77121094	Seub-12	1033978	8.005317	0.06422736	7454	0
78155072	Seub-13	953685	14.21376	0.8924847	580	0
79108757	Seub-14	768019	3.3719	0	1113	0
79876776	Seub-15	741893	12.21152	0.6734391	987	0
80618669	Seub-16	896107	14.52102	0.9233394	953	0
81514776	Suva-1	189981	27.43567	1.84125	756	27
81704757	Suva-2	1289935	67.90739	3.148766	1095	69
82994692	Suva-3	295075	30.89202	2.012431	555	31
83289767	Suva-4	983774	61.45407	3.004705	558	63
84273541	Suva-5	531350	50.56874	2.723443	749	51
84804891	Suva-6	523204	47.93156	2.646173	1700	45
85328095	Suva-7	1027508	61.73631	3.011316	1964	63
86355603	Suva-8	806278	47.53331	2.634136	493	53
87161881	Suva-9	418340	23.89578	1.641952	1120	21
87580221	Suva-10	445542	43.40818	2.503164	431	44
88025763	Suva-11	635711	44.30391	2.532631	676	46
88661474	Suva-12	1016005	69.02848	3.172389	809	72
89677479	Suva-13	907341	46.76066	2.610492	1254	44
90584820	Suva-14	750656	53.48506	2.804333	841	54
91335476	Suva-15	763749	45.79293	2.580322	2069	46
92099225	Suva-16	918464	48.91612	2.675507	901	49
