Genome_Pos	chrom	chrLen	meanValue	log2mean	max	median
wholeGenome	all	93017689	11.70808	1	8325	0
0	Scer-1	225679	62.28743	2.411436	2853	59
225679	Scer-2	774262	73.94233	2.658896	531	83
999941	Scer-3	301492	54.5565	2.220246	699	58
1301433	Scer-4	1470431	83.54256	2.835007	782	87
2771864	Scer-5	589033	59.34745	2.341681	1961	60
3360897	Scer-6	275148	55.60675	2.247755	755	60
3636045	Scer-7	1040499	62.05884	2.406132	665	59
4676544	Scer-8	539841	56.60083	2.273318	337	59
5216385	Scer-9	449951	113.6979	3.279629	1189	119
5666336	Scer-10	711359	69.66994	2.573032	178	71
6377695	Scer-11	674222	62.70404	2.421054	2950	61
7051917	Scer-12	1011671	112.86	3.268957	8325	87
8063588	Scer-13	911673	72.66633	2.633782	370	82
8975261	Scer-14	760295	60.81967	2.377033	831	59
9735556	Scer-15	1049539	56.24627	2.264253	430	58
10785095	Scer-16	911421	57.01092	2.283734	569	59
11696516	Spar-1	224181	0.9871265	0	1161	0
11920697	Spar-2	800085	0.5686408	0	1022	0
12720782	Spar-3	312241	3.076473	0	113	0
13033023	Spar-4	1466838	0.9042594	0	586	0
14499861	Spar-5	553973	0.284198	0	90	0
15053834	Spar-6	296174	0.1092567	0	59	0
15350008	Spar-7	1082435	0.3006989	0	159	0
16432443	Spar-8	529296	0.1690359	0	162	0
16961739	Spar-9	442403	1.01915	0	205	0
17404142	Spar-10	729272	0.5025697	0	531	0
18133414	Spar-11	679893	0.2556005	0	94	0
18813307	Spar-12	1026045	0.308618	0	1917	0
19839352	Spar-13	926729	0.6022106	0	1121	0
20766081	Spar-14	776644	0.1326464	0	70	0
21542725	Spar-15	1061158	0.314644	0	2361	0
22603883	Spar-16	904322	0.5053665	0	715	0
23508205	Smik-1	188471	5.430109	0	3260	0
23696676	Smik-2	788170	0.003593133	0	14	0
24484846	Smik-3	311108	1.338101	0	195	0
24795954	Smik-4	1444590	0.08281242	0	117	0
26240544	Smik-5	567059	0.02234864	0	80	0
26807603	Smik-6	801748	0.04792154	0	60	0
27609351	Smik-7	628517	0.02941846	0	397	0
28237868	Smik-8	500793	0.00552324	0	14	0
28738661	Smik-9	418555	1.871422	0	1127	0
29157216	Smik-10	702533	0.06278993	0	227	0
29859749	Smik-11	654555	0.01228163	0	26	0
30514304	Smik-12	998246	0.04247851	0	600	0
31512550	Smik-13	899821	0.00421306	0	31	0
32412371	Smik-14	731595	0.04075752	0	58	0
33143966	Smik-15	1013536	0.002902709	0	6	0
34157502	Smik-16	800825	0.02514407	0	51	0
34958327	Sjur-1	809572	0.01399011	0	63	0
35767899	Sjur-2	809280	0.01210829	0	53	0
36577179	Sjur-3	308350	0.4651208	0	136	0
36885529	Sjur-4	1474466	0.004521637	0	27	0
38359995	Sjur-5	584553	0.02543995	0	68	0
38944548	Sjur-6	730011	0.064373	0	59	0
39674559	Sjur-7	638210	0.1220774	0	1583	0
40312769	Sjur-8	534462	0.006718906	0	28	0
40847231	Sjur-9	434517	0.2146498	0	126	0
41281748	Sjur-10	738741	0.02090042	0	54	0
42020489	Sjur-11	671067	0.004322966	0	25	0
42691556	Sjur-12	458950	2.341303	0	2268	0
43150506	Sjur-13	568540	0.400387	0	939	0
43719046	Sjur-14	334136	0.001280916	0	5	0
44053182	Sjur-15	749072	0.02774767	0	50	0
44802254	Sjur-16	1068672	0.00513441	0	28	0
45870926	Sjur-17	920427	0.01197053	0	44	0
46791353	Skud-1	199426	31.75137	1.439314	1591	30
46990779	Skud-2	784124	13.49976	0.2054285	343	0
47774903	Skud-3	337911	26.48491	1.177666	233	29
48112814	Skud-4	1455859	2.870707	0	322	0
49568673	Skud-5	528556	23.09402	0.9800147	669	27
50097229	Skud-6	278641	30.57308	1.384757	213	30
50375870	Skud-7	1092180	37.07426	1.662913	2858	28
51468050	Skud-8	512600	57.72933	2.3018	145	58
51980650	Skud-9	438920	0.0992436	0	144	0
52419570	Skud-10	690961	14.7177	0.3300474	171	0
53110531	Skud-11	658697	24.31158	1.054139	1871	26
53769228	Skud-12	1038862	0.6736516	0	1360	0
54808090	Skud-13	898506	15.42478	0.3977454	2354	0
55706596	Skud-14	776595	25.04806	1.097194	285	27
56483191	Skud-15	1030073	29.27077	1.321956	230	29
57513264	Skud-16	881309	28.22036	1.269232	75	29
58394573	Sarb-1	194368	1.871537	0	2786	0
58588941	Sarb-2	782499	0.4471903	0	4803	0
59371440	Sarb-3	298424	0.002017264	0	6	0
59669864	Sarb-4	1141293	0.03534412	0	179	0
60811157	Sarb-5	407361	0.003971907	0	41	0
61218518	Sarb-6	531626	0.003910644	0	30	0
61750144	Sarb-7	272605	0.3773298	0	1344	0
62022749	Sarb-8	1053431	0.03413892	0	61	0
63076180	Sarb-9	527949	0.04376559	0	126	0
63604129	Sarb-10	721635	0.005538811	0	15	0
64325764	Sarb-11	650640	0.006575065	0	49	0
64976404	Sarb-12	984206	0.03478235	0	482	0
65960610	Sarb-13	1246548	0.003593123	0	82	0
67207158	Sarb-14	771513	0.03966233	0	49	0
67978671	Sarb-15	1023324	0.004073001	0	32	0
69001995	Sarb-16	879294	0.001238494	0	30	0
69881289	Seub-1	175444	0	0	0	0
70056733	Seub-2	1274804	0.1302098	0	1748	0
71331537	Seub-3	305615	0.001639317	0	2	0
71637152	Seub-4	982538	0.009752295	0	77	0
72619690	Seub-5	588913	0.1570538	0	1271	0
73208603	Seub-6	264757	0.002345547	0	4	0
73473360	Seub-7	1051730	0.006918125	0	18	0
74525090	Seub-8	813827	0.004002079	0	13	0
75338917	Seub-9	401362	0.008755189	0	32	0
75740279	Seub-10	747934	0.02113555	0	45	0
76488213	Seub-11	632881	0.009262405	0	36	0
77121094	Seub-12	1033978	0.4348255	0	3325	0
78155072	Seub-13	953685	0.0322832	0	466	0
79108757	Seub-14	768019	0.001447881	0	28	0
79876776	Seub-15	741893	0.02745544	0	319	0
80618669	Seub-16	896107	0.001319039	0	5	0
81514776	Suva-1	189981	0.3092467	0	1019	0
81704757	Suva-2	1289935	0.003756778	0	15	0
82994692	Suva-3	295075	0.005696857	0	16	0
83289767	Suva-4	983774	0.005970884	0	37	0
84273541	Suva-5	531350	0.0544067	0	585	0
84804891	Suva-6	523204	6.692359	0	3267	0
85328095	Suva-7	1027508	0.1596932	0	2398	0
86355603	Suva-8	806278	0.002254805	0	8	0
87161881	Suva-9	418340	0.0174547	0	51	0
87580221	Suva-10	445542	0.04259082	0	84	0
88025763	Suva-11	635711	0.004306989	0	15	0
88661474	Suva-12	1016005	0.002350382	0	13	0
89677479	Suva-13	907341	0.002074193	0	17	0
90584820	Suva-14	750656	0.002508473	0	28	0
91335476	Suva-15	763749	0.02349463	0	247	0
92099225	Suva-16	918464	0.009396122	0	32	0
