DRR040669 count of reads mapped - Chi Squared P-value 0
Scer_mito
-964.351075607026
Spar_mito
-967.118548409443
Smik_mito
-964.747313323703
Sjur_mito
-966.983373563389
Skud_mito
-964.971228908388
Sarb_mito
-965.251897291034
Seub_mito_CD
-964.75969575235
Seub_mito_FM
-966.483948941327
Suva_mito
1629.13622190252
Unmapped
6095.53085989414
DRR040669 MQ60 - Chi Squared P-value 0
Scer_mito
-516.64238957059
Spar_mito
-516.795190719256
Smik_mito
-516.764243651172
Sjur_mito
-516.89190030702
Skud_mito
-516.733296583087
Sarb_mito
-516.886097731754
Seub_mito_CD
-514.311688505489
Seub_mito_FM
-516.835808746117
Suva_mito
4131.86061581448
