ERR3010135 count of reads mapped - Chi Squared P-value 0
Scer_mito
-453.10484486836
Spar_mito
-471.06796554995
Smik_mito
-471.243081713513
Sjur_mito
-469.434954578896
Skud_mito
-471.669268039292
Sarb_mito
-470.772588888519
Seub_mito_CD
-473.034330181761
Seub_mito_FM
-473.021671181986
Suva_mito
-473.190457845661
Unmapped
4226.53916284794
ERR3010135 MQ60 - Chi Squared P-value 0
Scer_mito
166.034559667051
Spar_mito
-10.8714036639489
Smik_mito
-26.1978513932826
Sjur_mito
9.66955961467545
Skud_mito
-27.7128795596306
Sarb_mito
-26.09215175377
Seub_mito_CD
-28.3823106098773
Seub_mito_FM
-28.0652116913394
Suva_mito
-28.3823106098773
