SRR10047092 count of reads mapped - Chi Squared P-value 0
Scer_mito
-767.669109178421
Spar_mito
-638.583037327284
Smik_mito
-768.54810120119
Sjur_mito
-769.860106993288
Skud_mito
-768.172131161953
Sarb_mito
-768.038596975603
Seub_mito_CD
1915.33347062123
Seub_mito_FM
-700.789224991731
Suva_mito
-593.987804880083
Unmapped
3860.31464208832
SRR10047092 MQ60 - Chi Squared P-value 0
Scer_mito
-446.84637705305
Spar_mito
-231.313538233064
Smik_mito
-446.826241951488
Sjur_mito
-446.960475961901
Skud_mito
-446.862037687598
Sarb_mito
-446.884410022667
Seub_mito_CD
3125.26158575365
Seub_mito_FM
-423.321866728133
Suva_mito
-236.24663811575
