SRR10208681 count of reads mapped - Chi Squared P-value 0
Scer_mito
642.877919504965
Spar_mito
-556.317671781162
Smik_mito
-699.292049083516
Sjur_mito
-725.912567227903
Skud_mito
-730.825812694648
Sarb_mito
-742.886444801601
Seub_mito_CD
-748.524420619189
Seub_mito_FM
-748.1527298694
Suva_mito
-749.034662759581
Unmapped
5058.06843933203
SRR10208681 MQ60 - Chi Squared P-value 0
Scer_mito
2356.27526536134
Spar_mito
-135.693958803634
Smik_mito
-299.213242283692
Sjur_mito
-312.122822065506
Skud_mito
-316.567154295874
Sarb_mito
-322.528988004067
Seub_mito_CD
-323.443815778885
Seub_mito_FM
-323.351096747654
Suva_mito
-323.354187382028
