SRR12703370 count of reads mapped - Chi Squared P-value 0
Scer_mito
-1557.32836964693
Spar_mito
-1520.88573362694
Smik_mito
-1557.58375036197
Sjur_mito
-1560.44478243267
Skud_mito
-1558.7633660457
Sarb_mito
-1558.99698499555
Seub_mito_CD
-614.479411085586
Seub_mito_FM
-1539.07536906702
Suva_mito
-1505.28574824458
Unmapped
12972.8435155069
SRR12703370 MQ60 - Chi Squared P-value 0
Scer_mito
-359.224584561132
Spar_mito
-200.445292381626
Smik_mito
-359.377353105493
Sjur_mito
-359.902321376117
Skud_mito
-359.710666293191
Sarb_mito
-359.771773710935
Seub_mito_CD
2524.50945427114
Seub_mito_FM
-342.261720917226
Suva_mito
-183.815741925418
