SRR10047256 count of reads mapped - Chi Squared P-value 0
Scer_mito
-616.504392057204
Spar_mito
-573.291294629755
Smik_mito
-617.991173352364
Sjur_mito
-619.955331993106
Skud_mito
-617.619879861357
Sarb_mito
-617.39806816543
Seub_mito_CD
169.683054187852
Seub_mito_FM
-599.556692623504
Suva_mito
-568.353573398692
Unmapped
4660.98735189356
SRR10047256 MQ60 - Chi Squared P-value 0
Scer_mito
-217.609350893949
Spar_mito
-91.8599669889933
Smik_mito
-217.430462476211
Sjur_mito
-217.971714611932
Skud_mito
-217.696501661565
Sarb_mito
-217.746957369133
Seub_mito_CD
1504.32010254658
Seub_mito_FM
-207.793422330878
Suva_mito
-116.211726213922
