SRR10047351 count of reads mapped - Chi Squared P-value 0
Scer_mito
-189.795956881401
Spar_mito
-192.762188887487
Smik_mito
-192.286764942261
Sjur_mito
-192.839703661165
Skud_mito
-192.477968050667
Sarb_mito
-192.090394182276
Seub_mito_CD
-189.72877741088
Seub_mito_FM
-192.374615019096
Suva_mito
198.739094703234
Unmapped
1335.617274332
SRR10047351 MQ60 - Chi Squared P-value 0
Scer_mito
-82.9613866614182
Spar_mito
-87.0266867393807
Smik_mito
-87.1984599821115
Sjur_mito
-87.1984599821115
Skud_mito
-87.2328146306576
Sarb_mito
-87.2786208287192
Seub_mito_CD
-83.7629951274953
Seub_mito_FM
-87.1870084325961
Suva_mito
689.84643238449
