SRR10047365 count of reads mapped - Chi Squared P-value 0
Scer_mito
-277.939266132723
Spar_mito
-287.7034684116
Smik_mito
-280.224283640457
Sjur_mito
-287.231901824267
Skud_mito
-283.844250678507
Sarb_mito
-287.367130477988
Seub_mito_CD
-210.05794936654
Seub_mito_FM
-234.690368751888
Suva_mito
460.027769028265
Unmapped
1689.03085025571
SRR10047365 MQ60 - Chi Squared P-value 0
Scer_mito
-137.576140915893
Spar_mito
-138.769891341487
Smik_mito
-138.964055567336
Sjur_mito
-138.906525426344
Skud_mito
-138.820230214855
Sarb_mito
-138.971246834961
Seub_mito_CD
-86.6547748699236
Seub_mito_FM
-101.662950401337
Suva_mito
1020.32581557214
