SRR10047019 count of reads mapped - Chi Squared P-value 0
Scer_mito
-683.237025727416
Spar_mito
-615.111056835516
Smik_mito
-683.709107765348
Sjur_mito
-683.883032726691
Skud_mito
-683.422643123135
Sarb_mito
-683.609722073152
Seub_mito_CD
25.5261919525857
Seub_mito_FM
-663.520658260847
Suva_mito
-644.746993315844
Unmapped
5315.71404787536
SRR10047019 MQ60 - Chi Squared P-value 0
Scer_mito
-187.389165972196
Spar_mito
18.1762834964212
Smik_mito
-187.533111901333
Sjur_mito
-187.549105893459
Skud_mito
-187.474467263537
Sarb_mito
-187.527780570624
Seub_mito_CD
1200.35621751972
Seub_mito_FM
-178.68843425549
Suva_mito
-102.370435159498
