SRR2968046 count of reads mapped - Chi Squared P-value 0
Scer_mito
-988.224226338672
Spar_mito
-909.370227859297
Smik_mito
-988.218155743308
Sjur_mito
-988.301120546615
Skud_mito
-988.161496853245
Sarb_mito
-988.179708639337
Seub_mito_CD
-755.909624123488
Seub_mito_FM
-982.045372024116
Suva_mito
-981.379630065875
Unmapped
8569.78956219395
SRR2968046 MQ60 - Chi Squared P-value 0
Scer_mito
-135.287991720631
Spar_mito
364.605609549932
Smik_mito
-135.332259473677
Sjur_mito
-135.442928856292
Skud_mito
-135.538842321225
Sarb_mito
-135.531464362384
Seub_mito_CD
550.699865395957
Seub_mito_FM
-129.872569931352
Suva_mito
-108.299418280328
