SRR2967906 count of reads mapped - Chi Squared P-value 0
Scer_mito
-575.580517899356
Spar_mito
-577.5296970499
Smik_mito
-575.549441526717
Sjur_mito
-576.105363303931
Skud_mito
-576.143345537157
Sarb_mito
-575.936169719562
Seub_mito_CD
-576.093278047905
Seub_mito_FM
-576.141619072011
Suva_mito
-557.571759954879
Unmapped
5166.65119211142
SRR2967906 MQ60 - Chi Squared P-value 0
Scer_mito
-31.942456787316
Spar_mito
-32.1760396523055
Smik_mito
-32.3220289429239
Sjur_mito
-33.0519753960162
Skud_mito
-32.789194672903
Sarb_mito
-33.2271625447583
Seub_mito_CD
-23.1247036339618
Seub_mito_FM
-21.4312278627879
Suva_mito
240.064789492973
