SRR8799655 count of reads mapped - Chi Squared P-value 0
Scer_mito
-560.266465679327
Spar_mito
-566.652450400043
Smik_mito
-559.857287030737
Sjur_mito
-567.295945026884
Skud_mito
-560.39761268208
Sarb_mito
-563.190169527365
Seub_mito_CD
-540.695835615182
Seub_mito_FM
-548.034821889236
Suva_mito
-315.331077457841
Unmapped
4781.72166530869
SRR8799655 MQ60 - Chi Squared P-value 0
Scer_mito
-119.275263989278
Spar_mito
-120.614276602705
Smik_mito
-119.801011273078
Sjur_mito
-120.729283821037
Skud_mito
-120.318543755568
Sarb_mito
-120.310328954259
Seub_mito_CD
-53.9840231823888
Seub_mito_FM
-78.6202123091956
Suva_mito
853.652943887509
