SRR8799686 count of reads mapped - Chi Squared P-value 0
Scer_mito
-1053.35186749231
Spar_mito
-1010.41808018034
Smik_mito
-1055.06679345415
Sjur_mito
-1055.00994507973
Skud_mito
-1055.04026421275
Sarb_mito
-1055.15206601579
Seub_mito_CD
-496.336335304412
Seub_mito_FM
-1040.87838667045
Suva_mito
-1020.99945760674
Unmapped
8842.25319601667
SRR8799686 MQ60 - Chi Squared P-value 0
Scer_mito
-204.338274817436
Spar_mito
-3.3518400073887
Smik_mito
-209.444705326559
Sjur_mito
-208.691375708967
Skud_mito
-209.711708228997
Sarb_mito
-209.630653776471
Seub_mito_CD
1350.12401572155
Seub_mito_FM
-202.626595496451
Suva_mito
-102.328862359284
