SRR8799676 count of reads mapped - Chi Squared P-value 0
Scer_mito
-1666.57008851005
Spar_mito
-1648.79006951016
Smik_mito
-1666.58568712302
Sjur_mito
-1666.74347309268
Skud_mito
-1666.5592894703
Sarb_mito
-1666.68287848076
Seub_mito_CD
-1572.65203970732
Seub_mito_FM
-1663.42876783643
Suva_mito
-1662.16348034585
Unmapped
14880.1757740766
SRR8799676 MQ60 - Chi Squared P-value 0
Scer_mito
-102.873198294102
Spar_mito
105.051151190276
Smik_mito
-102.63036410102
Sjur_mito
-102.921765132719
Skud_mito
-102.882911661826
Sarb_mito
-102.931478500442
Seub_mito_CD
571.632769777687
Seub_mito_FM
-99.1529784560888
Suva_mito
-63.2912248217655
