SRR8799631 count of reads mapped - Chi Squared P-value 0
Scer_mito
-1631.8930631045
Spar_mito
-1601.71397215959
Smik_mito
-1631.89735190887
Sjur_mito
-1632.08605930094
Skud_mito
-1631.94514144322
Sarb_mito
-1632.00763544969
Seub_mito_CD
-1429.48171571834
Seub_mito_FM
-1625.88322281625
Suva_mito
-1621.86093700807
Unmapped
14438.7690989095
SRR8799631 MQ60 - Chi Squared P-value 0
Scer_mito
-149.481340434201
Spar_mito
95.4430245346605
Smik_mito
-149.340917488248
Sjur_mito
-149.521461275901
Skud_mito
-149.521461275901
Sarb_mito
-149.548208503702
Seub_mito_CD
884.900826679295
Seub_mito_FM
-144.486295642464
Suva_mito
-88.4441665935387
