SRR800768 count of reads mapped - Chi Squared P-value 0
Scer_mito
-520.194592990018
Spar_mito
-915.638754424452
Smik_mito
-950.14718756393
Sjur_mito
-920.917037943403
Skud_mito
-964.364633061294
Sarb_mito
-948.853470345629
Seub_mito_CD
-965.224008767456
Seub_mito_FM
-966.565296722801
Suva_mito
-966.177491801247
Unmapped
8118.08247362023
SRR800768 MQ60 - Chi Squared P-value 0
Scer_mito
1342.15364603358
Spar_mito
-105.968134626236
Smik_mito
-185.840044506557
Sjur_mito
-67.6461819876733
Skud_mito
-200.39849494261
Sarb_mito
-181.080359202926
Seub_mito_CD
-200.423440882357
Seub_mito_FM
-200.388516566712
Suva_mito
-200.408473318509
