SRR9925223 count of reads mapped - Chi Squared P-value 0
Scer_mito
-2198.72462474872
Spar_mito
-2223.30222525432
Smik_mito
-2218.77964816417
Sjur_mito
-2222.96180655518
Skud_mito
-1902.48255935791
Sarb_mito
-2221.26286092064
Seub_mito_CD
-2210.98104700107
Seub_mito_FM
-2223.08682161246
Suva_mito
-2223.68176737066
Unmapped
19645.2633609851
SRR9925223 MQ60 - Chi Squared P-value 0
Scer_mito
-133.340746675014
Spar_mito
-257.354735512003
Smik_mito
-251.936818302157
Sjur_mito
-257.416876497922
Skud_mito
1902.46786065314
Sarb_mito
-257.409108874682
Seub_mito_CD
-230.067075070154
Seub_mito_FM
-257.463482237362
Suva_mito
-257.479017483842
