<?xml version="1.0" encoding="utf-8" standalone="no"?>
<!DOCTYPE svg PUBLIC "-//W3C//DTD SVG 1.1//EN"
  "http://www.w3.org/Graphics/SVG/1.1/DTD/svg11.dtd">
<svg height="324.986562pt" version="1.1" viewBox="0 0 341.17391 324.986562" width="341.17391pt" xmlns="http://www.w3.org/2000/svg" xmlns:xlink="http://www.w3.org/1999/xlink">
 <metadata>
  <rdf:RDF xmlns:cc="http://creativecommons.org/ns#" xmlns:dc="http://purl.org/dc/elements/1.1/" xmlns:rdf="http://www.w3.org/1999/02/22-rdf-syntax-ns#">
   <cc:Work>
    <dc:type rdf:resource="http://purl.org/dc/dcmitype/StillImage"/>
    <dc:date>2021-08-27T16:02:29.919615</dc:date>
    <dc:format>image/svg+xml</dc:format>
    <dc:creator>
     <cc:Agent>
      <dc:title>Matplotlib v3.4.2, https://matplotlib.org/</dc:title>
     </cc:Agent>
    </dc:creator>
   </cc:Work>
  </rdf:RDF>
 </metadata>
 <defs>
  <style type="text/css">*{stroke-linecap:butt;stroke-linejoin:round;}</style>
 </defs>
 <g id="figure_1">
  <g id="patch_1">
   <path d="M 0 324.986562 
L 341.17391 324.986562 
L 341.17391 0 
L 0 0 
z
" style="fill:#ffffff;"/>
  </g>
  <g id="axes_1">
   <g id="patch_2">
    <path d="M 52.71875 283.559062 
L 331.71875 283.559062 
L 331.71875 11.759062 
L 52.71875 11.759062 
z
" style="fill:#ffffff;"/>
   </g>
   <g id="PathCollection_1">
    <defs>
     <path d="M 0 3 
C 0.795609 3 1.55874 2.683901 2.12132 2.12132 
C 2.683901 1.55874 3 0.795609 3 0 
C 3 -0.795609 2.683901 -1.55874 2.12132 -2.12132 
C 1.55874 -2.683901 0.795609 -3 0 -3 
C -0.795609 -3 -1.55874 -2.683901 -2.12132 -2.12132 
C -2.683901 -1.55874 -3 -0.795609 -3 0 
C -3 0.795609 -2.683901 1.55874 -2.12132 2.12132 
C -1.55874 2.683901 -0.795609 3 0 3 
z
" id="m731e67e73f" style="stroke:#000000;"/>
    </defs>
    <g clip-path="url(#p2f62105e84)">
     <use style="fill:#f2cc8f;stroke:#000000;" x="307.600745" xlink:href="#m731e67e73f" y="209.644562"/>
    </g>
   </g>
   <g id="PathCollection_2">
    <defs>
     <path d="M 0 3 
C 0.795609 3 1.55874 2.683901 2.12132 2.12132 
C 2.683901 1.55874 3 0.795609 3 0 
C 3 -0.795609 2.683901 -1.55874 2.12132 -2.12132 
C 1.55874 -2.683901 0.795609 -3 0 -3 
C -0.795609 -3 -1.55874 -2.683901 -2.12132 -2.12132 
C -2.683901 -1.55874 -3 -0.795609 -3 0 
C -3 0.795609 -2.683901 1.55874 -2.12132 2.12132 
C -1.55874 2.683901 -0.795609 3 0 3 
z
" id="mf1f65a1e49" style="stroke:#000000;"/>
    </defs>
    <g clip-path="url(#p2f62105e84)">
     <use style="fill:#e07a5f;stroke:#000000;" x="279.144506" xlink:href="#mf1f65a1e49" y="171.932312"/>
    </g>
   </g>
   <g id="PathCollection_3">
    <g clip-path="url(#p2f62105e84)">
     <use style="fill:#e07a5f;stroke:#000000;" x="269.909651" xlink:href="#mf1f65a1e49" y="166.836062"/>
    </g>
   </g>
   <g id="PathCollection_4">
    <defs>
     <path d="M 0 3 
C 0.795609 3 1.55874 2.683901 2.12132 2.12132 
C 2.683901 1.55874 3 0.795609 3 0 
C 3 -0.795609 2.683901 -1.55874 2.12132 -2.12132 
C 1.55874 -2.683901 0.795609 -3 0 -3 
C -0.795609 -3 -1.55874 -2.683901 -2.12132 -2.12132 
C -2.683901 -1.55874 -3 -0.795609 -3 0 
C -3 0.795609 -2.683901 1.55874 -2.12132 2.12132 
C -1.55874 2.683901 -0.795609 3 0 3 
z
" id="m1e9038a48e" style="stroke:#000000;"/>
    </defs>
    <g clip-path="url(#p2f62105e84)">
     <use style="fill:#3d405b;stroke:#000000;" x="86.340065" xlink:href="#m1e9038a48e" y="37.127062"/>
    </g>
   </g>
   <g id="PathCollection_5">
    <g clip-path="url(#p2f62105e84)">
     <use style="fill:#3d405b;stroke:#000000;" x="89.77629" xlink:href="#m1e9038a48e" y="38.486062"/>
    </g>
   </g>
   <g id="PathCollection_6">
    <g clip-path="url(#p2f62105e84)">
     <use style="fill:#3d405b;stroke:#000000;" x="88.165559" xlink:href="#m1e9038a48e" y="38.146312"/>
    </g>
   </g>
   <g id="PathCollection_7">
    <g clip-path="url(#p2f62105e84)">
     <use style="fill:#3d405b;stroke:#000000;" x="287.735069" xlink:href="#m1e9038a48e" y="180.275062"/>
    </g>
   </g>
   <g id="PathCollection_8">
    <g clip-path="url(#p2f62105e84)">
     <use style="fill:#3d405b;stroke:#000000;" x="228.836023" xlink:href="#m1e9038a48e" y="148.451812"/>
    </g>
   </g>
   <g id="PathCollection_9">
    <defs>
     <path d="M 0 3 
C 0.795609 3 1.55874 2.683901 2.12132 2.12132 
C 2.683901 1.55874 3 0.795609 3 0 
C 3 -0.795609 2.683901 -1.55874 2.12132 -2.12132 
C 1.55874 -2.683901 0.795609 -3 0 -3 
C -0.795609 -3 -1.55874 -2.683901 -2.12132 -2.12132 
C -2.683901 -1.55874 -3 -0.795609 -3 0 
C -3 0.795609 -2.683901 1.55874 -2.12132 2.12132 
C -1.55874 2.683901 -0.795609 3 0 3 
z
" id="m7181f56eab" style="stroke:#000000;"/>
    </defs>
    <g clip-path="url(#p2f62105e84)">
     <use style="fill:#81b29a;stroke:#000000;" x="240.379592" xlink:href="#m7181f56eab" y="151.509562"/>
    </g>
   </g>
   <g id="PathCollection_10">
    <defs>
     <path d="M 0 3 
C 0.795609 3 1.55874 2.683901 2.12132 2.12132 
C 2.683901 1.55874 3 0.795609 3 0 
C 3 -0.795609 2.683901 -1.55874 2.12132 -2.12132 
C 1.55874 -2.683901 0.795609 -3 0 -3 
C -0.795609 -3 -1.55874 -2.683901 -2.12132 -2.12132 
C -2.683901 -1.55874 -3 -0.795609 -3 0 
C -3 0.795609 -2.683901 1.55874 -2.12132 2.12132 
C -1.55874 2.683901 -0.795609 3 0 3 
z
" id="m53f5d782b7" style="stroke:#000000;"/>
    </defs>
    <g clip-path="url(#p2f62105e84)">
     <use style="fill:#ffffff;stroke:#000000;" x="230.876282" xlink:href="#m53f5d782b7" y="146.149062"/>
    </g>
   </g>
   <g id="PathCollection_11">
    <g clip-path="url(#p2f62105e84)">
     <use style="fill:#f2cc8f;stroke:#000000;" x="234.419889" xlink:href="#m731e67e73f" y="150.075062"/>
    </g>
   </g>
   <g id="PathCollection_12">
    <g clip-path="url(#p2f62105e84)">
     <use style="fill:#81b29a;stroke:#000000;" x="250.741958" xlink:href="#m7181f56eab" y="156.756812"/>
    </g>
   </g>
   <g id="PathCollection_13">
    <g clip-path="url(#p2f62105e84)">
     <use style="fill:#81b29a;stroke:#000000;" x="240.755429" xlink:href="#m7181f56eab" y="149.697562"/>
    </g>
   </g>
   <g id="PathCollection_14">
    <g clip-path="url(#p2f62105e84)">
     <use style="fill:#81b29a;stroke:#000000;" x="272.057292" xlink:href="#m7181f56eab" y="179.746562"/>
    </g>
   </g>
   <g id="PathCollection_15">
    <g clip-path="url(#p2f62105e84)">
     <use style="fill:#e07a5f;stroke:#000000;" x="117.26609" xlink:href="#mf1f65a1e49" y="118.365062"/>
    </g>
   </g>
   <g id="PathCollection_16">
    <g clip-path="url(#p2f62105e84)">
     <use style="fill:#e07a5f;stroke:#000000;" x="264.433168" xlink:href="#mf1f65a1e49" y="172.687312"/>
    </g>
   </g>
   <g id="PathCollection_17">
    <g clip-path="url(#p2f62105e84)">
     <use style="fill:#e07a5f;stroke:#000000;" x="307.063835" xlink:href="#mf1f65a1e49" y="213.683812"/>
    </g>
   </g>
   <g id="PathCollection_18">
    <g clip-path="url(#p2f62105e84)">
     <use style="fill:#e07a5f;stroke:#000000;" x="276.835793" xlink:href="#mf1f65a1e49" y="185.862062"/>
    </g>
   </g>
   <g id="PathCollection_19">
    <g clip-path="url(#p2f62105e84)">
     <use style="fill:#e07a5f;stroke:#000000;" x="280.218327" xlink:href="#mf1f65a1e49" y="192.732562"/>
    </g>
   </g>
   <g id="PathCollection_20">
    <g clip-path="url(#p2f62105e84)">
     <use style="fill:#81b29a;stroke:#000000;" x="118.82313" xlink:href="#m7181f56eab" y="64.269312"/>
    </g>
   </g>
   <g id="PathCollection_21">
    <g clip-path="url(#p2f62105e84)">
     <use style="fill:#81b29a;stroke:#000000;" x="65.400568" xlink:href="#m7181f56eab" y="25.839812"/>
    </g>
   </g>
   <g id="PathCollection_22">
    <g clip-path="url(#p2f62105e84)">
     <use style="fill:#f2cc8f;stroke:#000000;" x="307.439672" xlink:href="#m731e67e73f" y="211.267812"/>
    </g>
   </g>
   <g id="PathCollection_23">
    <g clip-path="url(#p2f62105e84)">
     <use style="fill:#3d405b;stroke:#000000;" x="290.043783" xlink:href="#m1e9038a48e" y="179.822062"/>
    </g>
   </g>
   <g id="PathCollection_24">
    <g clip-path="url(#p2f62105e84)">
     <use style="fill:#3d405b;stroke:#000000;" x="296.433014" xlink:href="#m1e9038a48e" y="184.654062"/>
    </g>
   </g>
   <g id="PathCollection_25">
    <g clip-path="url(#p2f62105e84)">
     <use style="fill:#81b29a;stroke:#000000;" x="239.896373" xlink:href="#m7181f56eab" y="146.753062"/>
    </g>
   </g>
   <g id="PathCollection_26">
    <g clip-path="url(#p2f62105e84)">
     <use style="fill:#81b29a;stroke:#000000;" x="180.675181" xlink:href="#m7181f56eab" y="103.302812"/>
    </g>
   </g>
   <g id="PathCollection_27">
    <g clip-path="url(#p2f62105e84)">
     <use style="fill:#e07a5f;stroke:#000000;" x="288.969962" xlink:href="#mf1f65a1e49" y="181.407562"/>
    </g>
   </g>
   <g id="PathCollection_28">
    <g clip-path="url(#p2f62105e84)">
     <use style="fill:#81b29a;stroke:#000000;" x="198.983818" xlink:href="#m7181f56eab" y="120.441312"/>
    </g>
   </g>
   <g id="PathCollection_29">
    <g clip-path="url(#p2f62105e84)">
     <use style="fill:#f2cc8f;stroke:#000000;" x="283.117642" xlink:href="#m731e67e73f" y="219.119812"/>
    </g>
   </g>
   <g id="PathCollection_30">
    <g clip-path="url(#p2f62105e84)">
     <use style="fill:#3d405b;stroke:#000000;" x="93.803116" xlink:href="#m1e9038a48e" y="47.772562"/>
    </g>
   </g>
   <g id="PathCollection_31">
    <g clip-path="url(#p2f62105e84)">
     <use style="fill:#3d405b;stroke:#000000;" x="90.474273" xlink:href="#m1e9038a48e" y="50.339562"/>
    </g>
   </g>
   <g id="PathCollection_32">
    <g clip-path="url(#p2f62105e84)">
     <use style="fill:#3d405b;stroke:#000000;" x="90.796419" xlink:href="#m1e9038a48e" y="50.905812"/>
    </g>
   </g>
   <g id="PathCollection_33">
    <g clip-path="url(#p2f62105e84)">
     <use style="fill:#3d405b;stroke:#000000;" x="92.246077" xlink:href="#m1e9038a48e" y="38.863562"/>
    </g>
   </g>
   <g id="PathCollection_34">
    <g clip-path="url(#p2f62105e84)">
     <use style="fill:#3d405b;stroke:#000000;" x="87.467576" xlink:href="#m1e9038a48e" y="41.166312"/>
    </g>
   </g>
   <g id="PathCollection_35">
    <g clip-path="url(#p2f62105e84)">
     <use style="fill:#3d405b;stroke:#000000;" x="88.111868" xlink:href="#m1e9038a48e" y="47.395062"/>
    </g>
   </g>
   <g id="PathCollection_36">
    <g clip-path="url(#p2f62105e84)">
     <use style="fill:#3d405b;stroke:#000000;" x="264.057331" xlink:href="#m1e9038a48e" y="167.477812"/>
    </g>
   </g>
   <g id="PathCollection_37">
    <g clip-path="url(#p2f62105e84)">
     <use style="fill:#e07a5f;stroke:#000000;" x="269.802269" xlink:href="#mf1f65a1e49" y="197.111562"/>
    </g>
   </g>
   <g id="PathCollection_38">
    <g clip-path="url(#p2f62105e84)">
     <use style="fill:#3d405b;stroke:#000000;" x="88.809852" xlink:href="#m1e9038a48e" y="42.261062"/>
    </g>
   </g>
   <g id="PathCollection_39">
    <g clip-path="url(#p2f62105e84)">
     <use style="fill:#3d405b;stroke:#000000;" x="89.829981" xlink:href="#m1e9038a48e" y="37.693312"/>
    </g>
   </g>
   <g id="PathCollection_40">
    <g clip-path="url(#p2f62105e84)">
     <use style="fill:#3d405b;stroke:#000000;" x="88.702469" xlink:href="#m1e9038a48e" y="46.904312"/>
    </g>
   </g>
   <g id="PathCollection_41">
    <g clip-path="url(#p2f62105e84)">
     <use style="fill:#3d405b;stroke:#000000;" x="89.615217" xlink:href="#m1e9038a48e" y="36.523062"/>
    </g>
   </g>
   <g id="PathCollection_42">
    <g clip-path="url(#p2f62105e84)">
     <use style="fill:#3d405b;stroke:#000000;" x="86.017919" xlink:href="#m1e9038a48e" y="80.124312"/>
    </g>
   </g>
   <g id="PathCollection_43">
    <g clip-path="url(#p2f62105e84)">
     <use style="fill:#3d405b;stroke:#000000;" x="87.789722" xlink:href="#m1e9038a48e" y="55.586812"/>
    </g>
   </g>
   <g id="PathCollection_44">
    <g clip-path="url(#p2f62105e84)">
     <use style="fill:#3d405b;stroke:#000000;" x="83.601823" xlink:href="#m1e9038a48e" y="41.392812"/>
    </g>
   </g>
   <g id="PathCollection_45">
    <g clip-path="url(#p2f62105e84)">
     <use style="fill:#3d405b;stroke:#000000;" x="89.454144" xlink:href="#m1e9038a48e" y="49.546812"/>
    </g>
   </g>
   <g id="PathCollection_46">
    <g clip-path="url(#p2f62105e84)">
     <use style="fill:#3d405b;stroke:#000000;" x="90.259509" xlink:href="#m1e9038a48e" y="38.070812"/>
    </g>
   </g>
   <g id="PathCollection_47">
    <g clip-path="url(#p2f62105e84)">
     <use style="fill:#3d405b;stroke:#000000;" x="88.111868" xlink:href="#m1e9038a48e" y="43.355812"/>
    </g>
   </g>
   <g id="PathCollection_48">
    <g clip-path="url(#p2f62105e84)">
     <use style="fill:#3d405b;stroke:#000000;" x="88.541396" xlink:href="#m1e9038a48e" y="54.756312"/>
    </g>
   </g>
   <g id="PathCollection_49">
    <defs>
     <path d="M 0 3 
C 0.795609 3 1.55874 2.683901 2.12132 2.12132 
C 2.683901 1.55874 3 0.795609 3 0 
C 3 -0.795609 2.683901 -1.55874 2.12132 -2.12132 
C 1.55874 -2.683901 0.795609 -3 0 -3 
C -0.795609 -3 -1.55874 -2.683901 -2.12132 -2.12132 
C -2.683901 -1.55874 -3 -0.795609 -3 0 
C -3 0.795609 -2.683901 1.55874 -2.12132 2.12132 
C -1.55874 2.683901 -0.795609 3 0 3 
z
" id="mf57c888834" style="stroke:#000000;"/>
    </defs>
    <g clip-path="url(#p2f62105e84)">
     <use style="fill:#cd853f;stroke:#000000;" x="294.177991" xlink:href="#mf57c888834" y="209.116062"/>
    </g>
   </g>
   <g id="PathCollection_50">
    <g clip-path="url(#p2f62105e84)">
     <use style="fill:#e07a5f;stroke:#000000;" x="158.822938" xlink:href="#mf1f65a1e49" y="111.532312"/>
    </g>
   </g>
   <g id="PathCollection_51">
    <g clip-path="url(#p2f62105e84)">
     <use style="fill:#3d405b;stroke:#000000;" x="79.682379" xlink:href="#m1e9038a48e" y="37.806562"/>
    </g>
   </g>
   <g id="PathCollection_52">
    <g clip-path="url(#p2f62105e84)">
     <use style="fill:#3d405b;stroke:#000000;" x="82.259547" xlink:href="#m1e9038a48e" y="42.714062"/>
    </g>
   </g>
   <g id="PathCollection_53">
    <g clip-path="url(#p2f62105e84)">
     <use style="fill:#3d405b;stroke:#000000;" x="88.809852" xlink:href="#m1e9038a48e" y="43.808812"/>
    </g>
   </g>
   <g id="PathCollection_54">
    <g clip-path="url(#p2f62105e84)">
     <use style="fill:#3d405b;stroke:#000000;" x="89.078307" xlink:href="#m1e9038a48e" y="44.714812"/>
    </g>
   </g>
   <g id="PathCollection_55">
    <g clip-path="url(#p2f62105e84)">
     <use style="fill:#e07a5f;stroke:#000000;" x="270.929781" xlink:href="#mf1f65a1e49" y="167.515562"/>
    </g>
   </g>
   <g id="PathCollection_56">
    <g clip-path="url(#p2f62105e84)">
     <use style="fill:#e07a5f;stroke:#000000;" x="282.258585" xlink:href="#mf1f65a1e49" y="175.518562"/>
    </g>
   </g>
   <g id="PathCollection_57">
    <g clip-path="url(#p2f62105e84)">
     <use style="fill:#e07a5f;stroke:#000000;" x="162.635" xlink:href="#mf1f65a1e49" y="94.960062"/>
    </g>
   </g>
   <g id="PathCollection_58">
    <g clip-path="url(#p2f62105e84)">
     <use style="fill:#e07a5f;stroke:#000000;" x="271.520382" xlink:href="#mf1f65a1e49" y="168.346062"/>
    </g>
   </g>
   <g id="PathCollection_59">
    <g clip-path="url(#p2f62105e84)">
     <use style="fill:#e07a5f;stroke:#000000;" x="253.211745" xlink:href="#mf1f65a1e49" y="155.662062"/>
    </g>
   </g>
   <g id="PathCollection_60">
    <g clip-path="url(#p2f62105e84)">
     <use style="fill:#e07a5f;stroke:#000000;" x="275.225062" xlink:href="#mf1f65a1e49" y="171.592562"/>
    </g>
   </g>
   <g id="PathCollection_61">
    <g clip-path="url(#p2f62105e84)">
     <use style="fill:#e07a5f;stroke:#000000;" x="287.896142" xlink:href="#mf1f65a1e49" y="177.896812"/>
    </g>
   </g>
   <g id="PathCollection_62">
    <g clip-path="url(#p2f62105e84)">
     <use style="fill:#e07a5f;stroke:#000000;" x="289.990092" xlink:href="#mf1f65a1e49" y="179.557812"/>
    </g>
   </g>
   <g id="PathCollection_63">
    <g clip-path="url(#p2f62105e84)">
     <use style="fill:#e07a5f;stroke:#000000;" x="299.869239" xlink:href="#mf1f65a1e49" y="186.730312"/>
    </g>
   </g>
   <g id="PathCollection_64">
    <g clip-path="url(#p2f62105e84)">
     <use style="fill:#e07a5f;stroke:#000000;" x="319.036932" xlink:href="#mf1f65a1e49" y="200.320312"/>
    </g>
   </g>
   <g id="PathCollection_65">
    <g clip-path="url(#p2f62105e84)">
     <use style="fill:#e07a5f;stroke:#000000;" x="248.916464" xlink:href="#mf1f65a1e49" y="150.641312"/>
    </g>
   </g>
   <g id="PathCollection_66">
    <g clip-path="url(#p2f62105e84)">
     <use style="fill:#e07a5f;stroke:#000000;" x="298.634345" xlink:href="#mf1f65a1e49" y="186.843562"/>
    </g>
   </g>
   <g id="PathCollection_67">
    <g clip-path="url(#p2f62105e84)">
     <use style="fill:#e07a5f;stroke:#000000;" x="264.594241" xlink:href="#mf1f65a1e49" y="161.890812"/>
    </g>
   </g>
   <g id="PathCollection_68">
    <g clip-path="url(#p2f62105e84)">
     <use style="fill:#e07a5f;stroke:#000000;" x="294.875974" xlink:href="#mf1f65a1e49" y="183.257312"/>
    </g>
   </g>
   <g id="PathCollection_69">
    <g clip-path="url(#p2f62105e84)">
     <use style="fill:#e07a5f;stroke:#000000;" x="282.151203" xlink:href="#mf1f65a1e49" y="173.744312"/>
    </g>
   </g>
   <g id="PathCollection_70">
    <g clip-path="url(#p2f62105e84)">
     <use style="fill:#e07a5f;stroke:#000000;" x="277.050557" xlink:href="#mf1f65a1e49" y="170.460062"/>
    </g>
   </g>
   <g id="PathCollection_71">
    <g clip-path="url(#p2f62105e84)">
     <use style="fill:#e07a5f;stroke:#000000;" x="268.513685" xlink:href="#mf1f65a1e49" y="164.118062"/>
    </g>
   </g>
   <g id="PathCollection_72">
    <g clip-path="url(#p2f62105e84)">
     <use style="fill:#e07a5f;stroke:#000000;" x="278.392832" xlink:href="#mf1f65a1e49" y="171.177312"/>
    </g>
   </g>
   <g id="PathCollection_73">
    <g clip-path="url(#p2f62105e84)">
     <use style="fill:#e07a5f;stroke:#000000;" x="254.392948" xlink:href="#mf1f65a1e49" y="154.340812"/>
    </g>
   </g>
   <g id="PathCollection_74">
    <g clip-path="url(#p2f62105e84)">
     <use style="fill:#e07a5f;stroke:#000000;" x="293.372626" xlink:href="#mf1f65a1e49" y="181.860562"/>
    </g>
   </g>
   <g id="PathCollection_75">
    <g clip-path="url(#p2f62105e84)">
     <use style="fill:#e07a5f;stroke:#000000;" x="259.654667" xlink:href="#mf1f65a1e49" y="158.191312"/>
    </g>
   </g>
   <g id="PathCollection_76">
    <g clip-path="url(#p2f62105e84)">
     <use style="fill:#e07a5f;stroke:#000000;" x="291.332367" xlink:href="#mf1f65a1e49" y="180.501562"/>
    </g>
   </g>
   <g id="PathCollection_77">
    <g clip-path="url(#p2f62105e84)">
     <use style="fill:#e07a5f;stroke:#000000;" x="286.016956" xlink:href="#mf1f65a1e49" y="177.141812"/>
    </g>
   </g>
   <g id="PathCollection_78">
    <g clip-path="url(#p2f62105e84)">
     <use style="fill:#e07a5f;stroke:#000000;" x="301.265205" xlink:href="#mf1f65a1e49" y="187.485312"/>
    </g>
   </g>
   <g id="PathCollection_79">
    <g clip-path="url(#p2f62105e84)">
     <use style="fill:#e07a5f;stroke:#000000;" x="269.909651" xlink:href="#mf1f65a1e49" y="165.439312"/>
    </g>
   </g>
   <g id="PathCollection_80">
    <g clip-path="url(#p2f62105e84)">
     <use style="fill:#e07a5f;stroke:#000000;" x="270.231797" xlink:href="#mf1f65a1e49" y="165.401562"/>
    </g>
   </g>
   <g id="PathCollection_81">
    <g clip-path="url(#p2f62105e84)">
     <use style="fill:#e07a5f;stroke:#000000;" x="187.225485" xlink:href="#mf1f65a1e49" y="113.797312"/>
    </g>
   </g>
   <g id="PathCollection_82">
    <g clip-path="url(#p2f62105e84)">
     <use style="fill:#e07a5f;stroke:#000000;" x="172.728911" xlink:href="#mf1f65a1e49" y="109.720312"/>
    </g>
   </g>
   <g id="PathCollection_83">
    <g clip-path="url(#p2f62105e84)">
     <use style="fill:#e07a5f;stroke:#000000;" x="115.279523" xlink:href="#mf1f65a1e49" y="62.042062"/>
    </g>
   </g>
   <g id="PathCollection_84">
    <g clip-path="url(#p2f62105e84)">
     <use style="fill:#e07a5f;stroke:#000000;" x="159.413539" xlink:href="#mf1f65a1e49" y="92.770562"/>
    </g>
   </g>
   <g id="PathCollection_85">
    <g clip-path="url(#p2f62105e84)">
     <use style="fill:#e07a5f;stroke:#000000;" x="177.292647" xlink:href="#mf1f65a1e49" y="107.870562"/>
    </g>
   </g>
   <g id="PathCollection_86">
    <g clip-path="url(#p2f62105e84)">
     <use style="fill:#e07a5f;stroke:#000000;" x="114.044629" xlink:href="#mf1f65a1e49" y="61.891062"/>
    </g>
   </g>
   <g id="PathCollection_87">
    <g clip-path="url(#p2f62105e84)">
     <use style="fill:#e07a5f;stroke:#000000;" x="126.7694" xlink:href="#mf1f65a1e49" y="68.837062"/>
    </g>
   </g>
   <g id="PathCollection_88">
    <g clip-path="url(#p2f62105e84)">
     <use style="fill:#e07a5f;stroke:#000000;" x="258.20501" xlink:href="#mf1f65a1e49" y="170.044812"/>
    </g>
   </g>
   <g id="PathCollection_89">
    <g clip-path="url(#p2f62105e84)">
     <use style="fill:#81b29a;stroke:#000000;" x="188.728834" xlink:href="#m7181f56eab" y="120.441312"/>
    </g>
   </g>
   <g id="PathCollection_90">
    <g clip-path="url(#p2f62105e84)">
     <use style="fill:#81b29a;stroke:#000000;" x="190.661711" xlink:href="#m7181f56eab" y="123.687812"/>
    </g>
   </g>
   <g id="PathCollection_91">
    <g clip-path="url(#p2f62105e84)">
     <use style="fill:#81b29a;stroke:#000000;" x="243.601053" xlink:href="#m7181f56eab" y="162.306062"/>
    </g>
   </g>
   <g id="PathCollection_92">
    <g clip-path="url(#p2f62105e84)">
     <use style="fill:#81b29a;stroke:#000000;" x="156.782679" xlink:href="#m7181f56eab" y="85.824562"/>
    </g>
   </g>
   <g id="PathCollection_93">
    <g clip-path="url(#p2f62105e84)">
     <use style="fill:#81b29a;stroke:#000000;" x="234.742035" xlink:href="#m7181f56eab" y="141.770062"/>
    </g>
   </g>
   <g id="PathCollection_94">
    <g clip-path="url(#p2f62105e84)">
     <use style="fill:#81b29a;stroke:#000000;" x="258.473465" xlink:href="#m7181f56eab" y="158.191312"/>
    </g>
   </g>
   <g id="PathCollection_95">
    <g clip-path="url(#p2f62105e84)">
     <use style="fill:#81b29a;stroke:#000000;" x="173.856422" xlink:href="#m7181f56eab" y="100.282812"/>
    </g>
   </g>
   <g id="PathCollection_96">
    <g clip-path="url(#p2f62105e84)">
     <use style="fill:#81b29a;stroke:#000000;" x="184.379862" xlink:href="#m7181f56eab" y="104.397562"/>
    </g>
   </g>
   <g id="PathCollection_97">
    <g clip-path="url(#p2f62105e84)">
     <use style="fill:#81b29a;stroke:#000000;" x="224.755506" xlink:href="#m7181f56eab" y="134.559812"/>
    </g>
   </g>
   <g id="PathCollection_98">
    <g clip-path="url(#p2f62105e84)">
     <use style="fill:#cd853f;stroke:#000000;" x="124.353305" xlink:href="#mf57c888834" y="79.709062"/>
    </g>
   </g>
   <g id="PathCollection_99">
    <g clip-path="url(#p2f62105e84)">
     <use style="fill:#cd853f;stroke:#000000;" x="153.561218" xlink:href="#mf57c888834" y="98.621812"/>
    </g>
   </g>
   <g id="PathCollection_100">
    <g clip-path="url(#p2f62105e84)">
     <use style="fill:#cd853f;stroke:#000000;" x="162.473927" xlink:href="#mf57c888834" y="104.963812"/>
    </g>
   </g>
   <g id="PathCollection_101">
    <g clip-path="url(#p2f62105e84)">
     <use style="fill:#cd853f;stroke:#000000;" x="129.507642" xlink:href="#mf57c888834" y="84.843062"/>
    </g>
   </g>
   <g id="PathCollection_102">
    <g clip-path="url(#p2f62105e84)">
     <use style="fill:#cd853f;stroke:#000000;" x="183.144968" xlink:href="#mf57c888834" y="123.121562"/>
    </g>
   </g>
   <g id="PathCollection_103">
    <g clip-path="url(#p2f62105e84)">
     <use style="fill:#cd853f;stroke:#000000;" x="182.822822" xlink:href="#mf57c888834" y="123.121562"/>
    </g>
   </g>
   <g id="PathCollection_104">
    <g clip-path="url(#p2f62105e84)">
     <use style="fill:#cd853f;stroke:#000000;" x="120.541242" xlink:href="#mf57c888834" y="81.521062"/>
    </g>
   </g>
   <g id="PathCollection_105">
    <g clip-path="url(#p2f62105e84)">
     <use style="fill:#cd853f;stroke:#000000;" x="96.219212" xlink:href="#mf57c888834" y="60.683062"/>
    </g>
   </g>
   <g id="PathCollection_106">
    <g clip-path="url(#p2f62105e84)">
     <use style="fill:#cd853f;stroke:#000000;" x="128.380131" xlink:href="#mf57c888834" y="82.766812"/>
    </g>
   </g>
   <g id="PathCollection_107">
    <g clip-path="url(#p2f62105e84)">
     <use style="fill:#cd853f;stroke:#000000;" x="308.781948" xlink:href="#mf57c888834" y="207.228562"/>
    </g>
   </g>
   <g id="PathCollection_108">
    <g clip-path="url(#p2f62105e84)">
     <use style="fill:#cd853f;stroke:#000000;" x="268.835831" xlink:href="#mf57c888834" y="177.028562"/>
    </g>
   </g>
   <g id="PathCollection_109">
    <g clip-path="url(#p2f62105e84)">
     <use style="fill:#cd853f;stroke:#000000;" x="267.923084" xlink:href="#mf57c888834" y="178.840562"/>
    </g>
   </g>
   <g id="PathCollection_110">
    <g clip-path="url(#p2f62105e84)">
     <use style="fill:#cd853f;stroke:#000000;" x="302.768554" xlink:href="#mf57c888834" y="201.905812"/>
    </g>
   </g>
   <g id="PathCollection_111">
    <g clip-path="url(#p2f62105e84)">
     <use style="fill:#81b29a;stroke:#000000;" x="228.406495" xlink:href="#m7181f56eab" y="153.283812"/>
    </g>
   </g>
   <g id="PathCollection_112">
    <g clip-path="url(#p2f62105e84)">
     <use style="fill:#81b29a;stroke:#000000;" x="107.333252" xlink:href="#m7181f56eab" y="105.907562"/>
    </g>
   </g>
   <g id="PathCollection_113">
    <g clip-path="url(#p2f62105e84)">
     <use style="fill:#e07a5f;stroke:#000000;" x="266.419735" xlink:href="#mf1f65a1e49" y="189.825812"/>
    </g>
   </g>
   <g id="PathCollection_114">
    <g clip-path="url(#p2f62105e84)">
     <use style="fill:#e07a5f;stroke:#000000;" x="264.755314" xlink:href="#mf1f65a1e49" y="190.165562"/>
    </g>
   </g>
   <g id="PathCollection_115">
    <g clip-path="url(#p2f62105e84)">
     <use style="fill:#e07a5f;stroke:#000000;" x="256.057369" xlink:href="#mf1f65a1e49" y="187.938312"/>
    </g>
   </g>
   <g id="PathCollection_116">
    <g clip-path="url(#p2f62105e84)">
     <use style="fill:#e07a5f;stroke:#000000;" x="255.359386" xlink:href="#mf1f65a1e49" y="174.348312"/>
    </g>
   </g>
   <g id="PathCollection_117">
    <g clip-path="url(#p2f62105e84)">
     <use style="fill:#e07a5f;stroke:#000000;" x="274.312315" xlink:href="#mf1f65a1e49" y="200.924312"/>
    </g>
   </g>
   <g id="PathCollection_118">
    <g clip-path="url(#p2f62105e84)">
     <use style="fill:#81b29a;stroke:#000000;" x="166.33968" xlink:href="#m7181f56eab" y="133.729312"/>
    </g>
   </g>
   <g id="PathCollection_119">
    <g clip-path="url(#p2f62105e84)">
     <use style="fill:#e07a5f;stroke:#000000;" x="266.956645" xlink:href="#mf1f65a1e49" y="193.185562"/>
    </g>
   </g>
   <g id="PathCollection_120">
    <g clip-path="url(#p2f62105e84)">
     <use style="fill:#e07a5f;stroke:#000000;" x="282.795495" xlink:href="#mf1f65a1e49" y="197.715562"/>
    </g>
   </g>
   <g id="PathCollection_121">
    <g clip-path="url(#p2f62105e84)">
     <use style="fill:#e07a5f;stroke:#000000;" x="263.788875" xlink:href="#mf1f65a1e49" y="198.319562"/>
    </g>
   </g>
   <g id="PathCollection_122">
    <g clip-path="url(#p2f62105e84)">
     <use style="fill:#cd853f;stroke:#000000;" x="279.735107" xlink:href="#mf57c888834" y="176.424562"/>
    </g>
   </g>
   <g id="PathCollection_123">
    <g clip-path="url(#p2f62105e84)">
     <use style="fill:#e07a5f;stroke:#000000;" x="264.486859" xlink:href="#mf1f65a1e49" y="175.405312"/>
    </g>
   </g>
   <g id="PathCollection_124">
    <g clip-path="url(#p2f62105e84)">
     <use style="fill:#e07a5f;stroke:#000000;" x="281.614293" xlink:href="#mf1f65a1e49" y="175.443062"/>
    </g>
   </g>
   <g id="PathCollection_125">
    <g clip-path="url(#p2f62105e84)">
     <use style="fill:#e07a5f;stroke:#000000;" x="287.037086" xlink:href="#mf1f65a1e49" y="179.973062"/>
    </g>
   </g>
   <g id="PathCollection_126">
    <g clip-path="url(#p2f62105e84)">
     <use style="fill:#e07a5f;stroke:#000000;" x="256.003678" xlink:href="#mf1f65a1e49" y="157.549562"/>
    </g>
   </g>
   <g id="PathCollection_127">
    <g clip-path="url(#p2f62105e84)">
     <use style="fill:#81b29a;stroke:#000000;" x="172.621529" xlink:href="#m7181f56eab" y="101.264312"/>
    </g>
   </g>
   <g id="PathCollection_128">
    <g clip-path="url(#p2f62105e84)">
     <use style="fill:#e07a5f;stroke:#000000;" x="292.513569" xlink:href="#mf1f65a1e49" y="183.295062"/>
    </g>
   </g>
   <g id="PathCollection_129">
    <g clip-path="url(#p2f62105e84)">
     <use style="fill:#e07a5f;stroke:#000000;" x="288.808889" xlink:href="#mf1f65a1e49" y="201.075312"/>
    </g>
   </g>
   <g id="PathCollection_130">
    <g clip-path="url(#p2f62105e84)">
     <use style="fill:#e07a5f;stroke:#000000;" x="268.084157" xlink:href="#mf1f65a1e49" y="195.412812"/>
    </g>
   </g>
   <g id="PathCollection_131">
    <g clip-path="url(#p2f62105e84)">
     <use style="fill:#e07a5f;stroke:#000000;" x="164.728949" xlink:href="#mf1f65a1e49" y="110.475312"/>
    </g>
   </g>
   <g id="PathCollection_132">
    <g clip-path="url(#p2f62105e84)">
     <use style="fill:#cd853f;stroke:#000000;" x="94.930627" xlink:href="#mf57c888834" y="56.115312"/>
    </g>
   </g>
   <g id="PathCollection_133">
    <g clip-path="url(#p2f62105e84)">
     <use style="fill:#cd853f;stroke:#000000;" x="81.185727" xlink:href="#mf57c888834" y="69.101312"/>
    </g>
   </g>
   <g id="PathCollection_134">
    <g clip-path="url(#p2f62105e84)">
     <use style="fill:#cd853f;stroke:#000000;" x="298.9028" xlink:href="#mf57c888834" y="213.268562"/>
    </g>
   </g>
   <g id="PathCollection_135">
    <g clip-path="url(#p2f62105e84)">
     <use style="fill:#cd853f;stroke:#000000;" x="246.60775" xlink:href="#mf57c888834" y="193.298812"/>
    </g>
   </g>
   <g id="PathCollection_136">
    <g clip-path="url(#p2f62105e84)">
     <use style="fill:#cd853f;stroke:#000000;" x="142.447177" xlink:href="#mf57c888834" y="93.223562"/>
    </g>
   </g>
   <g id="PathCollection_137">
    <g clip-path="url(#p2f62105e84)">
     <use style="fill:#cd853f;stroke:#000000;" x="186.044283" xlink:href="#mf57c888834" y="130.709312"/>
    </g>
   </g>
   <g id="PathCollection_138">
    <g clip-path="url(#p2f62105e84)">
     <use style="fill:#cd853f;stroke:#000000;" x="284.567299" xlink:href="#mf57c888834" y="212.853312"/>
    </g>
   </g>
   <g id="PathCollection_139">
    <g clip-path="url(#p2f62105e84)">
     <use style="fill:#cd853f;stroke:#000000;" x="276.943175" xlink:href="#mf57c888834" y="201.943562"/>
    </g>
   </g>
   <g id="PathCollection_140">
    <g clip-path="url(#p2f62105e84)">
     <use style="fill:#cd853f;stroke:#000000;" x="279.35927" xlink:href="#mf57c888834" y="210.475062"/>
    </g>
   </g>
   <g id="PathCollection_141">
    <g clip-path="url(#p2f62105e84)">
     <use style="fill:#cd853f;stroke:#000000;" x="218.581039" xlink:href="#mf57c888834" y="178.047812"/>
    </g>
   </g>
   <g id="PathCollection_142">
    <g clip-path="url(#p2f62105e84)">
     <use style="fill:#cd853f;stroke:#000000;" x="76.997828" xlink:href="#mf57c888834" y="46.828812"/>
    </g>
   </g>
   <g id="PathCollection_143">
    <g clip-path="url(#p2f62105e84)">
     <use style="fill:#e07a5f;stroke:#000000;" x="272.701584" xlink:href="#mf1f65a1e49" y="204.133062"/>
    </g>
   </g>
   <g id="PathCollection_144">
    <g clip-path="url(#p2f62105e84)">
     <use style="fill:#e07a5f;stroke:#000000;" x="263.627802" xlink:href="#mf1f65a1e49" y="194.544562"/>
    </g>
   </g>
   <g id="PathCollection_145">
    <g clip-path="url(#p2f62105e84)">
     <use style="fill:#81b29a;stroke:#000000;" x="163.064528" xlink:href="#m7181f56eab" y="129.388062"/>
    </g>
   </g>
   <g id="PathCollection_146">
    <g clip-path="url(#p2f62105e84)">
     <use style="fill:#e07a5f;stroke:#000000;" x="286.929704" xlink:href="#mf1f65a1e49" y="198.734812"/>
    </g>
   </g>
   <g id="PathCollection_147">
    <g clip-path="url(#p2f62105e84)">
     <use style="fill:#e07a5f;stroke:#000000;" x="270.178106" xlink:href="#mf1f65a1e49" y="194.091562"/>
    </g>
   </g>
   <g id="PathCollection_148">
    <g clip-path="url(#p2f62105e84)">
     <use style="fill:#e07a5f;stroke:#000000;" x="249.507065" xlink:href="#mf1f65a1e49" y="196.545312"/>
    </g>
   </g>
   <g id="PathCollection_149">
    <g clip-path="url(#p2f62105e84)">
     <use style="fill:#e07a5f;stroke:#000000;" x="244.99702" xlink:href="#mf1f65a1e49" y="177.934562"/>
    </g>
   </g>
   <g id="PathCollection_150">
    <g clip-path="url(#p2f62105e84)">
     <use style="fill:#e07a5f;stroke:#000000;" x="175.735608" xlink:href="#mf1f65a1e49" y="117.308062"/>
    </g>
   </g>
   <g id="PathCollection_151">
    <g clip-path="url(#p2f62105e84)">
     <use style="fill:#cd853f;stroke:#000000;" x="271.359309" xlink:href="#mf57c888834" y="195.488312"/>
    </g>
   </g>
   <g id="PathCollection_152">
    <g clip-path="url(#p2f62105e84)">
     <use style="fill:#cd853f;stroke:#000000;" x="223.520613" xlink:href="#mf57c888834" y="151.056562"/>
    </g>
   </g>
   <g id="PathCollection_153">
    <g clip-path="url(#p2f62105e84)">
     <use style="fill:#81b29a;stroke:#000000;" x="176.91681" xlink:href="#m7181f56eab" y="148.036562"/>
    </g>
   </g>
   <g id="PathCollection_154">
    <g clip-path="url(#p2f62105e84)">
     <use style="fill:#e07a5f;stroke:#000000;" x="128.004294" xlink:href="#mf1f65a1e49" y="77.255312"/>
    </g>
   </g>
   <g id="PathCollection_155">
    <g clip-path="url(#p2f62105e84)">
     <use style="fill:#e07a5f;stroke:#000000;" x="311.466498" xlink:href="#mf1f65a1e49" y="204.699312"/>
    </g>
   </g>
   <g id="PathCollection_156">
    <g clip-path="url(#p2f62105e84)">
     <use style="fill:#e07a5f;stroke:#000000;" x="229.480316" xlink:href="#mf1f65a1e49" y="146.035812"/>
    </g>
   </g>
   <g id="PathCollection_157">
    <g clip-path="url(#p2f62105e84)">
     <use style="fill:#e07a5f;stroke:#000000;" x="179.118142" xlink:href="#mf1f65a1e49" y="106.322812"/>
    </g>
   </g>
   <g id="PathCollection_158">
    <g clip-path="url(#p2f62105e84)">
     <use style="fill:#e07a5f;stroke:#000000;" x="181.695311" xlink:href="#mf1f65a1e49" y="111.268062"/>
    </g>
   </g>
   <g id="PathCollection_159">
    <g clip-path="url(#p2f62105e84)">
     <use style="fill:#e07a5f;stroke:#000000;" x="204.138156" xlink:href="#mf1f65a1e49" y="127.915812"/>
    </g>
   </g>
   <g id="PathCollection_160">
    <g clip-path="url(#p2f62105e84)">
     <use style="fill:#e07a5f;stroke:#000000;" x="166.124916" xlink:href="#mf1f65a1e49" y="98.546312"/>
    </g>
   </g>
   <g id="PathCollection_161">
    <g clip-path="url(#p2f62105e84)">
     <use style="fill:#e07a5f;stroke:#000000;" x="171.332944" xlink:href="#mf1f65a1e49" y="101.490812"/>
    </g>
   </g>
   <g id="PathCollection_162">
    <g clip-path="url(#p2f62105e84)">
     <use style="fill:#f2cc8f;stroke:#000000;" x="303.734992" xlink:href="#m731e67e73f" y="207.455062"/>
    </g>
   </g>
   <g id="PathCollection_163">
    <g clip-path="url(#p2f62105e84)">
     <use style="fill:#e07a5f;stroke:#000000;" x="279.412961" xlink:href="#mf1f65a1e49" y="212.966562"/>
    </g>
   </g>
   <g id="PathCollection_164">
    <g clip-path="url(#p2f62105e84)">
     <use style="fill:#81b29a;stroke:#000000;" x="309.802077" xlink:href="#m7181f56eab" y="193.865062"/>
    </g>
   </g>
   <g id="PathCollection_165">
    <g clip-path="url(#p2f62105e84)">
     <use style="fill:#81b29a;stroke:#000000;" x="114.205703" xlink:href="#m7181f56eab" y="56.228562"/>
    </g>
   </g>
   <g id="PathCollection_166">
    <g clip-path="url(#p2f62105e84)">
     <use style="fill:#81b29a;stroke:#000000;" x="225.560871" xlink:href="#m7181f56eab" y="135.390312"/>
    </g>
   </g>
   <g id="PathCollection_167">
    <g clip-path="url(#p2f62105e84)">
     <use style="fill:#81b29a;stroke:#000000;" x="224.648124" xlink:href="#m7181f56eab" y="132.936562"/>
    </g>
   </g>
   <g id="PathCollection_168">
    <g clip-path="url(#p2f62105e84)">
     <use style="fill:#81b29a;stroke:#000000;" x="245.211784" xlink:href="#m7181f56eab" y="149.924062"/>
    </g>
   </g>
   <g id="PathCollection_169">
    <g clip-path="url(#p2f62105e84)">
     <use style="fill:#81b29a;stroke:#000000;" x="226.849456" xlink:href="#m7181f56eab" y="136.409562"/>
    </g>
   </g>
   <g id="PathCollection_170">
    <g clip-path="url(#p2f62105e84)">
     <use style="fill:#81b29a;stroke:#000000;" x="173.963804" xlink:href="#m7181f56eab" y="100.282812"/>
    </g>
   </g>
   <g id="matplotlib.axis_1">
    <g id="xtick_1">
     <g id="line2d_1">
      <defs>
       <path d="M 0 0 
L 0 3.5 
" id="m2b907d5dbe" style="stroke:#000000;stroke-width:0.8;"/>
      </defs>
      <g>
       <use style="stroke:#000000;stroke-width:0.8;" x="57.883826" xlink:href="#m2b907d5dbe" y="283.559062"/>
      </g>
     </g>
     <g id="text_1">
      <!-- 0 -->
      <g transform="translate(54.066326 299.677187)scale(0.12 -0.12)">
       <defs>
        <path d="M 2034 4250 
Q 1547 4250 1301 3770 
Q 1056 3291 1056 2328 
Q 1056 1369 1301 889 
Q 1547 409 2034 409 
Q 2525 409 2770 889 
Q 3016 1369 3016 2328 
Q 3016 3291 2770 3770 
Q 2525 4250 2034 4250 
z
M 2034 4750 
Q 2819 4750 3233 4129 
Q 3647 3509 3647 2328 
Q 3647 1150 3233 529 
Q 2819 -91 2034 -91 
Q 1250 -91 836 529 
Q 422 1150 422 2328 
Q 422 3509 836 4129 
Q 1250 4750 2034 4750 
z
" id="DejaVuSans-30" transform="scale(0.015625)"/>
       </defs>
       <use xlink:href="#DejaVuSans-30"/>
      </g>
     </g>
    </g>
    <g id="xtick_2">
     <g id="line2d_2">
      <g>
       <use style="stroke:#000000;stroke-width:0.8;" x="111.574843" xlink:href="#m2b907d5dbe" y="283.559062"/>
      </g>
     </g>
     <g id="text_2">
      <!-- 10 -->
      <g transform="translate(103.939843 299.677187)scale(0.12 -0.12)">
       <defs>
        <path d="M 794 531 
L 1825 531 
L 1825 4091 
L 703 3866 
L 703 4441 
L 1819 4666 
L 2450 4666 
L 2450 531 
L 3481 531 
L 3481 0 
L 794 0 
L 794 531 
z
" id="DejaVuSans-31" transform="scale(0.015625)"/>
       </defs>
       <use xlink:href="#DejaVuSans-31"/>
       <use x="63.623047" xlink:href="#DejaVuSans-30"/>
      </g>
     </g>
    </g>
    <g id="xtick_3">
     <g id="line2d_3">
      <g>
       <use style="stroke:#000000;stroke-width:0.8;" x="165.26586" xlink:href="#m2b907d5dbe" y="283.559062"/>
      </g>
     </g>
     <g id="text_3">
      <!-- 20 -->
      <g transform="translate(157.63086 299.677187)scale(0.12 -0.12)">
       <defs>
        <path d="M 1228 531 
L 3431 531 
L 3431 0 
L 469 0 
L 469 531 
Q 828 903 1448 1529 
Q 2069 2156 2228 2338 
Q 2531 2678 2651 2914 
Q 2772 3150 2772 3378 
Q 2772 3750 2511 3984 
Q 2250 4219 1831 4219 
Q 1534 4219 1204 4116 
Q 875 4013 500 3803 
L 500 4441 
Q 881 4594 1212 4672 
Q 1544 4750 1819 4750 
Q 2544 4750 2975 4387 
Q 3406 4025 3406 3419 
Q 3406 3131 3298 2873 
Q 3191 2616 2906 2266 
Q 2828 2175 2409 1742 
Q 1991 1309 1228 531 
z
" id="DejaVuSans-32" transform="scale(0.015625)"/>
       </defs>
       <use xlink:href="#DejaVuSans-32"/>
       <use x="63.623047" xlink:href="#DejaVuSans-30"/>
      </g>
     </g>
    </g>
    <g id="xtick_4">
     <g id="line2d_4">
      <g>
       <use style="stroke:#000000;stroke-width:0.8;" x="218.956876" xlink:href="#m2b907d5dbe" y="283.559062"/>
      </g>
     </g>
     <g id="text_4">
      <!-- 30 -->
      <g transform="translate(211.321876 299.677187)scale(0.12 -0.12)">
       <defs>
        <path d="M 2597 2516 
Q 3050 2419 3304 2112 
Q 3559 1806 3559 1356 
Q 3559 666 3084 287 
Q 2609 -91 1734 -91 
Q 1441 -91 1130 -33 
Q 819 25 488 141 
L 488 750 
Q 750 597 1062 519 
Q 1375 441 1716 441 
Q 2309 441 2620 675 
Q 2931 909 2931 1356 
Q 2931 1769 2642 2001 
Q 2353 2234 1838 2234 
L 1294 2234 
L 1294 2753 
L 1863 2753 
Q 2328 2753 2575 2939 
Q 2822 3125 2822 3475 
Q 2822 3834 2567 4026 
Q 2313 4219 1838 4219 
Q 1578 4219 1281 4162 
Q 984 4106 628 3988 
L 628 4550 
Q 988 4650 1302 4700 
Q 1616 4750 1894 4750 
Q 2613 4750 3031 4423 
Q 3450 4097 3450 3541 
Q 3450 3153 3228 2886 
Q 3006 2619 2597 2516 
z
" id="DejaVuSans-33" transform="scale(0.015625)"/>
       </defs>
       <use xlink:href="#DejaVuSans-33"/>
       <use x="63.623047" xlink:href="#DejaVuSans-30"/>
      </g>
     </g>
    </g>
    <g id="xtick_5">
     <g id="line2d_5">
      <g>
       <use style="stroke:#000000;stroke-width:0.8;" x="272.647893" xlink:href="#m2b907d5dbe" y="283.559062"/>
      </g>
     </g>
     <g id="text_5">
      <!-- 40 -->
      <g transform="translate(265.012893 299.677187)scale(0.12 -0.12)">
       <defs>
        <path d="M 2419 4116 
L 825 1625 
L 2419 1625 
L 2419 4116 
z
M 2253 4666 
L 3047 4666 
L 3047 1625 
L 3713 1625 
L 3713 1100 
L 3047 1100 
L 3047 0 
L 2419 0 
L 2419 1100 
L 313 1100 
L 313 1709 
L 2253 4666 
z
" id="DejaVuSans-34" transform="scale(0.015625)"/>
       </defs>
       <use xlink:href="#DejaVuSans-34"/>
       <use x="63.623047" xlink:href="#DejaVuSans-30"/>
      </g>
     </g>
    </g>
    <g id="xtick_6">
     <g id="line2d_6">
      <g>
       <use style="stroke:#000000;stroke-width:0.8;" x="326.33891" xlink:href="#m2b907d5dbe" y="283.559062"/>
      </g>
     </g>
     <g id="text_6">
      <!-- 50 -->
      <g transform="translate(318.70391 299.677187)scale(0.12 -0.12)">
       <defs>
        <path d="M 691 4666 
L 3169 4666 
L 3169 4134 
L 1269 4134 
L 1269 2991 
Q 1406 3038 1543 3061 
Q 1681 3084 1819 3084 
Q 2600 3084 3056 2656 
Q 3513 2228 3513 1497 
Q 3513 744 3044 326 
Q 2575 -91 1722 -91 
Q 1428 -91 1123 -41 
Q 819 9 494 109 
L 494 744 
Q 775 591 1075 516 
Q 1375 441 1709 441 
Q 2250 441 2565 725 
Q 2881 1009 2881 1497 
Q 2881 1984 2565 2268 
Q 2250 2553 1709 2553 
Q 1456 2553 1204 2497 
Q 953 2441 691 2322 
L 691 4666 
z
" id="DejaVuSans-35" transform="scale(0.015625)"/>
       </defs>
       <use xlink:href="#DejaVuSans-35"/>
       <use x="63.623047" xlink:href="#DejaVuSans-30"/>
      </g>
     </g>
    </g>
    <g id="text_7">
     <!-- dominant species 2 (%) -->
     <g transform="translate(112.90625 315.290937)scale(0.12 -0.12)">
      <defs>
       <path d="M 2919 2988 
L 2919 4863 
L 4044 4863 
L 4044 0 
L 2919 0 
L 2919 506 
Q 2688 197 2409 53 
Q 2131 -91 1766 -91 
Q 1119 -91 703 423 
Q 288 938 288 1747 
Q 288 2556 703 3070 
Q 1119 3584 1766 3584 
Q 2128 3584 2408 3439 
Q 2688 3294 2919 2988 
z
M 2181 722 
Q 2541 722 2730 984 
Q 2919 1247 2919 1747 
Q 2919 2247 2730 2509 
Q 2541 2772 2181 2772 
Q 1825 2772 1636 2509 
Q 1447 2247 1447 1747 
Q 1447 1247 1636 984 
Q 1825 722 2181 722 
z
" id="DejaVuSans-Bold-64" transform="scale(0.015625)"/>
       <path d="M 2203 2784 
Q 1831 2784 1636 2517 
Q 1441 2250 1441 1747 
Q 1441 1244 1636 976 
Q 1831 709 2203 709 
Q 2569 709 2762 976 
Q 2956 1244 2956 1747 
Q 2956 2250 2762 2517 
Q 2569 2784 2203 2784 
z
M 2203 3584 
Q 3106 3584 3614 3096 
Q 4122 2609 4122 1747 
Q 4122 884 3614 396 
Q 3106 -91 2203 -91 
Q 1297 -91 786 396 
Q 275 884 275 1747 
Q 275 2609 786 3096 
Q 1297 3584 2203 3584 
z
" id="DejaVuSans-Bold-6f" transform="scale(0.015625)"/>
       <path d="M 3781 2919 
Q 3994 3244 4286 3414 
Q 4578 3584 4928 3584 
Q 5531 3584 5847 3212 
Q 6163 2841 6163 2131 
L 6163 0 
L 5038 0 
L 5038 1825 
Q 5041 1866 5042 1909 
Q 5044 1953 5044 2034 
Q 5044 2406 4934 2573 
Q 4825 2741 4581 2741 
Q 4263 2741 4089 2478 
Q 3916 2216 3909 1719 
L 3909 0 
L 2784 0 
L 2784 1825 
Q 2784 2406 2684 2573 
Q 2584 2741 2328 2741 
Q 2006 2741 1831 2477 
Q 1656 2213 1656 1722 
L 1656 0 
L 531 0 
L 531 3500 
L 1656 3500 
L 1656 2988 
Q 1863 3284 2130 3434 
Q 2397 3584 2719 3584 
Q 3081 3584 3359 3409 
Q 3638 3234 3781 2919 
z
" id="DejaVuSans-Bold-6d" transform="scale(0.015625)"/>
       <path d="M 538 3500 
L 1656 3500 
L 1656 0 
L 538 0 
L 538 3500 
z
M 538 4863 
L 1656 4863 
L 1656 3950 
L 538 3950 
L 538 4863 
z
" id="DejaVuSans-Bold-69" transform="scale(0.015625)"/>
       <path d="M 4056 2131 
L 4056 0 
L 2931 0 
L 2931 347 
L 2931 1631 
Q 2931 2084 2911 2256 
Q 2891 2428 2841 2509 
Q 2775 2619 2662 2680 
Q 2550 2741 2406 2741 
Q 2056 2741 1856 2470 
Q 1656 2200 1656 1722 
L 1656 0 
L 538 0 
L 538 3500 
L 1656 3500 
L 1656 2988 
Q 1909 3294 2193 3439 
Q 2478 3584 2822 3584 
Q 3428 3584 3742 3212 
Q 4056 2841 4056 2131 
z
" id="DejaVuSans-Bold-6e" transform="scale(0.015625)"/>
       <path d="M 2106 1575 
Q 1756 1575 1579 1456 
Q 1403 1338 1403 1106 
Q 1403 894 1545 773 
Q 1688 653 1941 653 
Q 2256 653 2472 879 
Q 2688 1106 2688 1447 
L 2688 1575 
L 2106 1575 
z
M 3816 1997 
L 3816 0 
L 2688 0 
L 2688 519 
Q 2463 200 2181 54 
Q 1900 -91 1497 -91 
Q 953 -91 614 226 
Q 275 544 275 1050 
Q 275 1666 698 1953 
Q 1122 2241 2028 2241 
L 2688 2241 
L 2688 2328 
Q 2688 2594 2478 2717 
Q 2269 2841 1825 2841 
Q 1466 2841 1156 2769 
Q 847 2697 581 2553 
L 581 3406 
Q 941 3494 1303 3539 
Q 1666 3584 2028 3584 
Q 2975 3584 3395 3211 
Q 3816 2838 3816 1997 
z
" id="DejaVuSans-Bold-61" transform="scale(0.015625)"/>
       <path d="M 1759 4494 
L 1759 3500 
L 2913 3500 
L 2913 2700 
L 1759 2700 
L 1759 1216 
Q 1759 972 1856 886 
Q 1953 800 2241 800 
L 2816 800 
L 2816 0 
L 1856 0 
Q 1194 0 917 276 
Q 641 553 641 1216 
L 641 2700 
L 84 2700 
L 84 3500 
L 641 3500 
L 641 4494 
L 1759 4494 
z
" id="DejaVuSans-Bold-74" transform="scale(0.015625)"/>
       <path id="DejaVuSans-Bold-20" transform="scale(0.015625)"/>
       <path d="M 3272 3391 
L 3272 2541 
Q 2913 2691 2578 2766 
Q 2244 2841 1947 2841 
Q 1628 2841 1473 2761 
Q 1319 2681 1319 2516 
Q 1319 2381 1436 2309 
Q 1553 2238 1856 2203 
L 2053 2175 
Q 2913 2066 3209 1816 
Q 3506 1566 3506 1031 
Q 3506 472 3093 190 
Q 2681 -91 1863 -91 
Q 1516 -91 1145 -36 
Q 775 19 384 128 
L 384 978 
Q 719 816 1070 734 
Q 1422 653 1784 653 
Q 2113 653 2278 743 
Q 2444 834 2444 1013 
Q 2444 1163 2330 1236 
Q 2216 1309 1875 1350 
L 1678 1375 
Q 931 1469 631 1722 
Q 331 1975 331 2491 
Q 331 3047 712 3315 
Q 1094 3584 1881 3584 
Q 2191 3584 2531 3537 
Q 2872 3491 3272 3391 
z
" id="DejaVuSans-Bold-73" transform="scale(0.015625)"/>
       <path d="M 1656 506 
L 1656 -1331 
L 538 -1331 
L 538 3500 
L 1656 3500 
L 1656 2988 
Q 1888 3294 2169 3439 
Q 2450 3584 2816 3584 
Q 3463 3584 3878 3070 
Q 4294 2556 4294 1747 
Q 4294 938 3878 423 
Q 3463 -91 2816 -91 
Q 2450 -91 2169 54 
Q 1888 200 1656 506 
z
M 2400 2772 
Q 2041 2772 1848 2508 
Q 1656 2244 1656 1747 
Q 1656 1250 1848 986 
Q 2041 722 2400 722 
Q 2759 722 2948 984 
Q 3138 1247 3138 1747 
Q 3138 2247 2948 2509 
Q 2759 2772 2400 2772 
z
" id="DejaVuSans-Bold-70" transform="scale(0.015625)"/>
       <path d="M 4031 1759 
L 4031 1441 
L 1416 1441 
Q 1456 1047 1700 850 
Q 1944 653 2381 653 
Q 2734 653 3104 758 
Q 3475 863 3866 1075 
L 3866 213 
Q 3469 63 3072 -14 
Q 2675 -91 2278 -91 
Q 1328 -91 801 392 
Q 275 875 275 1747 
Q 275 2603 792 3093 
Q 1309 3584 2216 3584 
Q 3041 3584 3536 3087 
Q 4031 2591 4031 1759 
z
M 2881 2131 
Q 2881 2450 2695 2645 
Q 2509 2841 2209 2841 
Q 1884 2841 1681 2658 
Q 1478 2475 1428 2131 
L 2881 2131 
z
" id="DejaVuSans-Bold-65" transform="scale(0.015625)"/>
       <path d="M 3366 3391 
L 3366 2478 
Q 3138 2634 2908 2709 
Q 2678 2784 2431 2784 
Q 1963 2784 1702 2511 
Q 1441 2238 1441 1747 
Q 1441 1256 1702 982 
Q 1963 709 2431 709 
Q 2694 709 2930 787 
Q 3166 866 3366 1019 
L 3366 103 
Q 3103 6 2833 -42 
Q 2563 -91 2291 -91 
Q 1344 -91 809 395 
Q 275 881 275 1747 
Q 275 2613 809 3098 
Q 1344 3584 2291 3584 
Q 2566 3584 2833 3536 
Q 3100 3488 3366 3391 
z
" id="DejaVuSans-Bold-63" transform="scale(0.015625)"/>
       <path d="M 1844 884 
L 3897 884 
L 3897 0 
L 506 0 
L 506 884 
L 2209 2388 
Q 2438 2594 2547 2791 
Q 2656 2988 2656 3200 
Q 2656 3528 2436 3728 
Q 2216 3928 1850 3928 
Q 1569 3928 1234 3808 
Q 900 3688 519 3450 
L 519 4475 
Q 925 4609 1322 4679 
Q 1719 4750 2100 4750 
Q 2938 4750 3402 4381 
Q 3866 4013 3866 3353 
Q 3866 2972 3669 2642 
Q 3472 2313 2841 1759 
L 1844 884 
z
" id="DejaVuSans-Bold-32" transform="scale(0.015625)"/>
       <path d="M 2413 -844 
L 1484 -844 
Q 1006 -72 778 623 
Q 550 1319 550 2003 
Q 550 2688 779 3389 
Q 1009 4091 1484 4856 
L 2413 4856 
Q 2013 4116 1813 3408 
Q 1613 2700 1613 2009 
Q 1613 1319 1811 609 
Q 2009 -100 2413 -844 
z
" id="DejaVuSans-Bold-28" transform="scale(0.015625)"/>
       <path d="M 4959 1925 
Q 4738 1925 4616 1733 
Q 4494 1541 4494 1184 
Q 4494 825 4614 633 
Q 4734 441 4959 441 
Q 5184 441 5303 633 
Q 5422 825 5422 1184 
Q 5422 1541 5301 1733 
Q 5181 1925 4959 1925 
z
M 4959 2450 
Q 5541 2450 5875 2112 
Q 6209 1775 6209 1184 
Q 6209 594 5875 251 
Q 5541 -91 4959 -91 
Q 4378 -91 4042 251 
Q 3706 594 3706 1184 
Q 3706 1772 4042 2111 
Q 4378 2450 4959 2450 
z
M 2094 -91 
L 1403 -91 
L 4319 4750 
L 5013 4750 
L 2094 -91 
z
M 1453 4750 
Q 2034 4750 2367 4411 
Q 2700 4072 2700 3481 
Q 2700 2891 2367 2550 
Q 2034 2209 1453 2209 
Q 872 2209 539 2550 
Q 206 2891 206 3481 
Q 206 4072 539 4411 
Q 872 4750 1453 4750 
z
M 1453 4225 
Q 1228 4225 1106 4031 
Q 984 3838 984 3481 
Q 984 3122 1106 2926 
Q 1228 2731 1453 2731 
Q 1678 2731 1798 2926 
Q 1919 3122 1919 3481 
Q 1919 3838 1797 4031 
Q 1675 4225 1453 4225 
z
" id="DejaVuSans-Bold-25" transform="scale(0.015625)"/>
       <path d="M 513 -844 
Q 913 -100 1113 609 
Q 1313 1319 1313 2009 
Q 1313 2700 1113 3408 
Q 913 4116 513 4856 
L 1441 4856 
Q 1916 4091 2145 3389 
Q 2375 2688 2375 2003 
Q 2375 1319 2147 623 
Q 1919 -72 1441 -844 
L 513 -844 
z
" id="DejaVuSans-Bold-29" transform="scale(0.015625)"/>
      </defs>
      <use xlink:href="#DejaVuSans-Bold-64"/>
      <use x="71.582031" xlink:href="#DejaVuSans-Bold-6f"/>
      <use x="140.283203" xlink:href="#DejaVuSans-Bold-6d"/>
      <use x="244.482422" xlink:href="#DejaVuSans-Bold-69"/>
      <use x="278.759766" xlink:href="#DejaVuSans-Bold-6e"/>
      <use x="349.951172" xlink:href="#DejaVuSans-Bold-61"/>
      <use x="417.431641" xlink:href="#DejaVuSans-Bold-6e"/>
      <use x="488.623047" xlink:href="#DejaVuSans-Bold-74"/>
      <use x="536.425781" xlink:href="#DejaVuSans-Bold-20"/>
      <use x="571.240234" xlink:href="#DejaVuSans-Bold-73"/>
      <use x="630.761719" xlink:href="#DejaVuSans-Bold-70"/>
      <use x="702.34375" xlink:href="#DejaVuSans-Bold-65"/>
      <use x="770.166016" xlink:href="#DejaVuSans-Bold-63"/>
      <use x="829.443359" xlink:href="#DejaVuSans-Bold-69"/>
      <use x="863.720703" xlink:href="#DejaVuSans-Bold-65"/>
      <use x="931.542969" xlink:href="#DejaVuSans-Bold-73"/>
      <use x="991.064453" xlink:href="#DejaVuSans-Bold-20"/>
      <use x="1025.878906" xlink:href="#DejaVuSans-Bold-32"/>
      <use x="1095.458984" xlink:href="#DejaVuSans-Bold-20"/>
      <use x="1130.273438" xlink:href="#DejaVuSans-Bold-28"/>
      <use x="1175.976562" xlink:href="#DejaVuSans-Bold-25"/>
      <use x="1276.171875" xlink:href="#DejaVuSans-Bold-29"/>
     </g>
    </g>
   </g>
   <g id="matplotlib.axis_2">
    <g id="ytick_1">
     <g id="line2d_7">
      <defs>
       <path d="M 0 0 
L -3.5 0 
" id="m7ad3f26db7" style="stroke:#000000;stroke-width:0.8;"/>
      </defs>
      <g>
       <use style="stroke:#000000;stroke-width:0.8;" x="52.71875" xlink:href="#m7ad3f26db7" y="276.009062"/>
      </g>
     </g>
     <g id="text_8">
      <!-- 30 -->
      <g transform="translate(30.44875 280.568125)scale(0.12 -0.12)">
       <use xlink:href="#DejaVuSans-33"/>
       <use x="63.623047" xlink:href="#DejaVuSans-30"/>
      </g>
     </g>
    </g>
    <g id="ytick_2">
     <g id="line2d_8">
      <g>
       <use style="stroke:#000000;stroke-width:0.8;" x="52.71875" xlink:href="#m7ad3f26db7" y="238.259062"/>
      </g>
     </g>
     <g id="text_9">
      <!-- 40 -->
      <g transform="translate(30.44875 242.818125)scale(0.12 -0.12)">
       <use xlink:href="#DejaVuSans-34"/>
       <use x="63.623047" xlink:href="#DejaVuSans-30"/>
      </g>
     </g>
    </g>
    <g id="ytick_3">
     <g id="line2d_9">
      <g>
       <use style="stroke:#000000;stroke-width:0.8;" x="52.71875" xlink:href="#m7ad3f26db7" y="200.509062"/>
      </g>
     </g>
     <g id="text_10">
      <!-- 50 -->
      <g transform="translate(30.44875 205.068125)scale(0.12 -0.12)">
       <use xlink:href="#DejaVuSans-35"/>
       <use x="63.623047" xlink:href="#DejaVuSans-30"/>
      </g>
     </g>
    </g>
    <g id="ytick_4">
     <g id="line2d_10">
      <g>
       <use style="stroke:#000000;stroke-width:0.8;" x="52.71875" xlink:href="#m7ad3f26db7" y="162.759062"/>
      </g>
     </g>
     <g id="text_11">
      <!-- 60 -->
      <g transform="translate(30.44875 167.318125)scale(0.12 -0.12)">
       <defs>
        <path d="M 2113 2584 
Q 1688 2584 1439 2293 
Q 1191 2003 1191 1497 
Q 1191 994 1439 701 
Q 1688 409 2113 409 
Q 2538 409 2786 701 
Q 3034 994 3034 1497 
Q 3034 2003 2786 2293 
Q 2538 2584 2113 2584 
z
M 3366 4563 
L 3366 3988 
Q 3128 4100 2886 4159 
Q 2644 4219 2406 4219 
Q 1781 4219 1451 3797 
Q 1122 3375 1075 2522 
Q 1259 2794 1537 2939 
Q 1816 3084 2150 3084 
Q 2853 3084 3261 2657 
Q 3669 2231 3669 1497 
Q 3669 778 3244 343 
Q 2819 -91 2113 -91 
Q 1303 -91 875 529 
Q 447 1150 447 2328 
Q 447 3434 972 4092 
Q 1497 4750 2381 4750 
Q 2619 4750 2861 4703 
Q 3103 4656 3366 4563 
z
" id="DejaVuSans-36" transform="scale(0.015625)"/>
       </defs>
       <use xlink:href="#DejaVuSans-36"/>
       <use x="63.623047" xlink:href="#DejaVuSans-30"/>
      </g>
     </g>
    </g>
    <g id="ytick_5">
     <g id="line2d_11">
      <g>
       <use style="stroke:#000000;stroke-width:0.8;" x="52.71875" xlink:href="#m7ad3f26db7" y="125.009062"/>
      </g>
     </g>
     <g id="text_12">
      <!-- 70 -->
      <g transform="translate(30.44875 129.568125)scale(0.12 -0.12)">
       <defs>
        <path d="M 525 4666 
L 3525 4666 
L 3525 4397 
L 1831 0 
L 1172 0 
L 2766 4134 
L 525 4134 
L 525 4666 
z
" id="DejaVuSans-37" transform="scale(0.015625)"/>
       </defs>
       <use xlink:href="#DejaVuSans-37"/>
       <use x="63.623047" xlink:href="#DejaVuSans-30"/>
      </g>
     </g>
    </g>
    <g id="ytick_6">
     <g id="line2d_12">
      <g>
       <use style="stroke:#000000;stroke-width:0.8;" x="52.71875" xlink:href="#m7ad3f26db7" y="87.259062"/>
      </g>
     </g>
     <g id="text_13">
      <!-- 80 -->
      <g transform="translate(30.44875 91.818125)scale(0.12 -0.12)">
       <defs>
        <path d="M 2034 2216 
Q 1584 2216 1326 1975 
Q 1069 1734 1069 1313 
Q 1069 891 1326 650 
Q 1584 409 2034 409 
Q 2484 409 2743 651 
Q 3003 894 3003 1313 
Q 3003 1734 2745 1975 
Q 2488 2216 2034 2216 
z
M 1403 2484 
Q 997 2584 770 2862 
Q 544 3141 544 3541 
Q 544 4100 942 4425 
Q 1341 4750 2034 4750 
Q 2731 4750 3128 4425 
Q 3525 4100 3525 3541 
Q 3525 3141 3298 2862 
Q 3072 2584 2669 2484 
Q 3125 2378 3379 2068 
Q 3634 1759 3634 1313 
Q 3634 634 3220 271 
Q 2806 -91 2034 -91 
Q 1263 -91 848 271 
Q 434 634 434 1313 
Q 434 1759 690 2068 
Q 947 2378 1403 2484 
z
M 1172 3481 
Q 1172 3119 1398 2916 
Q 1625 2713 2034 2713 
Q 2441 2713 2670 2916 
Q 2900 3119 2900 3481 
Q 2900 3844 2670 4047 
Q 2441 4250 2034 4250 
Q 1625 4250 1398 4047 
Q 1172 3844 1172 3481 
z
" id="DejaVuSans-38" transform="scale(0.015625)"/>
       </defs>
       <use xlink:href="#DejaVuSans-38"/>
       <use x="63.623047" xlink:href="#DejaVuSans-30"/>
      </g>
     </g>
    </g>
    <g id="ytick_7">
     <g id="line2d_13">
      <g>
       <use style="stroke:#000000;stroke-width:0.8;" x="52.71875" xlink:href="#m7ad3f26db7" y="49.509062"/>
      </g>
     </g>
     <g id="text_14">
      <!-- 90 -->
      <g transform="translate(30.44875 54.068125)scale(0.12 -0.12)">
       <defs>
        <path d="M 703 97 
L 703 672 
Q 941 559 1184 500 
Q 1428 441 1663 441 
Q 2288 441 2617 861 
Q 2947 1281 2994 2138 
Q 2813 1869 2534 1725 
Q 2256 1581 1919 1581 
Q 1219 1581 811 2004 
Q 403 2428 403 3163 
Q 403 3881 828 4315 
Q 1253 4750 1959 4750 
Q 2769 4750 3195 4129 
Q 3622 3509 3622 2328 
Q 3622 1225 3098 567 
Q 2575 -91 1691 -91 
Q 1453 -91 1209 -44 
Q 966 3 703 97 
z
M 1959 2075 
Q 2384 2075 2632 2365 
Q 2881 2656 2881 3163 
Q 2881 3666 2632 3958 
Q 2384 4250 1959 4250 
Q 1534 4250 1286 3958 
Q 1038 3666 1038 3163 
Q 1038 2656 1286 2365 
Q 1534 2075 1959 2075 
z
" id="DejaVuSans-39" transform="scale(0.015625)"/>
       </defs>
       <use xlink:href="#DejaVuSans-39"/>
       <use x="63.623047" xlink:href="#DejaVuSans-30"/>
      </g>
     </g>
    </g>
    <g id="ytick_8">
     <g id="line2d_14">
      <g>
       <use style="stroke:#000000;stroke-width:0.8;" x="52.71875" xlink:href="#m7ad3f26db7" y="11.759062"/>
      </g>
     </g>
     <g id="text_15">
      <!-- 100 -->
      <g transform="translate(22.81375 16.318125)scale(0.12 -0.12)">
       <use xlink:href="#DejaVuSans-31"/>
       <use x="63.623047" xlink:href="#DejaVuSans-30"/>
       <use x="127.246094" xlink:href="#DejaVuSans-30"/>
      </g>
     </g>
    </g>
    <g id="text_16">
     <!-- dominant species 1 (%) -->
     <g transform="translate(16.318125 226.971562)rotate(-90)scale(0.12 -0.12)">
      <defs>
       <path d="M 750 831 
L 1813 831 
L 1813 3847 
L 722 3622 
L 722 4441 
L 1806 4666 
L 2950 4666 
L 2950 831 
L 4013 831 
L 4013 0 
L 750 0 
L 750 831 
z
" id="DejaVuSans-Bold-31" transform="scale(0.015625)"/>
      </defs>
      <use xlink:href="#DejaVuSans-Bold-64"/>
      <use x="71.582031" xlink:href="#DejaVuSans-Bold-6f"/>
      <use x="140.283203" xlink:href="#DejaVuSans-Bold-6d"/>
      <use x="244.482422" xlink:href="#DejaVuSans-Bold-69"/>
      <use x="278.759766" xlink:href="#DejaVuSans-Bold-6e"/>
      <use x="349.951172" xlink:href="#DejaVuSans-Bold-61"/>
      <use x="417.431641" xlink:href="#DejaVuSans-Bold-6e"/>
      <use x="488.623047" xlink:href="#DejaVuSans-Bold-74"/>
      <use x="536.425781" xlink:href="#DejaVuSans-Bold-20"/>
      <use x="571.240234" xlink:href="#DejaVuSans-Bold-73"/>
      <use x="630.761719" xlink:href="#DejaVuSans-Bold-70"/>
      <use x="702.34375" xlink:href="#DejaVuSans-Bold-65"/>
      <use x="770.166016" xlink:href="#DejaVuSans-Bold-63"/>
      <use x="829.443359" xlink:href="#DejaVuSans-Bold-69"/>
      <use x="863.720703" xlink:href="#DejaVuSans-Bold-65"/>
      <use x="931.542969" xlink:href="#DejaVuSans-Bold-73"/>
      <use x="991.064453" xlink:href="#DejaVuSans-Bold-20"/>
      <use x="1025.878906" xlink:href="#DejaVuSans-Bold-31"/>
      <use x="1095.458984" xlink:href="#DejaVuSans-Bold-20"/>
      <use x="1130.273438" xlink:href="#DejaVuSans-Bold-28"/>
      <use x="1175.976562" xlink:href="#DejaVuSans-Bold-25"/>
      <use x="1276.171875" xlink:href="#DejaVuSans-Bold-29"/>
     </g>
    </g>
   </g>
   <g id="patch_3">
    <path d="M 52.71875 276.009062 
L 52.71875 11.759062 
" style="fill:none;stroke:#000000;stroke-linecap:square;stroke-linejoin:miter;stroke-width:0.8;"/>
   </g>
   <g id="patch_4">
    <path d="M 57.883826 283.559062 
L 326.33891 283.559062 
" style="fill:none;stroke:#000000;stroke-linecap:square;stroke-linejoin:miter;stroke-width:0.8;"/>
   </g>
  </g>
 </g>
 <defs>
  <clipPath id="p2f62105e84">
   <rect height="271.8" width="279" x="52.71875" y="11.759062"/>
  </clipPath>
 </defs>
</svg>
