Genome_Pos	species	genomeLen	meanValue	log2mean	max	median
wholeGenome	all	93017689	17.9002	1	34346	0
0	Scer	11696516	0.2472234	0	12190	0
11696516	Spar	11811689	0.1100174	0	10113	0
23508205	Smik	11450122	0.02935034	0	3734	0
34958327	Sjur	11833026	0.1260203	0	5585	0
46791353	Skud	11603220	142.3723	2.991622	25170	138
58394573	Sarb	11486716	0.4756393	0	34346	0
69881289	Seub	11633487	0.08367328	0	9132	0
81514776	Suva	11502913	0.05232961	0	14128	0
