Skud count of reads mapped - Chi Squared P-value 0
Scer
-841.395516634252
Spar
-854.299577371251
Smik
-866.688070125225
Sjur
-857.540453716874
Skud
6655.87063055969
Sarb
-769.849313118499
Seub
-837.397864224854
Suva
-850.895228250522
Unmapped
-777.804607118214
Skud MQ60 - Chi Squared P-value 0
Scer
-891.364542305569
Spar
-895.87253463548
Smik
-896.105745129775
Sjur
-894.917375864588
Skud
6236.27680666168
Sarb
-867.657412344852
Seub
-895.139427962027
Suva
-895.219768419391
