Genome_Pos	chrom	chrLen	meanValue	log2mean	max	median
wholeGenome	all	93017689	37.24951	1	25087	0
0	Scer-1	225679	6.017512	0	12773	0
225679	Scer-2	774262	0.2001881	0	1615	0
999941	Scer-3	301492	0.2737685	0	209	0
1301433	Scer-4	1470431	0.4303629	0	664	0
2771864	Scer-5	589033	0.3697569	0	332	0
3360897	Scer-6	275148	0.006898106	0	47	0
3636045	Scer-7	1040499	0.0103335	0	99	0
4676544	Scer-8	539841	0.04446124	0	274	0
5216385	Scer-9	449951	0.07333021	0	120	0
5666336	Scer-10	711359	0.01959629	0	94	0
6377695	Scer-11	674222	0.4879446	0	4807	0
7051917	Scer-12	1011671	1.897628	0	6496	0
8063588	Scer-13	911673	0.009020778	0	100	0
8975261	Scer-14	760295	0.03781295	0	127	0
9735556	Scer-15	1049539	0.01656632	0	126	0
10785095	Scer-16	911421	0.002903159	0	44	0
11696516	Spar-1	224181	1.283432	0	3567	0
11920697	Spar-2	800085	0.3921208	0	2989	0
12720782	Spar-3	312241	0.6110056	0	1357	0
13033023	Spar-4	1466838	0.3945848	0	8749	0
14499861	Spar-5	553973	0.1505236	0	2408	0
15053834	Spar-6	296174	0.03407456	0	21	0
15350008	Spar-7	1082435	0.1392028	0	1474	0
16432443	Spar-8	529296	0.06736117	0	136	0
16961739	Spar-9	442403	1.509879	0	3802	0
17404142	Spar-10	729272	0.983718	0	3040	0
18133414	Spar-11	679893	0.677286	0	527	0
18813307	Spar-12	1026045	0.2573737	0	5619	0
19839352	Spar-13	926729	1.09402	0	9355	0
20766081	Spar-14	776644	0.1918047	0	234	0
21542725	Spar-15	1061158	0.4617069	0	8162	0
22603883	Spar-16	904322	0.1438017	0	2805	0
23508205	Smik-1	188471	344.7426	3.210226	9779	283
23696676	Smik-2	788170	283.8493	2.929832	1051	286
24484846	Smik-3	311108	312.7654	3.069787	3508	288
24795954	Smik-4	1444590	287.2773	2.947151	3234	288
26240544	Smik-5	567059	287.451	2.948022	1765	286
26807603	Smik-6	801748	288.4705	2.95313	2320	289
27609351	Smik-7	628517	290.4881	2.963185	1009	287
28237868	Smik-8	500793	282.849	2.924738	3386	285
28738661	Smik-9	418555	338.6022	3.184298	10715	285
29157216	Smik-10	702533	286.619	2.943841	2451	286
29859749	Smik-11	654555	285.9057	2.940246	1625	288
30514304	Smik-12	998246	287.4558	2.948046	14260	287
31512550	Smik-13	899821	285.7676	2.939549	1278	286
32412371	Smik-14	731595	295.4934	2.987832	1533	287
33143966	Smik-15	1013536	285.4246	2.937816	5442	287
34157502	Smik-16	800825	287.3452	2.947492	7716	287
34958327	Sjur-1	809572	0.5518644	0	2657	0
35767899	Sjur-2	809280	0.6106959	0	661	0
36577179	Sjur-3	308350	0.8278385	0	486	0
36885529	Sjur-4	1474466	0.239425	0	702	0
38359995	Sjur-5	584553	1.059877	0	952	0
38944548	Sjur-6	730011	1.074967	0	570	0
39674559	Sjur-7	638210	0.8995785	0	6033	0
40312769	Sjur-8	534462	4.099219	0	1180	0
40847231	Sjur-9	434517	1.655224	0	1589	0
41281748	Sjur-10	738741	0.5538558	0	405	0
42020489	Sjur-11	671067	0.5430099	0	1559	0
42691556	Sjur-12	458950	146.8994	1.979535	25087	0
43150506	Sjur-13	568540	0.1324814	0	1258	0
43719046	Sjur-14	334136	0.8400711	0	318	0
44053182	Sjur-15	749072	7.637577	0	3805	0
44802254	Sjur-16	1068672	3.64337	0	704	0
45870926	Sjur-17	920427	0.9442324	0	3511	0
46791353	Skud-1	199426	0.9933559	0	3564	0
46990779	Skud-2	784124	0.006451786	0	60	0
47774903	Skud-3	337911	0.3024613	0	591	0
48112814	Skud-4	1455859	0.009536638	0	79	0
49568673	Skud-5	528556	0.00007189399	0	2	0
50097229	Skud-6	278641	0.02550594	0	58	0
50375870	Skud-7	1092180	0.003071838	0	38	0
51468050	Skud-8	512600	0.02067499	0	72	0
51980650	Skud-9	438920	0.02105167	0	80	0
52419570	Skud-10	690961	0.004770168	0	60	0
53110531	Skud-11	658697	1.194	0	2439	0
53769228	Skud-12	1038862	3.387217	0	15803	0
54808090	Skud-13	898506	0.434144	0	1684	0
55706596	Skud-14	776595	0.5114854	0	4163	0
56483191	Skud-15	1030073	0.005435537	0	40	0
57513264	Skud-16	881309	0.04039219	0	253	0
58394573	Sarb-1	194368	5.344131	0	10865	0
58588941	Sarb-2	782499	0.01121407	0	76	0
59371440	Sarb-3	298424	0.002710908	0	18	0
59669864	Sarb-4	1141293	7.802002	0	1929	0
60811157	Sarb-5	407361	0.2234652	0	1168	0
61218518	Sarb-6	531626	0.002608977	0	30	0
61750144	Sarb-7	272605	0.6528053	0	3055	0
62022749	Sarb-8	1053431	0.1134996	0	305	0
63076180	Sarb-9	527949	0.06855776	0	220	0
63604129	Sarb-10	721635	0.01757121	0	110	0
64325764	Sarb-11	650640	0.1469999	0	2187	0
64976404	Sarb-12	984206	0.2501966	0	4162	0
65960610	Sarb-13	1246548	0.4284977	0	11855	0
67207158	Sarb-14	771513	0.4028629	0	516	0
67978671	Sarb-15	1023324	6.740194	0	2718	0
69001995	Sarb-16	879294	0.0628254	0	1359	0
69881289	Seub-1	175444	0.0004331867	0	4	0
70056733	Seub-2	1274804	0.4144684	0	6411	0
71331537	Seub-3	305615	0.01028091	0	88	0
71637152	Seub-4	982538	0.001970407	0	34	0
72619690	Seub-5	588913	0.6493251	0	4351	0
73208603	Seub-6	264757	0.004974373	0	65	0
73473360	Seub-7	1051730	0.01058351	0	101	0
74525090	Seub-8	813827	0.005023181	0	78	0
75338917	Seub-9	401362	0.03571838	0	101	0
75740279	Seub-10	747934	0.007687844	0	46	0
76488213	Seub-11	632881	0.009892855	0	64	0
77121094	Seub-12	1033978	1.206055	0	9918	0
78155072	Seub-13	953685	0.01501963	0	129	0
79108757	Seub-14	768019	0.004743372	0	54	0
79876776	Seub-15	741893	0.1235138	0	1041	0
80618669	Seub-16	896107	0.003623451	0	40	0
81514776	Suva-1	189981	0.9949205	0	3750	0
81704757	Suva-2	1289935	0.005926655	0	50	0
82994692	Suva-3	295075	0.00884182	0	18	0
83289767	Suva-4	983774	1.354906	0	2900	0
84273541	Suva-5	531350	0.1275543	0	351	0
84804891	Suva-6	523204	21.06382	0	15121	0
85328095	Suva-7	1027508	0.4525279	0	6787	0
86355603	Suva-8	806278	0.001550334	0	13	0
87161881	Suva-9	418340	0.05254339	0	231	0
87580221	Suva-10	445542	0.05631568	0	261	0
88025763	Suva-11	635711	0.00006606776	0	1	0
88661474	Suva-12	1016005	0.009100349	0	355	0
89677479	Suva-13	907341	0.005090699	0	108	0
90584820	Suva-14	750656	0.003925899	0	56	0
91335476	Suva-15	763749	0.1409075	0	1661	0
92099225	Suva-16	918464	0.01768932	0	574	0
