Genome_Pos	species	genomeLen	meanValue	log2mean	max	median
wholeGenome	all	93017689	37.24951	1	25087	0
0	Scer	11696516	0.4134164	0	12773	0
11696516	Spar	11811689	0.4693297	0	9355	0
23508205	Smik	11450122	290.7745	2.964607	14260	287
34958327	Sjur	11833026	7.223057	0	25087	0
46791353	Skud	11603220	0.4728612	0	15803	0
58394573	Sarb	11486716	1.613254	0	11855	0
69881289	Seub	11633487	0.1993109	0	9918	0
81514776	Suva	11502913	1.154026	0	15121	0
