Scer-1	225679
Scer-2	774262
Scer-3	301492
Scer-4	1470431
Scer-5	589033
Scer-6	275148
Scer-7	1040499
Scer-8	539841
Scer-9	449951
Scer-10	711359
Scer-11	674222
Scer-12	1011671
Scer-13	911673
Scer-14	760295
Scer-15	1049539
Scer-16	911421
Spar-1	224181
Spar-2	800085
Spar-3	312241
Spar-4	1466838
Spar-5	553973
Spar-6	296174
Spar-7	1082435
Spar-8	529296
Spar-9	442403
Spar-10	729272
Spar-11	679893
Spar-12	1026045
Spar-13	926729
Spar-14	776644
Spar-15	1061158
Spar-16	904322
Smik-1	188471
Smik-2	788170
Smik-3	311108
Smik-4	1444590
Smik-5	567059
Smik-6	801748
Smik-7	628517
Smik-8	500793
Smik-9	418555
Smik-10	702533
Smik-11	654555
Smik-12	998246
Smik-13	899821
Smik-14	731595
Smik-15	1013536
Smik-16	800825
Sjur-1	809572
Sjur-2	809280
Sjur-3	308350
Sjur-4	1474466
Sjur-5	584553
Sjur-6	730011
Sjur-7	638210
Sjur-8	534462
Sjur-9	434517
Sjur-10	738741
Sjur-11	671067
Sjur-12	458950
Sjur-13	568540
Sjur-14	334136
Sjur-15	749072
Sjur-16	1068672
Sjur-17	920427
Skud-1	199426
Skud-2	784124
Skud-3	337911
Skud-4	1455859
Skud-5	528556
Skud-6	278641
Skud-7	1092180
Skud-8	512600
Skud-9	438920
Skud-10	690961
Skud-11	658697
Skud-12	1038862
Skud-13	898506
Skud-14	776595
Skud-15	1030073
Skud-16	881309
Sarb-1	194368
Sarb-2	782499
Sarb-3	298424
Sarb-4	1141293
Sarb-5	407361
Sarb-6	531626
Sarb-7	272605
Sarb-8	1053431
Sarb-9	527949
Sarb-10	721635
Sarb-11	650640
Sarb-12	984206
Sarb-13	1246548
Sarb-14	771513
Sarb-15	1023324
Sarb-16	879294
Seub-1	175444
Seub-2	1274804
Seub-3	305615
Seub-4	982538
Seub-5	588913
Seub-6	264757
Seub-7	1051730
Seub-8	813827
Seub-9	401362
Seub-10	747934
Seub-11	632881
Seub-12	1033978
Seub-13	953685
Seub-14	768019
Seub-15	741893
Seub-16	896107
Suva-1	189981
Suva-2	1289935
Suva-3	295075
Suva-4	983774
Suva-5	531350
Suva-6	523204
Suva-7	1027508
Suva-8	806278
Suva-9	418340
Suva-10	445542
Suva-11	635711
Suva-12	1016005
Suva-13	907341
Suva-14	750656
Suva-15	763749
Suva-16	918464
