Genome_Pos	chrom	chrLen	meanValue	log2mean	max	median
wholeGenome	all	93017689	31.0763	1	31043	0
0	Scer-1	225679	2.648461	0	4882	0
225679	Scer-2	774262	0.2666643	0	631	0
999941	Scer-3	301492	0.5557395	0	2053	0
1301433	Scer-4	1470431	0.2373923	0	787	0
2771864	Scer-5	589033	0.2475074	0	764	0
3360897	Scer-6	275148	0.2041701	0	48	0
3636045	Scer-7	1040499	0.2736293	0	652	0
4676544	Scer-8	539841	0.2196758	0	68	0
5216385	Scer-9	449951	0.3020684	0	683	0
5666336	Scer-10	711359	0.2422082	0	855	0
6377695	Scer-11	674222	0.5354972	0	4523	0
7051917	Scer-12	1011671	48.10031	0.6302315	30596	0
8063588	Scer-13	911673	0.1990165	0	428	0
8975261	Scer-14	760295	0.2149889	0	218	0
9735556	Scer-15	1049539	0.2071529	0	804	0
10785095	Scer-16	911421	0.1960499	0	590	0
11696516	Spar-1	224181	257.3177	3.049664	3657	236
11920697	Spar-2	800085	240.2122	2.950423	1924	226
12720782	Spar-3	312241	226.5332	2.865836	1582	224
13033023	Spar-4	1466838	231.9896	2.900174	2090	223
14499861	Spar-5	553973	249.0284	3.002424	1251	233
15053834	Spar-6	296174	242.9001	2.966476	1258	227
15350008	Spar-7	1082435	239.0046	2.943152	1700	228
16432443	Spar-8	529296	221.1892	2.831394	870	221
16961739	Spar-9	442403	220.5325	2.827104	867	224
17404142	Spar-10	729272	235.2562	2.920346	1161	225
18133414	Spar-11	679893	233.5644	2.909934	1174	222
18813307	Spar-12	1026045	244.648	2.976821	31043	228
19839352	Spar-13	926729	237.2093	2.932274	2764	227
20766081	Spar-14	776644	231.3581	2.896241	1351	227
21542725	Spar-15	1061158	240.5203	2.952272	2767	229
22603883	Spar-16	904322	231.5025	2.897141	1880	225
23508205	Smik-1	188471	6.938086	0	3776	0
23696676	Smik-2	788170	0.03026124	0	585	0
24484846	Smik-3	311108	0.04031719	0	266	0
24795954	Smik-4	1444590	0.08232647	0	1649	0
26240544	Smik-5	567059	0.00341058	0	32	0
26807603	Smik-6	801748	0.01399567	0	224	0
27609351	Smik-7	628517	0.06012884	0	882	0
28237868	Smik-8	500793	0.03560154	0	368	0
28738661	Smik-9	418555	0.001017787	0	4	0
29157216	Smik-10	702533	0.0231434	0	342	0
29859749	Smik-11	654555	0.002756071	0	26	0
30514304	Smik-12	998246	0.09540033	0	2211	0
31512550	Smik-13	899821	0.04266737	0	1070	0
32412371	Smik-14	731595	0.01523657	0	224	0
33143966	Smik-15	1013536	0.1139831	0	1125	0
34157502	Smik-16	800825	0.01872194	0	368	0
34958327	Sjur-1	809572	0.1432695	0	2254	0
35767899	Sjur-2	809280	0.02484554	0	308	0
36577179	Sjur-3	308350	0.05889087	0	509	0
36885529	Sjur-4	1474466	0.03030385	0	772	0
38359995	Sjur-5	584553	0.04397035	0	570	0
38944548	Sjur-6	730011	0.02746945	0	684	0
39674559	Sjur-7	638210	0.1921201	0	1874	0
40312769	Sjur-8	534462	0.03546183	0	397	0
40847231	Sjur-9	434517	0.1014943	0	403	0
41281748	Sjur-10	738741	0.04832275	0	780	0
42020489	Sjur-11	671067	0.0756154	0	916	0
42691556	Sjur-12	458950	74.18653	1.255343	30569	0
43150506	Sjur-13	568540	0.01870757	0	318	0
43719046	Sjur-14	334136	0.08742847	0	838	0
44053182	Sjur-15	749072	0.06039873	0	593	0
44802254	Sjur-16	1068672	0.05155838	0	1722	0
45870926	Sjur-17	920427	0.02162583	0	402	0
46791353	Skud-1	199426	0.09973624	0	324	0
46990779	Skud-2	784124	0.1365766	0	1803	0
47774903	Skud-3	337911	0.1843266	0	1104	0
48112814	Skud-4	1455859	0.05150842	0	367	0
49568673	Skud-5	528556	0.04798356	0	172	0
50097229	Skud-6	278641	0.2573275	0	1638	0
50375870	Skud-7	1092180	0.09075244	0	1256	0
51468050	Skud-8	512600	0.08556574	0	1510	0
51980650	Skud-9	438920	0.0316413	0	100	0
52419570	Skud-10	690961	0.04554092	0	318	0
53110531	Skud-11	658697	0.04213014	0	319	0
53769228	Skud-12	1038862	5.131709	0	15025	0
54808090	Skud-13	898506	0.1104723	0	2145	0
55706596	Skud-14	776595	0.04385169	0	526	0
56483191	Skud-15	1030073	0.1053382	0	1395	0
57513264	Skud-16	881309	0.0787987	0	1254	0
58394573	Sarb-1	194368	0.64311	0	876	0
58588941	Sarb-2	782499	1.110061	0	14511	0
59371440	Sarb-3	298424	0.09167493	0	497	0
59669864	Sarb-4	1141293	0.05326415	0	940	0
60811157	Sarb-5	407361	0.08967476	0	754	0
61218518	Sarb-6	531626	0.02223556	0	270	0
61750144	Sarb-7	272605	0.0392546	0	428	0
62022749	Sarb-8	1053431	0.01603048	0	244	0
63076180	Sarb-9	527949	0.01051996	0	158	0
63604129	Sarb-10	721635	0.05375848	0	728	0
64325764	Sarb-11	650640	0.1835854	0	1578	0
64976404	Sarb-12	984206	0.1832614	0	2364	0
65960610	Sarb-13	1246548	0.04180505	0	1017	0
67207158	Sarb-14	771513	0.06165029	0	734	0
67978671	Sarb-15	1023324	0.07192346	0	745	0
69001995	Sarb-16	879294	0.04069742	0	268	0
69881289	Seub-1	175444	0.000421787	0	2	0
70056733	Seub-2	1274804	0.235881	0	2736	0
71331537	Seub-3	305615	0.02127186	0	154	0
71637152	Seub-4	982538	0.02383826	0	436	0
72619690	Seub-5	588913	0.7510193	0	6172	0
73208603	Seub-6	264757	0.08182598	0	582	0
73473360	Seub-7	1051730	0.03272133	0	841	0
74525090	Seub-8	813827	0.04208634	0	432	0
75338917	Seub-9	401362	0.01451308	0	170	0
75740279	Seub-10	747934	0.03450973	0	970	0
76488213	Seub-11	632881	0.07461118	0	842	0
77121094	Seub-12	1033978	0.3925635	0	2582	0
78155072	Seub-13	953685	0.04418125	0	628	0
79108757	Seub-14	768019	0.01813757	0	186	0
79876776	Seub-15	741893	0.1477855	0	1092	0
80618669	Seub-16	896107	0.03222606	0	576	0
81514776	Suva-1	189981	0.4453182	0	1479	0
81704757	Suva-2	1289935	0.02710137	0	457	0
82994692	Suva-3	295075	0.04333475	0	233	0
83289767	Suva-4	983774	0.01418923	0	366	0
84273541	Suva-5	531350	0.1101967	0	814	0
84804891	Suva-6	523204	4.367809	0	6837	0
85328095	Suva-7	1027508	0.1775042	0	2096	0
86355603	Suva-8	806278	0.03672679	0	406	0
87161881	Suva-9	418340	0.05091552	0	512	0
87580221	Suva-10	445542	0.04692487	0	470	0
88025763	Suva-11	635711	0.01772504	0	338	0
88661474	Suva-12	1016005	0.03475377	0	352	0
89677479	Suva-13	907341	0.01162408	0	197	0
90584820	Suva-14	750656	0.03898723	0	306	0
91335476	Suva-15	763749	0.1719688	0	2417	0
92099225	Suva-16	918464	0.04535943	0	828	0
